<?xml version="1.0" encoding="UTF-8"?>
<!DOCTYPE svg PUBLIC "-//W3C//DTD SVG 1.1//EN" "http://www.w3.org/Graphics/SVG/1.1/DTD/svg11.dtd">
<svg version="1.2" width="275mm" height="160mm" viewBox="0 0 27500 16000" preserveAspectRatio="xMidYMid" fill-rule="evenodd" stroke-width="28.222" stroke-linejoin="round" xmlns="http://www.w3.org/2000/svg" xmlns:ooo="http://xml.openoffice.org/svg/export" xmlns:xlink="http://www.w3.org/1999/xlink" xmlns:presentation="http://sun.com/xmlns/staroffice/presentation" xmlns:smil="http://www.w3.org/2001/SMIL20/" xmlns:anim="urn:oasis:names:tc:opendocument:xmlns:animation:1.0" xmlns:svg="urn:oasis:names:tc:opendocument:xmlns:svg-compatible:1.0" xml:space="preserve">
 <defs class="ClipPathGroup">
  <clipPath id="presentation_clip_path" clipPathUnits="userSpaceOnUse">
   <rect x="0" y="0" width="27500" height="16000"/>
  </clipPath>
  <clipPath id="presentation_clip_path_shrink" clipPathUnits="userSpaceOnUse">
   <rect x="27" y="16" width="27445" height="15968"/>
  </clipPath>
 </defs>
 <defs>
  <font id="EmbeddedFont_1" horiz-adv-x="2048">
   <font-face font-family="Liberation Sans embedded" units-per-em="2048" font-weight="normal" font-style="normal" ascent="1852" descent="423"/>
   <missing-glyph horiz-adv-x="2048" d="M 0,0 L 2047,0 2047,2047 0,2047 0,0 Z"/>
   <glyph unicode="ç" horiz-adv-x="901" d="M 275,546 C 275,402 298,295 343,226 388,157 457,122 548,122 612,122 666,139 709,174 752,209 778,262 788,334 L 970,322 C 956,218 912,135 837,73 762,11 668,-20 553,-20 402,-20 286,28 207,124 127,219 87,359 87,542 87,724 127,863 207,959 287,1054 402,1102 551,1102 662,1102 754,1073 827,1016 900,959 945,880 964,779 L 779,765 C 770,825 746,873 708,908 670,943 616,961 546,961 451,961 382,929 339,866 296,803 275,696 275,546 Z M 751,-252 C 751,-373 660,-434 477,-434 439,-434 409,-433 387,-430 L 387,-332 C 420,-336 448,-338 473,-338 571,-338 620,-311 620,-257 620,-206 576,-180 487,-180 458,-180 439,-181 430,-182 L 495,0 602,0 563,-102 C 626,-102 673,-116 704,-143 735,-170 751,-206 751,-252 Z"/>
   <glyph unicode="ã" horiz-adv-x="1060" d="M 414,-20 C 305,-20 224,9 169,66 114,123 87,202 87,302 87,414 124,500 198,560 271,620 390,652 554,656 L 797,660 797,719 C 797,807 778,870 741,908 704,946 645,965 565,965 484,965 426,951 389,924 352,897 330,853 323,793 L 135,810 C 166,1005 310,1102 569,1102 705,1102 807,1071 876,1009 945,946 979,856 979,738 L 979,272 C 979,219 986,179 1000,152 1014,125 1041,111 1080,111 1097,111 1117,113 1139,118 L 1139,6 C 1094,-5 1047,-10 1000,-10 933,-10 885,8 855,43 824,78 807,132 803,207 L 797,207 C 751,124 698,66 637,32 576,-3 501,-20 414,-20 Z M 455,115 C 521,115 580,130 631,160 682,190 723,231 753,284 782,336 797,390 797,445 L 797,534 600,530 C 515,529 451,520 408,504 364,488 330,463 307,430 284,397 272,353 272,299 272,240 288,195 320,163 351,131 396,115 455,115 Z M 737,1201 C 709,1201 681,1207 653,1220 625,1232 598,1246 572,1261 546,1276 521,1289 498,1302 474,1314 452,1320 431,1320 394,1320 367,1310 349,1289 331,1268 319,1239 313,1201 L 222,1201 C 229,1269 241,1321 257,1356 273,1391 295,1418 322,1439 349,1459 383,1469 425,1469 454,1469 483,1463 511,1451 539,1438 566,1425 592,1410 618,1395 643,1381 666,1369 689,1356 710,1350 730,1350 797,1350 836,1390 847,1469 L 939,1469 C 928,1370 905,1301 872,1261 839,1221 794,1201 737,1201 Z"/>
   <glyph unicode="á" horiz-adv-x="1060" d="M 414,-20 C 305,-20 224,9 169,66 114,123 87,202 87,302 87,414 124,500 198,560 271,620 390,652 554,656 L 797,660 797,719 C 797,807 778,870 741,908 704,946 645,965 565,965 484,965 426,951 389,924 352,897 330,853 323,793 L 135,810 C 166,1005 310,1102 569,1102 705,1102 807,1071 876,1009 945,946 979,856 979,738 L 979,272 C 979,219 986,179 1000,152 1014,125 1041,111 1080,111 1097,111 1117,113 1139,118 L 1139,6 C 1094,-5 1047,-10 1000,-10 933,-10 885,8 855,43 824,78 807,132 803,207 L 797,207 C 751,124 698,66 637,32 576,-3 501,-20 414,-20 Z M 455,115 C 521,115 580,130 631,160 682,190 723,231 753,284 782,336 797,390 797,445 L 797,534 600,530 C 515,529 451,520 408,504 364,488 330,463 307,430 284,397 272,353 272,299 272,240 288,195 320,163 351,131 396,115 455,115 Z M 412,1201 L 412,1221 629,1508 836,1508 836,1479 506,1201 412,1201 Z"/>
   <glyph unicode="v" horiz-adv-x="1033" d="M 613,0 L 400,0 7,1082 199,1082 437,378 C 446,351 469,272 506,141 L 541,258 580,376 826,1082 1017,1082 613,0 Z"/>
   <glyph unicode="u" horiz-adv-x="874" d="M 314,1082 L 314,396 C 314,325 321,269 335,230 349,191 371,162 402,145 433,128 478,119 537,119 624,119 692,149 742,208 792,267 817,350 817,455 L 817,1082 997,1082 997,231 C 997,105 999,28 1003,0 L 833,0 C 832,3 832,12 831,27 830,42 830,59 829,78 828,97 826,132 825,185 L 822,185 C 781,110 733,58 679,27 624,-4 557,-20 476,-20 357,-20 271,10 216,69 161,128 133,225 133,361 L 133,1082 314,1082 Z"/>
   <glyph unicode="t" horiz-adv-x="531" d="M 554,8 C 495,-8 434,-16 372,-16 228,-16 156,66 156,229 L 156,951 31,951 31,1082 163,1082 216,1324 336,1324 336,1082 536,1082 536,951 336,951 336,268 C 336,216 345,180 362,159 379,138 408,127 450,127 474,127 509,132 554,141 L 554,8 Z"/>
   <glyph unicode="s" horiz-adv-x="901" d="M 950,299 C 950,197 912,118 835,63 758,8 650,-20 511,-20 376,-20 273,2 200,47 127,91 79,160 57,254 L 216,285 C 231,227 263,185 311,158 359,131 426,117 511,117 602,117 669,131 712,159 754,187 775,229 775,285 775,328 760,362 731,389 702,416 654,438 589,455 L 460,489 C 357,516 283,542 240,568 196,593 162,624 137,661 112,698 100,743 100,796 100,895 135,970 206,1022 276,1073 378,1099 513,1099 632,1099 727,1078 798,1036 868,994 912,927 931,834 L 769,814 C 759,862 732,899 689,925 645,950 586,963 513,963 432,963 372,951 333,926 294,901 275,864 275,814 275,783 283,758 299,738 315,718 339,701 370,687 401,673 467,654 568,629 663,605 732,583 774,563 816,542 849,520 874,495 898,470 917,442 930,410 943,377 950,340 950,299 Z"/>
   <glyph unicode="r" horiz-adv-x="530" d="M 142,0 L 142,830 C 142,906 140,990 136,1082 L 306,1082 C 311,959 314,886 314,861 L 318,861 C 347,954 380,1017 417,1051 454,1085 507,1102 575,1102 599,1102 623,1099 648,1092 L 648,927 C 624,934 592,937 552,937 477,937 420,905 381,841 342,776 322,684 322,564 L 322,0 142,0 Z"/>
   <glyph unicode="p" horiz-adv-x="953" d="M 1053,546 C 1053,169 920,-20 655,-20 488,-20 376,43 319,168 L 314,168 C 317,163 318,106 318,-2 L 318,-425 138,-425 138,861 C 138,972 136,1046 132,1082 L 306,1082 C 307,1079 308,1070 309,1054 310,1037 312,1012 314,978 315,944 316,921 316,908 L 320,908 C 352,975 394,1024 447,1055 500,1086 569,1101 655,1101 788,1101 888,1056 954,967 1020,878 1053,737 1053,546 Z M 864,542 C 864,693 844,800 803,865 762,930 698,962 609,962 538,962 482,947 442,917 401,887 371,840 350,777 329,713 318,630 318,528 318,386 341,281 386,214 431,147 505,113 607,113 696,113 762,146 803,212 844,277 864,387 864,542 Z"/>
   <glyph unicode="o" horiz-adv-x="980" d="M 1053,542 C 1053,353 1011,212 928,119 845,26 724,-20 565,-20 407,-20 288,28 207,125 126,221 86,360 86,542 86,915 248,1102 571,1102 736,1102 858,1057 936,966 1014,875 1053,733 1053,542 Z M 864,542 C 864,691 842,800 798,868 753,935 679,969 574,969 469,969 393,935 346,866 299,797 275,689 275,542 275,399 298,292 345,221 391,149 464,113 563,113 671,113 748,148 795,217 841,286 864,395 864,542 Z"/>
   <glyph unicode="n" horiz-adv-x="874" d="M 825,0 L 825,686 C 825,757 818,813 804,852 790,891 768,920 737,937 706,954 661,963 602,963 515,963 447,933 397,874 347,815 322,732 322,627 L 322,0 142,0 142,851 C 142,977 140,1054 136,1082 L 306,1082 C 307,1079 307,1070 308,1055 309,1040 310,1024 311,1005 312,986 313,950 314,897 L 317,897 C 358,972 406,1025 461,1056 515,1087 582,1102 663,1102 782,1102 869,1073 924,1014 979,955 1006,857 1006,721 L 1006,0 825,0 Z"/>
   <glyph unicode="m" horiz-adv-x="1457" d="M 768,0 L 768,686 C 768,791 754,863 725,903 696,943 645,963 570,963 493,963 433,934 388,875 343,816 321,734 321,627 L 321,0 142,0 142,851 C 142,977 140,1054 136,1082 L 306,1082 C 307,1079 307,1070 308,1055 309,1040 310,1024 311,1005 312,986 313,950 314,897 L 317,897 C 356,974 400,1027 450,1057 500,1087 561,1102 633,1102 715,1102 780,1086 828,1053 875,1020 908,968 927,897 L 930,897 C 967,970 1013,1022 1066,1054 1119,1086 1183,1102 1258,1102 1367,1102 1447,1072 1497,1013 1546,954 1571,856 1571,721 L 1571,0 1393,0 1393,686 C 1393,791 1379,863 1350,903 1321,943 1270,963 1195,963 1116,963 1055,934 1012,876 968,817 946,734 946,627 L 946,0 768,0 Z"/>
   <glyph unicode="l" horiz-adv-x="187" d="M 138,0 L 138,1484 318,1484 318,0 138,0 Z"/>
   <glyph unicode="i" horiz-adv-x="187" d="M 137,1312 L 137,1484 317,1484 317,1312 137,1312 Z M 137,0 L 137,1082 317,1082 317,0 137,0 Z"/>
   <glyph unicode="g" horiz-adv-x="927" d="M 548,-425 C 430,-425 336,-402 266,-356 196,-309 151,-243 131,-158 L 312,-132 C 324,-182 351,-220 392,-248 433,-274 486,-288 553,-288 732,-288 822,-183 822,27 L 822,201 820,201 C 786,132 739,80 680,45 621,10 551,-8 472,-8 339,-8 242,36 180,124 117,212 86,350 86,539 86,730 120,872 187,963 254,1054 355,1099 492,1099 569,1099 635,1082 692,1047 748,1012 791,962 822,897 L 824,897 C 824,917 825,952 828,1001 831,1050 833,1077 836,1082 L 1007,1082 C 1003,1046 1001,971 1001,858 L 1001,31 C 1001,-273 850,-425 548,-425 Z M 822,541 C 822,629 810,705 786,769 762,832 728,881 685,915 641,948 591,965 536,965 444,965 377,932 335,865 293,798 272,690 272,541 272,393 292,287 331,222 370,157 438,125 533,125 590,125 640,142 684,175 728,208 762,256 786,319 810,381 822,455 822,541 Z"/>
   <glyph unicode="e" horiz-adv-x="980" d="M 276,503 C 276,379 302,283 353,216 404,149 479,115 578,115 656,115 719,131 766,162 813,193 844,233 861,281 L 1019,236 C 954,65 807,-20 578,-20 418,-20 296,28 213,123 129,218 87,360 87,548 87,727 129,864 213,959 296,1054 416,1102 571,1102 889,1102 1048,910 1048,527 L 1048,503 276,503 Z M 862,641 C 852,755 823,838 775,891 727,943 658,969 568,969 481,969 412,940 361,882 310,823 282,743 278,641 L 862,641 Z"/>
   <glyph unicode="d" horiz-adv-x="927" d="M 821,174 C 788,105 744,55 689,25 634,-5 565,-20 484,-20 347,-20 247,26 183,118 118,210 86,349 86,536 86,913 219,1102 484,1102 566,1102 634,1087 689,1057 744,1027 788,979 821,914 L 823,914 821,1035 821,1484 1001,1484 1001,223 C 1001,110 1003,36 1007,0 L 835,0 C 833,11 831,35 829,74 826,113 825,146 825,174 L 821,174 Z M 275,542 C 275,391 295,282 335,217 375,152 440,119 530,119 632,119 706,154 752,225 798,296 821,405 821,554 821,697 798,802 752,869 706,936 633,969 532,969 441,969 376,936 336,869 295,802 275,693 275,542 Z"/>
   <glyph unicode="c" horiz-adv-x="901" d="M 275,546 C 275,402 298,295 343,226 388,157 457,122 548,122 612,122 666,139 709,174 752,209 778,262 788,334 L 970,322 C 956,218 912,135 837,73 762,11 668,-20 553,-20 402,-20 286,28 207,124 127,219 87,359 87,542 87,724 127,863 207,959 287,1054 402,1102 551,1102 662,1102 754,1073 827,1016 900,959 945,880 964,779 L 779,765 C 770,825 746,873 708,908 670,943 616,961 546,961 451,961 382,929 339,866 296,803 275,696 275,546 Z"/>
   <glyph unicode="a" horiz-adv-x="1060" d="M 414,-20 C 305,-20 224,9 169,66 114,123 87,202 87,302 87,414 124,500 198,560 271,620 390,652 554,656 L 797,660 797,719 C 797,807 778,870 741,908 704,946 645,965 565,965 484,965 426,951 389,924 352,897 330,853 323,793 L 135,810 C 166,1005 310,1102 569,1102 705,1102 807,1071 876,1009 945,946 979,856 979,738 L 979,272 C 979,219 986,179 1000,152 1014,125 1041,111 1080,111 1097,111 1117,113 1139,118 L 1139,6 C 1094,-5 1047,-10 1000,-10 933,-10 885,8 855,43 824,78 807,132 803,207 L 797,207 C 751,124 698,66 637,32 576,-3 501,-20 414,-20 Z M 455,115 C 521,115 580,130 631,160 682,190 723,231 753,284 782,336 797,390 797,445 L 797,534 600,530 C 515,529 451,520 408,504 364,488 330,463 307,430 284,397 272,353 272,299 272,240 288,195 320,163 351,131 396,115 455,115 Z"/>
   <glyph unicode="S" horiz-adv-x="1192" d="M 1272,389 C 1272,259 1221,158 1120,87 1018,16 875,-20 690,-20 347,-20 148,99 93,338 L 278,375 C 299,290 345,228 414,189 483,149 578,129 697,129 820,129 916,150 983,193 1050,235 1083,297 1083,379 1083,425 1073,462 1052,491 1031,520 1001,543 963,562 925,581 880,596 827,609 774,622 716,635 652,650 541,675 456,699 399,724 341,749 295,776 262,807 229,837 203,872 186,913 168,954 159,1000 159,1053 159,1174 205,1267 298,1332 390,1397 522,1430 694,1430 854,1430 976,1406 1061,1357 1146,1308 1205,1224 1239,1106 L 1051,1073 C 1030,1148 991,1202 933,1236 875,1269 795,1286 692,1286 579,1286 493,1267 434,1230 375,1193 345,1137 345,1063 345,1020 357,984 380,956 403,927 436,903 479,884 522,864 609,840 738,811 781,801 825,791 868,781 911,770 952,758 991,744 1030,729 1067,712 1102,693 1136,674 1166,650 1191,622 1216,594 1236,561 1251,523 1265,485 1272,440 1272,389 Z"/>
   <glyph unicode="R" horiz-adv-x="1244" d="M 1164,0 L 798,585 359,585 359,0 168,0 168,1409 831,1409 C 990,1409 1112,1374 1199,1303 1285,1232 1328,1133 1328,1006 1328,901 1298,813 1237,742 1176,671 1091,626 984,607 L 1384,0 1164,0 Z M 1136,1004 C 1136,1086 1108,1149 1053,1192 997,1235 917,1256 812,1256 L 359,1256 359,736 820,736 C 921,736 999,760 1054,807 1109,854 1136,919 1136,1004 Z"/>
   <glyph unicode="Q" horiz-adv-x="1430" d="M 1495,711 C 1495,512 1445,349 1345,221 1245,93 1106,17 928,-6 955,-90 991,-151 1036,-188 1080,-225 1136,-244 1204,-244 1241,-244 1279,-240 1319,-231 L 1319,-365 C 1257,-380 1198,-387 1141,-387 1040,-387 958,-358 893,-302 828,-244 774,-149 733,-16 601,-9 487,24 392,85 296,145 223,229 173,337 122,444 97,569 97,711 97,936 159,1113 282,1240 405,1367 577,1430 797,1430 940,1430 1065,1402 1170,1345 1275,1288 1356,1205 1412,1096 1467,987 1495,859 1495,711 Z M 1300,711 C 1300,886 1256,1024 1169,1124 1081,1224 957,1274 797,1274 636,1274 511,1225 423,1126 335,1027 291,889 291,711 291,534 336,394 425,291 514,187 637,135 795,135 958,135 1083,185 1170,286 1257,386 1300,528 1300,711 Z"/>
   <glyph unicode="P" horiz-adv-x="1112" d="M 1258,985 C 1258,852 1215,746 1128,667 1041,588 922,549 773,549 L 359,549 359,0 168,0 168,1409 761,1409 C 919,1409 1041,1372 1128,1298 1215,1224 1258,1120 1258,985 Z M 1066,983 C 1066,1165 957,1256 738,1256 L 359,1256 359,700 746,700 C 959,700 1066,794 1066,983 Z"/>
   <glyph unicode="L" horiz-adv-x="927" d="M 168,0 L 168,1409 359,1409 359,156 1071,156 1071,0 168,0 Z"/>
   <glyph unicode="E" horiz-adv-x="1138" d="M 168,0 L 168,1409 1237,1409 1237,1253 359,1253 359,801 1177,801 1177,647 359,647 359,156 1278,156 1278,0 168,0 Z"/>
   <glyph unicode="D" horiz-adv-x="1218" d="M 1381,719 C 1381,574 1353,447 1296,338 1239,229 1159,145 1055,87 951,29 831,0 695,0 L 168,0 168,1409 634,1409 C 873,1409 1057,1349 1187,1230 1316,1110 1381,940 1381,719 Z M 1189,719 C 1189,894 1141,1027 1046,1119 950,1210 811,1256 630,1256 L 359,1256 359,153 673,153 C 776,153 867,176 946,221 1024,266 1084,332 1126,417 1168,502 1189,603 1189,719 Z"/>
   <glyph unicode="B" horiz-adv-x="1112" d="M 1258,397 C 1258,272 1212,174 1121,105 1030,35 903,0 740,0 L 168,0 168,1409 680,1409 C 1011,1409 1176,1295 1176,1067 1176,984 1153,914 1106,857 1059,800 993,762 908,743 1020,730 1106,692 1167,631 1228,569 1258,491 1258,397 Z M 984,1044 C 984,1120 958,1174 906,1207 854,1240 779,1256 680,1256 L 359,1256 359,810 680,810 C 782,810 858,829 909,868 959,906 984,965 984,1044 Z M 1065,412 C 1065,578 948,661 715,661 L 359,661 359,153 730,153 C 847,153 932,175 985,218 1038,261 1065,326 1065,412 Z"/>
   <glyph unicode=" " horiz-adv-x="556"/>
  </font>
 </defs>
 <defs class="TextShapeIndex">
  <g ooo:slide="id1" ooo:id-list="id3 id4 id5 id6 id7 id8 id9 id10 id11 id12 id13 id14 id15 id16 id17 id18 id19 id20 id21 id22 id23 id24 id25 id26 id27"/>
 </defs>
 <defs class="EmbeddedBulletChars">
  <g id="bullet-char-template-57356" transform="scale(0.00048828125,-0.00048828125)">
   <path d="M 580,1141 L 1163,571 580,0 -4,571 580,1141 Z"/>
  </g>
  <g id="bullet-char-template-57354" transform="scale(0.00048828125,-0.00048828125)">
   <path d="M 8,1128 L 1137,1128 1137,0 8,0 8,1128 Z"/>
  </g>
  <g id="bullet-char-template-10146" transform="scale(0.00048828125,-0.00048828125)">
   <path d="M 174,0 L 602,739 174,1481 1456,739 174,0 Z M 1358,739 L 309,1346 659,739 1358,739 Z"/>
  </g>
  <g id="bullet-char-template-10132" transform="scale(0.00048828125,-0.00048828125)">
   <path d="M 2015,739 L 1276,0 717,0 1260,543 174,543 174,936 1260,936 717,1481 1274,1481 2015,739 Z"/>
  </g>
  <g id="bullet-char-template-10007" transform="scale(0.00048828125,-0.00048828125)">
   <path d="M 0,-2 C -7,14 -16,27 -25,37 L 356,567 C 262,823 215,952 215,954 215,979 228,992 255,992 264,992 276,990 289,987 310,991 331,999 354,1012 L 381,999 492,748 772,1049 836,1024 860,1049 C 881,1039 901,1025 922,1006 886,937 835,863 770,784 769,783 710,716 594,584 L 774,223 C 774,196 753,168 711,139 L 727,119 C 717,90 699,76 672,76 641,76 570,178 457,381 L 164,-76 C 142,-110 111,-127 72,-127 30,-127 9,-110 8,-76 1,-67 -2,-52 -2,-32 -2,-23 -1,-13 0,-2 Z"/>
  </g>
  <g id="bullet-char-template-10004" transform="scale(0.00048828125,-0.00048828125)">
   <path d="M 285,-33 C 182,-33 111,30 74,156 52,228 41,333 41,471 41,549 55,616 82,672 116,743 169,778 240,778 293,778 328,747 346,684 L 369,508 C 377,444 397,411 428,410 L 1163,1116 C 1174,1127 1196,1133 1229,1133 1271,1133 1292,1118 1292,1087 L 1292,965 C 1292,929 1282,901 1262,881 L 442,47 C 390,-6 338,-33 285,-33 Z"/>
  </g>
  <g id="bullet-char-template-9679" transform="scale(0.00048828125,-0.00048828125)">
   <path d="M 813,0 C 632,0 489,54 383,161 276,268 223,411 223,592 223,773 276,916 383,1023 489,1130 632,1184 813,1184 992,1184 1136,1130 1245,1023 1353,916 1407,772 1407,592 1407,412 1353,268 1245,161 1136,54 992,0 813,0 Z"/>
  </g>
  <g id="bullet-char-template-8226" transform="scale(0.00048828125,-0.00048828125)">
   <path d="M 346,457 C 273,457 209,483 155,535 101,586 74,649 74,723 74,796 101,859 155,911 209,963 273,989 346,989 419,989 480,963 531,910 582,859 608,796 608,723 608,648 583,586 532,535 482,483 420,457 346,457 Z"/>
  </g>
  <g id="bullet-char-template-8211" transform="scale(0.00048828125,-0.00048828125)">
   <path d="M -4,459 L 1135,459 1135,606 -4,606 -4,459 Z"/>
  </g>
  <g id="bullet-char-template-61548" transform="scale(0.00048828125,-0.00048828125)">
   <path d="M 173,740 C 173,903 231,1043 346,1159 462,1274 601,1332 765,1332 928,1332 1067,1274 1183,1159 1299,1043 1357,903 1357,740 1357,577 1299,437 1183,322 1067,206 928,148 765,148 601,148 462,206 346,322 231,437 173,577 173,740 Z"/>
  </g>
 </defs>
 <g>
  <g id="id2" class="Master_Slide">
   <g id="bg-id2" class="Background"/>
   <g id="bo-id2" class="BackgroundObjects"/>
  </g>
 </g>
 <g class="SlideGroup">
  <g>
   <g id="container-id1">
    <g id="id1" class="Slide" clip-path="url(#presentation_clip_path)">
     <g class="Page">
      <g class="com.sun.star.drawing.CustomShape">
       <g id="id3">
        <rect class="BoundingBox" stroke="none" fill="none" x="19149" y="1099" width="8003" height="12253"/>
        <path fill="rgb(255,255,166)" stroke="none" d="M 23150,13350 L 19150,13350 19150,1100 27150,1100 27150,13350 23150,13350 Z"/>
        <path fill="none" stroke="rgb(52,101,164)" d="M 23150,13350 L 19150,13350 19150,1100 27150,1100 27150,13350 23150,13350 Z"/>
       </g>
      </g>
      <g class="TextShape">
       <g id="id4">
        <rect class="BoundingBox" stroke="none" fill="none" x="1600" y="100" width="5325" height="963"/>
        <text class="SVGTextShape"><tspan class="TextParagraph" font-family="Liberation Sans, sans-serif" font-size="635px" font-weight="400"><tspan class="TextPosition" x="1850" y="801"><tspan fill="rgb(0,0,0)" stroke="none" style="white-space: pre">Servidor primário</tspan></tspan></tspan></text>
       </g>
      </g>
      <g class="TextShape">
       <g id="id5">
        <rect class="BoundingBox" stroke="none" fill="none" x="20050" y="200" width="6133" height="963"/>
        <text class="SVGTextShape"><tspan class="TextParagraph" font-family="Liberation Sans, sans-serif" font-size="635px" font-weight="400"><tspan class="TextPosition" x="20300" y="901"><tspan fill="rgb(0,0,0)" stroke="none" style="white-space: pre">Servidor secundário</tspan></tspan></tspan></text>
       </g>
      </g>
      <g class="TextShape">
       <g id="id6">
        <rect class="BoundingBox" stroke="none" fill="none" x="10250" y="6500" width="6874" height="963"/>
        <text class="SVGTextShape"><tspan class="TextParagraph" font-family="Liberation Sans, sans-serif" font-size="635px" font-weight="400"><tspan class="TextPosition" x="10500" y="7201"><tspan fill="rgb(0,0,0)" stroke="none" style="white-space: pre">Rede de replicação</tspan></tspan></tspan></text>
       </g>
      </g>
      <g class="com.sun.star.drawing.CustomShape">
       <g id="id7">
        <rect class="BoundingBox" stroke="none" fill="none" x="149" y="1099" width="8003" height="12253"/>
        <path fill="rgb(255,255,166)" stroke="none" d="M 4150,13350 L 150,13350 150,1100 8150,1100 8150,13350 4150,13350 Z"/>
        <path fill="none" stroke="rgb(52,101,164)" d="M 4150,13350 L 150,13350 150,1100 8150,1100 8150,13350 4150,13350 Z"/>
       </g>
      </g>
      <g class="com.sun.star.drawing.CustomShape">
       <g id="id8">
        <rect class="BoundingBox" stroke="none" fill="none" x="350" y="1600" width="7504" height="2504"/>
        <path fill="rgb(114,159,207)" stroke="none" d="M 1556,4102 L 1556,4102 C 1344,4102 1137,4044 954,3934 770,3825 618,3667 512,3477 407,3287 351,3071 351,2852 L 351,2852 C 351,2632 407,2416 512,2226 618,2036 770,1878 954,1769 1137,1659 1344,1601 1556,1601 L 6646,1601 6647,1601 C 6859,1601 7066,1659 7249,1769 7433,1878 7585,2036 7691,2226 7796,2416 7852,2632 7852,2852 L 7852,2852 7852,2852 C 7852,3071 7796,3287 7691,3477 7585,3667 7433,3825 7249,3934 7066,4044 6859,4102 6647,4102 L 1556,4102 Z"/>
        <path fill="none" stroke="rgb(52,101,164)" d="M 1556,4102 L 1556,4102 C 1344,4102 1137,4044 954,3934 770,3825 618,3667 512,3477 407,3287 351,3071 351,2852 L 351,2852 C 351,2632 407,2416 512,2226 618,2036 770,1878 954,1769 1137,1659 1344,1601 1556,1601 L 6646,1601 6647,1601 C 6859,1601 7066,1659 7249,1769 7433,1878 7585,2036 7691,2226 7796,2416 7852,2632 7852,2852 L 7852,2852 7852,2852 C 7852,3071 7796,3287 7691,3477 7585,3667 7433,3825 7249,3934 7066,4044 6859,4102 6647,4102 L 1556,4102 Z"/>
        <text class="SVGTextShape"><tspan class="TextParagraph" font-family="Liberation Sans, sans-serif" font-size="635px" font-weight="400"><tspan class="TextPosition" x="2373" y="3071"><tspan fill="rgb(0,0,0)" stroke="none" style="white-space: pre">PostgreSQL</tspan></tspan></tspan></text>
       </g>
      </g>
      <g class="com.sun.star.drawing.LineShape">
       <g id="id9">
        <rect class="BoundingBox" stroke="none" fill="none" x="3951" y="4101" width="301" height="2251"/>
        <path fill="none" stroke="rgb(52,101,164)" d="M 4101,4381 L 4101,6071"/>
        <path fill="rgb(52,101,164)" stroke="none" d="M 3951,4401 L 4101,4101 4251,4401 3951,4401 Z"/>
        <path fill="rgb(52,101,164)" stroke="none" d="M 4251,6051 L 4101,6351 3951,6051 4251,6051 Z"/>
       </g>
      </g>
      <g class="com.sun.star.drawing.CustomShape">
       <g id="id10">
        <rect class="BoundingBox" stroke="none" fill="none" x="2251" y="6301" width="3754" height="2004"/>
        <path fill="rgb(114,159,207)" stroke="none" d="M 2252,6302 L 6003,6302 6003,8303 2252,8303 2252,6302 2252,6302 Z"/>
        <path fill="none" stroke="rgb(52,101,164)" d="M 2252,6302 L 6003,6302 6003,8303 2252,8303 2252,6302 2252,6302 Z"/>
        <text class="SVGTextShape"><tspan class="TextParagraph" font-family="Liberation Sans, sans-serif" font-size="635px" font-weight="400"><tspan class="TextPosition" x="3229" y="7522"><tspan fill="rgb(0,0,0)" stroke="none" style="white-space: pre">DRBD</tspan></tspan></tspan></text>
       </g>
      </g>
      <g class="com.sun.star.drawing.CustomShape">
       <g id="id11">
        <rect class="BoundingBox" stroke="none" fill="none" x="2750" y="10400" width="2754" height="2504"/>
        <path fill="rgb(114,159,207)" stroke="none" d="M 2751,10794 L 2751,10795 C 2751,10726 2815,10658 2935,10598 3056,10538 3230,10488 3439,10454 3648,10419 3885,10401 4127,10401 L 4127,10401 C 4368,10401 4605,10419 4814,10454 5023,10488 5197,10538 5318,10598 5438,10658 5502,10726 5502,10795 L 5502,10795 5502,12508 5502,12508 C 5502,12577 5438,12645 5318,12705 5197,12765 5023,12815 4814,12849 4605,12884 4368,12902 4127,12902 L 4127,12902 C 3885,12902 3648,12884 3439,12849 3230,12815 3056,12765 2935,12705 2815,12645 2751,12577 2751,12508 L 2751,10794 Z"/>
        <path fill="none" stroke="rgb(52,101,164)" d="M 2751,10794 L 2751,10795 C 2751,10726 2815,10658 2935,10598 3056,10538 3230,10488 3439,10454 3648,10419 3885,10401 4127,10401 L 4127,10401 C 4368,10401 4605,10419 4814,10454 5023,10488 5197,10538 5318,10598 5438,10658 5502,10726 5502,10795 L 5502,10795 5502,12508 5502,12508 C 5502,12577 5438,12645 5318,12705 5197,12765 5023,12815 4814,12849 4605,12884 4368,12902 4127,12902 L 4127,12902 C 3885,12902 3648,12884 3439,12849 3230,12815 3056,12765 2935,12705 2815,12645 2751,12577 2751,12508 L 2751,10794 Z"/>
        <path fill="rgb(114,159,207)" stroke="none" d="M 2751,10794 L 2751,10795 C 2751,10864 2815,10932 2935,10992 3056,11051 3230,11101 3439,11136 3648,11170 3885,11188 4127,11188 L 4127,11188 C 4368,11188 4605,11170 4814,11136 5023,11101 5197,11051 5318,10992 5438,10932 5502,10864 5502,10795 L 2751,10794 Z"/>
        <path fill="none" stroke="rgb(52,101,164)" d="M 2751,10794 L 2751,10795 C 2751,10864 2815,10932 2935,10992 3056,11051 3230,11101 3439,11136 3648,11170 3885,11188 4127,11188 L 4127,11188 C 4368,11188 4605,11170 4814,11136 5023,11101 5197,11051 5318,10992 5438,10932 5502,10864 5502,10795"/>
       </g>
      </g>
      <g class="com.sun.star.drawing.LineShape">
       <g id="id12">
        <rect class="BoundingBox" stroke="none" fill="none" x="3982" y="8301" width="301" height="2251"/>
        <path fill="none" stroke="rgb(52,101,164)" d="M 4132,8581 L 4132,10271"/>
        <path fill="rgb(52,101,164)" stroke="none" d="M 3982,8601 L 4132,8301 4282,8601 3982,8601 Z"/>
        <path fill="rgb(52,101,164)" stroke="none" d="M 4282,10251 L 4132,10551 3982,10251 4282,10251 Z"/>
       </g>
      </g>
      <g class="TextShape">
       <g id="id13">
        <rect class="BoundingBox" stroke="none" fill="none" x="1782" y="8901" width="4732" height="963"/>
        <text class="SVGTextShape"><tspan class="TextParagraph" font-family="Liberation Sans, sans-serif" font-size="635px" font-weight="400"><tspan class="TextPosition" x="2032" y="9602"><tspan fill="rgb(0,0,0)" stroke="none" style="white-space: pre">Leitura  Escrita</tspan></tspan></tspan></text>
       </g>
      </g>
      <g class="TextShape">
       <g id="id14">
        <rect class="BoundingBox" stroke="none" fill="none" x="1783" y="4801" width="4732" height="963"/>
        <text class="SVGTextShape"><tspan class="TextParagraph" font-family="Liberation Sans, sans-serif" font-size="635px" font-weight="400"><tspan class="TextPosition" x="2033" y="5502"><tspan fill="rgb(0,0,0)" stroke="none" style="white-space: pre">Leitura  Escrita</tspan></tspan></tspan></text>
       </g>
      </g>
      <g class="com.sun.star.drawing.CustomShape">
       <g id="id15">
        <rect class="BoundingBox" stroke="none" fill="none" x="19351" y="1601" width="7504" height="2504"/>
        <path fill="rgb(114,159,207)" stroke="none" d="M 20557,4103 L 20557,4103 C 20345,4103 20138,4045 19955,3935 19771,3826 19619,3668 19513,3478 19408,3288 19352,3072 19352,2853 L 19352,2853 C 19352,2633 19408,2417 19513,2227 19619,2037 19771,1879 19955,1770 20138,1660 20345,1602 20557,1602 L 25647,1602 25648,1602 C 25860,1602 26067,1660 26250,1770 26434,1879 26586,2037 26692,2227 26797,2417 26853,2633 26853,2853 L 26853,2853 26853,2853 C 26853,3072 26797,3288 26692,3478 26586,3668 26434,3826 26250,3935 26067,4045 25860,4103 25648,4103 L 20557,4103 Z"/>
        <path fill="none" stroke="rgb(52,101,164)" d="M 20557,4103 L 20557,4103 C 20345,4103 20138,4045 19955,3935 19771,3826 19619,3668 19513,3478 19408,3288 19352,3072 19352,2853 L 19352,2853 C 19352,2633 19408,2417 19513,2227 19619,2037 19771,1879 19955,1770 20138,1660 20345,1602 20557,1602 L 25647,1602 25648,1602 C 25860,1602 26067,1660 26250,1770 26434,1879 26586,2037 26692,2227 26797,2417 26853,2633 26853,2853 L 26853,2853 26853,2853 C 26853,3072 26797,3288 26692,3478 26586,3668 26434,3826 26250,3935 26067,4045 25860,4103 25648,4103 L 20557,4103 Z"/>
        <text class="SVGTextShape"><tspan class="TextParagraph" font-family="Liberation Sans, sans-serif" font-size="635px" font-weight="400"><tspan class="TextPosition" x="21374" y="3072"><tspan fill="rgb(0,0,0)" stroke="none" style="white-space: pre">PostgreSQL</tspan></tspan></tspan></text>
       </g>
      </g>
      <g class="com.sun.star.drawing.CustomShape">
       <g id="id16">
        <rect class="BoundingBox" stroke="none" fill="none" x="21252" y="6302" width="3754" height="2004"/>
        <path fill="rgb(114,159,207)" stroke="none" d="M 21253,6303 L 25004,6303 25004,8304 21253,8304 21253,6303 21253,6303 Z"/>
        <path fill="none" stroke="rgb(52,101,164)" d="M 21253,6303 L 25004,6303 25004,8304 21253,8304 21253,6303 21253,6303 Z"/>
        <text class="SVGTextShape"><tspan class="TextParagraph" font-family="Liberation Sans, sans-serif" font-size="635px" font-weight="400"><tspan class="TextPosition" x="22230" y="7523"><tspan fill="rgb(0,0,0)" stroke="none" style="white-space: pre">DRBD</tspan></tspan></tspan></text>
       </g>
      </g>
      <g class="com.sun.star.drawing.CustomShape">
       <g id="id17">
        <rect class="BoundingBox" stroke="none" fill="none" x="21751" y="10401" width="2754" height="2504"/>
        <path fill="rgb(114,159,207)" stroke="none" d="M 21752,10795 L 21752,10796 C 21752,10727 21816,10659 21936,10599 22057,10539 22231,10489 22440,10455 22649,10420 22886,10402 23127,10402 L 23127,10402 C 23369,10402 23606,10420 23815,10455 24024,10489 24198,10539 24319,10599 24439,10659 24503,10727 24503,10796 L 24503,10796 24503,12509 24503,12509 C 24503,12578 24439,12646 24319,12706 24198,12766 24024,12816 23815,12850 23606,12885 23369,12903 23127,12903 L 23127,12903 C 22886,12903 22649,12885 22440,12850 22231,12816 22057,12766 21936,12706 21816,12646 21752,12578 21752,12509 L 21752,10795 Z"/>
        <path fill="none" stroke="rgb(52,101,164)" d="M 21752,10795 L 21752,10796 C 21752,10727 21816,10659 21936,10599 22057,10539 22231,10489 22440,10455 22649,10420 22886,10402 23127,10402 L 23127,10402 C 23369,10402 23606,10420 23815,10455 24024,10489 24198,10539 24319,10599 24439,10659 24503,10727 24503,10796 L 24503,10796 24503,12509 24503,12509 C 24503,12578 24439,12646 24319,12706 24198,12766 24024,12816 23815,12850 23606,12885 23369,12903 23127,12903 L 23127,12903 C 22886,12903 22649,12885 22440,12850 22231,12816 22057,12766 21936,12706 21816,12646 21752,12578 21752,12509 L 21752,10795 Z"/>
        <path fill="rgb(114,159,207)" stroke="none" d="M 21752,10795 L 21752,10796 C 21752,10865 21816,10933 21936,10993 22057,11052 22231,11102 22440,11137 22649,11171 22886,11189 23127,11189 L 23127,11189 C 23369,11189 23606,11171 23815,11137 24024,11102 24198,11052 24319,10993 24439,10933 24503,10865 24503,10796 L 21752,10795 Z"/>
        <path fill="none" stroke="rgb(52,101,164)" d="M 21752,10795 L 21752,10796 C 21752,10865 21816,10933 21936,10993 22057,11052 22231,11102 22440,11137 22649,11171 22886,11189 23127,11189 L 23127,11189 C 23369,11189 23606,11171 23815,11137 24024,11102 24198,11052 24319,10993 24439,10933 24503,10865 24503,10796"/>
       </g>
      </g>
      <g class="TextShape">
       <g id="id18">
        <rect class="BoundingBox" stroke="none" fill="none" x="20783" y="8902" width="2442" height="963"/>
        <text class="SVGTextShape"><tspan class="TextParagraph" font-family="Liberation Sans, sans-serif" font-size="635px" font-weight="400"><tspan class="TextPosition" x="21033" y="9603"><tspan fill="rgb(0,0,0)" stroke="none" style="white-space: pre">Escrita</tspan></tspan></tspan></text>
       </g>
      </g>
      <g class="Graphic">
       <g id="id19">
        <rect class="BoundingBox" stroke="none" fill="none" x="22493" y="4643" width="1060" height="1060"/>
        <defs>
         <clipPath id="clip_path_1" clipPathUnits="userSpaceOnUse">
          <path d="M 23510,5418 L 23264,5173 23509,4927 23268,4685 23022,4931 22777,4685 22535,4927 22781,5173 22535,5418 22777,5660 23022,5414 23268,5660 23510,5418 Z"/>
         </clipPath>
        </defs>
        <g clip-path="url(#clip_path_1)">
         <path fill="rgb(249,85,7)" stroke="none" d="M 22793,4275 L 22816,4294 22124,5095 22101,5075 22793,4275 Z"/>
         <path fill="rgb(249,84,7)" stroke="none" d="M 22808,4287 L 22831,4307 22139,5107 22116,5088 22808,4287 Z"/>
         <path fill="rgb(248,83,7)" stroke="none" d="M 22823,4300 L 22845,4320 22153,5120 22131,5100 22823,4300 Z"/>
         <path fill="rgb(248,82,7)" stroke="none" d="M 22837,4313 L 22860,4333 22168,5133 22145,5113 22837,4313 Z"/>
         <path fill="rgb(247,82,7)" stroke="none" d="M 22852,4326 L 22875,4345 22183,5146 22160,5126 22852,4326 Z"/>
         <path fill="rgb(247,81,8)" stroke="none" d="M 22867,4339 L 22890,4358 22198,5158 22175,5139 22867,4339 Z"/>
         <path fill="rgb(246,80,8)" stroke="none" d="M 22882,4351 L 22904,4371 22212,5171 22190,5152 22882,4351 Z"/>
         <path fill="rgb(246,79,8)" stroke="none" d="M 22896,4364 L 22919,4384 22227,5184 22204,5164 22896,4364 Z"/>
         <path fill="rgb(245,78,8)" stroke="none" d="M 22911,4377 L 22934,4397 22242,5197 22219,5177 22911,4377 Z"/>
         <path fill="rgb(245,77,8)" stroke="none" d="M 22926,4390 L 22949,4409 22257,5210 22234,5190 22926,4390 Z"/>
         <path fill="rgb(244,76,8)" stroke="none" d="M 22941,4402 L 22963,4422 22272,5222 22249,5203 22941,4402 Z"/>
         <path fill="rgb(244,75,8)" stroke="none" d="M 22955,4415 L 22978,4435 22286,5235 22263,5215 22955,4415 Z"/>
         <path fill="rgb(243,75,8)" stroke="none" d="M 22970,4428 L 22993,4448 22301,5248 22278,5228 22970,4428 Z"/>
         <path fill="rgb(243,74,9)" stroke="none" d="M 22985,4441 L 23008,4460 22316,5261 22293,5241 22985,4441 Z"/>
         <path fill="rgb(242,73,9)" stroke="none" d="M 23000,4454 L 23023,4473 22331,5273 22308,5254 23000,4454 Z"/>
         <path fill="rgb(242,72,9)" stroke="none" d="M 23015,4466 L 23037,4486 22345,5286 22323,5266 23015,4466 Z"/>
         <path fill="rgb(241,71,9)" stroke="none" d="M 23029,4479 L 23052,4499 22360,5299 22337,5279 23029,4479 Z"/>
         <path fill="rgb(241,70,9)" stroke="none" d="M 23044,4492 L 23067,4512 22375,5312 22352,5292 23044,4492 Z"/>
         <path fill="rgb(240,69,9)" stroke="none" d="M 23059,4505 L 23082,4524 22390,5325 22367,5305 23059,4505 Z"/>
         <path fill="rgb(240,68,9)" stroke="none" d="M 23074,4517 L 23096,4537 22404,5337 22382,5318 23074,4517 Z"/>
         <path fill="rgb(240,68,9)" stroke="none" d="M 23088,4530 L 23111,4550 22419,5350 22396,5330 23088,4530 Z"/>
         <path fill="rgb(239,67,9)" stroke="none" d="M 23103,4543 L 23126,4563 22434,5363 22411,5343 23103,4543 Z"/>
         <path fill="rgb(239,66,10)" stroke="none" d="M 23118,4556 L 23141,4575 22449,5376 22426,5356 23118,4556 Z"/>
         <path fill="rgb(238,65,10)" stroke="none" d="M 23133,4569 L 23156,4588 22464,5388 22441,5369 23133,4569 Z"/>
         <path fill="rgb(238,64,10)" stroke="none" d="M 23147,4581 L 23170,4601 22478,5401 22456,5381 23147,4581 Z"/>
         <path fill="rgb(237,63,10)" stroke="none" d="M 23162,4594 L 23185,4614 22493,5414 22470,5394 23162,4594 Z"/>
         <path fill="rgb(237,62,10)" stroke="none" d="M 23177,4607 L 23200,4627 22508,5427 22485,5407 23177,4607 Z"/>
         <path fill="rgb(236,61,10)" stroke="none" d="M 23192,4620 L 23215,4639 22523,5440 22500,5420 23192,4620 Z"/>
         <path fill="rgb(236,61,10)" stroke="none" d="M 23207,4632 L 23229,4652 22537,5452 22515,5433 23207,4632 Z"/>
         <path fill="rgb(235,60,10)" stroke="none" d="M 23221,4645 L 23244,4665 22552,5465 22529,5445 23221,4645 Z"/>
         <path fill="rgb(235,59,10)" stroke="none" d="M 23236,4658 L 23259,4678 22567,5478 22544,5458 23236,4658 Z"/>
         <path fill="rgb(234,58,11)" stroke="none" d="M 23251,4671 L 23274,4690 22582,5491 22559,5471 23251,4671 Z"/>
         <path fill="rgb(234,57,11)" stroke="none" d="M 23266,4684 L 23288,4703 22596,5503 22574,5484 23266,4684 Z"/>
         <path fill="rgb(233,56,11)" stroke="none" d="M 23280,4696 L 23303,4716 22611,5516 22588,5496 23280,4696 Z"/>
         <path fill="rgb(233,55,11)" stroke="none" d="M 23295,4709 L 23318,4729 22626,5529 22603,5509 23295,4709 Z"/>
         <path fill="rgb(232,54,11)" stroke="none" d="M 23310,4722 L 23333,4742 22641,5542 22618,5522 23310,4722 Z"/>
         <path fill="rgb(232,54,11)" stroke="none" d="M 23325,4735 L 23348,4754 22656,5555 22633,5535 23325,4735 Z"/>
         <path fill="rgb(231,53,11)" stroke="none" d="M 23340,4747 L 23362,4767 22670,5567 22648,5548 23340,4747 Z"/>
         <path fill="rgb(231,52,11)" stroke="none" d="M 23354,4760 L 23377,4780 22685,5580 22662,5560 23354,4760 Z"/>
         <path fill="rgb(231,51,12)" stroke="none" d="M 23369,4773 L 23392,4793 22700,5593 22677,5573 23369,4773 Z"/>
         <path fill="rgb(230,50,12)" stroke="none" d="M 23384,4786 L 23407,4805 22715,5606 22692,5586 23384,4786 Z"/>
         <path fill="rgb(230,49,12)" stroke="none" d="M 23399,4798 L 23421,4818 22729,5618 22707,5599 23399,4798 Z"/>
         <path fill="rgb(229,48,12)" stroke="none" d="M 23413,4811 L 23436,4831 22744,5631 22721,5611 23413,4811 Z"/>
         <path fill="rgb(229,47,12)" stroke="none" d="M 23428,4824 L 23451,4844 22759,5644 22736,5624 23428,4824 Z"/>
         <path fill="rgb(228,47,12)" stroke="none" d="M 23443,4837 L 23466,4857 22774,5657 22751,5637 23443,4837 Z"/>
         <path fill="rgb(228,46,12)" stroke="none" d="M 23458,4850 L 23480,4869 22788,5669 22766,5650 23458,4850 Z"/>
         <path fill="rgb(227,45,12)" stroke="none" d="M 23472,4862 L 23495,4882 22803,5682 22780,5663 23472,4862 Z"/>
         <path fill="rgb(227,44,12)" stroke="none" d="M 23487,4875 L 23510,4895 22818,5695 22795,5675 23487,4875 Z"/>
         <path fill="rgb(226,43,13)" stroke="none" d="M 23502,4888 L 23525,4908 22833,5708 22810,5688 23502,4888 Z"/>
         <path fill="rgb(226,42,13)" stroke="none" d="M 23517,4901 L 23540,4920 22848,5721 22825,5701 23517,4901 Z"/>
         <path fill="rgb(225,41,13)" stroke="none" d="M 23532,4913 L 23554,4933 22862,5733 22840,5714 23532,4913 Z"/>
         <path fill="rgb(225,40,13)" stroke="none" d="M 23546,4926 L 23569,4946 22877,5746 22854,5726 23546,4926 Z"/>
         <path fill="rgb(224,40,13)" stroke="none" d="M 23561,4939 L 23584,4959 22892,5759 22869,5739 23561,4939 Z"/>
         <path fill="rgb(224,39,13)" stroke="none" d="M 23576,4952 L 23599,4972 22907,5772 22884,5752 23576,4952 Z"/>
         <path fill="rgb(223,38,13)" stroke="none" d="M 23591,4965 L 23613,4984 22921,5784 22899,5765 23591,4965 Z"/>
         <path fill="rgb(223,37,13)" stroke="none" d="M 23605,4977 L 23628,4997 22936,5797 22913,5778 23605,4977 Z"/>
         <path fill="rgb(222,36,13)" stroke="none" d="M 23620,4990 L 23643,5010 22951,5810 22928,5790 23620,4990 Z"/>
         <path fill="rgb(222,35,14)" stroke="none" d="M 23635,5003 L 23658,5023 22966,5823 22943,5803 23635,5003 Z"/>
         <path fill="rgb(222,34,14)" stroke="none" d="M 23650,5016 L 23673,5035 22981,5836 22958,5816 23650,5016 Z"/>
         <path fill="rgb(221,33,14)" stroke="none" d="M 23664,5028 L 23687,5048 22995,5848 22973,5829 23664,5028 Z"/>
         <path fill="rgb(221,33,14)" stroke="none" d="M 23679,5041 L 23702,5061 23010,5861 22987,5841 23679,5041 Z"/>
         <path fill="rgb(220,32,14)" stroke="none" d="M 23694,5054 L 23717,5074 23025,5874 23002,5854 23694,5054 Z"/>
         <path fill="rgb(220,31,14)" stroke="none" d="M 23709,5067 L 23732,5087 23040,5887 23017,5867 23709,5067 Z"/>
         <path fill="rgb(219,30,14)" stroke="none" d="M 23724,5080 L 23746,5099 23054,5899 23032,5880 23724,5080 Z"/>
         <path fill="rgb(219,29,14)" stroke="none" d="M 23738,5092 L 23761,5112 23069,5912 23046,5893 23738,5092 Z"/>
         <path fill="rgb(218,28,15)" stroke="none" d="M 23753,5105 L 23776,5125 23084,5925 23061,5905 23753,5105 Z"/>
         <path fill="rgb(218,27,15)" stroke="none" d="M 23768,5118 L 23791,5138 23099,5938 23076,5918 23768,5118 Z"/>
         <path fill="rgb(217,26,15)" stroke="none" d="M 23783,5131 L 23805,5150 23113,5951 23091,5931 23783,5131 Z"/>
         <path fill="rgb(217,26,15)" stroke="none" d="M 23797,5143 L 23820,5163 23128,5963 23105,5944 23797,5143 Z"/>
         <path fill="rgb(216,25,15)" stroke="none" d="M 23812,5156 L 23835,5176 23143,5976 23120,5956 23812,5156 Z"/>
         <path fill="rgb(216,24,15)" stroke="none" d="M 23827,5169 L 23850,5189 23158,5989 23135,5969 23827,5169 Z"/>
         <path fill="rgb(215,23,15)" stroke="none" d="M 23842,5182 L 23865,5201 23173,6002 23150,5982 23842,5182 Z"/>
         <path fill="rgb(215,22,15)" stroke="none" d="M 23857,5195 L 23879,5214 23187,6014 23165,5995 23857,5195 Z"/>
         <path fill="rgb(214,21,15)" stroke="none" d="M 23871,5207 L 23894,5227 23202,6027 23179,6008 23871,5207 Z"/>
         <path fill="rgb(214,20,16)" stroke="none" d="M 23886,5220 L 23909,5240 23217,6040 23194,6020 23886,5220 Z"/>
         <path fill="rgb(213,19,16)" stroke="none" d="M 23901,5233 L 23924,5253 23232,6053 23209,6033 23901,5233 Z"/>
         <path fill="rgb(213,19,16)" stroke="none" d="M 23916,5246 L 23938,5265 23246,6066 23224,6046 23916,5246 Z"/>
         <path fill="rgb(213,18,16)" stroke="none" d="M 23930,5258 L 23953,5278 23261,6078 23238,6059 23930,5258 Z"/>
         <path fill="rgb(212,17,16)" stroke="none" d="M 23945,5271 L 23968,5291 23276,6091 23253,6071 23945,5271 Z"/>
         <path fill="rgb(212,16,16)" stroke="none" d="M 23960,5284 L 23983,5304 23291,6104 23268,6084 23960,5284 Z"/>
         <path fill="rgb(211,15,16)" stroke="none" d="M 23975,5297 L 23997,5316 23305,6117 23283,6097 23975,5297 Z"/>
         <path fill="rgb(211,14,16)" stroke="none" d="M 23989,5310 L 24012,5329 23320,6129 23297,6110 23989,5310 Z"/>
         <path fill="rgb(210,13,16)" stroke="none" d="M 24004,5322 L 24027,5342 23335,6142 23312,6122 24004,5322 Z"/>
         <path fill="rgb(210,12,17)" stroke="none" d="M 24019,5335 L 24042,5355 23350,6155 23327,6135 24019,5335 Z"/>
         <path fill="rgb(209,12,17)" stroke="none" d="M 24034,5348 L 24057,5368 23365,6168 23342,6148 24034,5348 Z"/>
         <path fill="rgb(209,11,17)" stroke="none" d="M 24049,5361 L 24071,5380 23379,6181 23357,6161 24049,5361 Z"/>
         <path fill="rgb(208,10,17)" stroke="none" d="M 24063,5373 L 24086,5393 23394,6193 23371,6174 24063,5373 Z"/>
         <path fill="rgb(208,9,17)" stroke="none" d="M 24078,5386 L 24101,5406 23409,6206 23386,6186 24078,5386 Z"/>
         <path fill="rgb(207,8,17)" stroke="none" d="M 24093,5399 L 24116,5419 23424,6219 23401,6199 24093,5399 Z"/>
         <path fill="rgb(207,7,17)" stroke="none" d="M 24108,5412 L 24130,5431 23438,6232 23416,6212 24108,5412 Z"/>
         <path fill="rgb(206,6,17)" stroke="none" d="M 24122,5425 L 24145,5444 23453,6244 23430,6225 24122,5425 Z"/>
         <path fill="rgb(206,5,18)" stroke="none" d="M 24137,5437 L 24160,5457 23468,6257 23445,6237 24137,5437 Z"/>
         <path fill="rgb(205,5,18)" stroke="none" d="M 24152,5450 L 24175,5470 23483,6270 23460,6250 24152,5450 Z"/>
         <path fill="rgb(205,4,18)" stroke="none" d="M 24167,5463 L 24190,5483 23498,6283 23475,6263 24167,5463 Z"/>
         <path fill="rgb(204,3,18)" stroke="none" d="M 24181,5476 L 24204,5495 23512,6296 23489,6276 24181,5476 Z"/>
        </g>
       </g>
      </g>
      <g class="com.sun.star.drawing.LineShape">
       <g id="id20">
        <rect class="BoundingBox" stroke="none" fill="none" x="5950" y="7200" width="15251" height="301"/>
        <path fill="none" stroke="rgb(52,101,164)" d="M 6230,7350 L 20920,7350"/>
        <path fill="rgb(52,101,164)" stroke="none" d="M 6250,7500 L 5950,7350 6250,7200 6250,7500 Z"/>
        <path fill="rgb(52,101,164)" stroke="none" d="M 20900,7200 L 21200,7350 20900,7500 20900,7200 Z"/>
       </g>
      </g>
      <g class="com.sun.star.drawing.LineShape">
       <g id="id21">
        <rect class="BoundingBox" stroke="none" fill="none" x="23050" y="8249" width="301" height="2252"/>
        <path fill="none" stroke="rgb(52,101,164)" d="M 23200,8250 L 23200,10220"/>
        <path fill="rgb(52,101,164)" stroke="none" d="M 23350,10200 L 23200,10500 23050,10200 23350,10200 Z"/>
       </g>
      </g>
      <g class="com.sun.star.drawing.LineShape">
       <g id="id22">
        <rect class="BoundingBox" stroke="none" fill="none" x="4099" y="13349" width="3" height="1353"/>
        <path fill="none" stroke="rgb(52,101,164)" d="M 4100,13350 L 4100,14700"/>
       </g>
      </g>
      <g class="Graphic">
       <g id="id23">
        <rect class="BoundingBox" stroke="none" fill="none" x="12572" y="12293" width="2355" height="3413"/>
        <path fill="rgb(221,221,221)" stroke="none" d="M 13240,15684 C 13596,15684 14925,15310 14925,15010 14925,14710 14892,14560 14537,14560 14537,14785 13240,15384 13240,15684 Z"/>
        <path fill="none" stroke="rgb(221,221,221)" d="M 13240,15684 C 13596,15684 14925,15310 14925,15010 14925,14710 14892,14560 14537,14560 14537,14785 13240,15384 13240,15684 Z"/>
        <g>
         <defs>
          <pattern id="pattern1" x="13240" y="12687" width="1298" height="2998" patternUnits="userSpaceOnUse">
           <g transform="translate(-13240,-12687)">
            <defs>
             <clipPath id="clip_path_2" clipPathUnits="userSpaceOnUse">
              <path d="M 13229,12700 L 14526,12700 14526,15690 13229,15690 13229,12700 Z"/>
             </clipPath>
            </defs>
            <g clip-path="url(#clip_path_2)">
             <path fill="rgb(179,179,179)" stroke="none" d="M 13239,12686 L 14538,12686 14538,15685 13239,15685 13239,12686 Z M 12992,12116 L 14265,12116 14265,15055 12992,15055 12992,12116 Z"/>
             <path fill="rgb(180,180,180)" stroke="none" d="M 12992,12116 L 14265,12116 14265,15055 12992,15055 12992,12116 Z M 13005,12146 L 14252,12146 14252,15025 13005,15025 13005,12146 Z"/>
             <path fill="rgb(181,181,181)" stroke="none" d="M 13005,12146 L 14252,12146 14252,15025 13005,15025 13005,12146 Z M 13018,12176 L 14239,12176 14239,14995 13018,14995 13018,12176 Z"/>
             <path fill="rgb(182,182,182)" stroke="none" d="M 13018,12176 L 14239,12176 14239,14995 13018,14995 13018,12176 Z M 13031,12206 L 14226,12206 14226,14965 13031,14965 13031,12206 Z"/>
             <path fill="rgb(183,183,183)" stroke="none" d="M 13031,12206 L 14226,12206 14226,14965 13031,14965 13031,12206 Z M 13044,12236 L 14213,12236 14213,14935 13044,14935 13044,12236 Z"/>
             <path fill="rgb(184,184,184)" stroke="none" d="M 13044,12236 L 14213,12236 14213,14935 13044,14935 13044,12236 Z M 13057,12266 L 14200,12266 14200,14905 13057,14905 13057,12266 Z"/>
             <path fill="rgb(185,185,185)" stroke="none" d="M 13057,12266 L 14200,12266 14200,14905 13057,14905 13057,12266 Z M 13070,12296 L 14187,12296 14187,14875 13070,14875 13070,12296 Z"/>
             <path fill="rgb(186,186,186)" stroke="none" d="M 13070,12296 L 14187,12296 14187,14875 13070,14875 13070,12296 Z M 13083,12326 L 14174,12326 14174,14845 13083,14845 13083,12326 Z"/>
             <path fill="rgb(187,187,187)" stroke="none" d="M 13083,12326 L 14174,12326 14174,14845 13083,14845 13083,12326 Z M 13096,12356 L 14161,12356 14161,14815 13096,14815 13096,12356 Z"/>
             <path fill="rgb(188,188,188)" stroke="none" d="M 13096,12356 L 14161,12356 14161,14815 13096,14815 13096,12356 Z M 13109,12386 L 14148,12386 14148,14785 13109,14785 13109,12386 Z"/>
             <path fill="rgb(189,189,189)" stroke="none" d="M 13109,12386 L 14148,12386 14148,14785 13109,14785 13109,12386 Z M 13122,12416 L 14135,12416 14135,14755 13122,14755 13122,12416 Z"/>
             <path fill="rgb(190,190,190)" stroke="none" d="M 13122,12416 L 14135,12416 14135,14755 13122,14755 13122,12416 Z M 13135,12446 L 14122,12446 14122,14725 13135,14725 13135,12446 Z"/>
             <path fill="rgb(191,191,191)" stroke="none" d="M 13135,12446 L 14122,12446 14122,14725 13135,14725 13135,12446 Z M 13148,12476 L 14109,12476 14109,14695 13148,14695 13148,12476 Z"/>
             <path fill="rgb(192,192,192)" stroke="none" d="M 13148,12476 L 14109,12476 14109,14695 13148,14695 13148,12476 Z M 13161,12506 L 14096,12506 14096,14665 13161,14665 13161,12506 Z"/>
             <path fill="rgb(193,193,193)" stroke="none" d="M 13161,12506 L 14096,12506 14096,14665 13161,14665 13161,12506 Z M 13174,12536 L 14083,12536 14083,14635 13174,14635 13174,12536 Z"/>
             <path fill="rgb(194,194,194)" stroke="none" d="M 13174,12536 L 14083,12536 14083,14635 13174,14635 13174,12536 Z M 13187,12566 L 14070,12566 14070,14605 13187,14605 13187,12566 Z"/>
             <path fill="rgb(195,195,195)" stroke="none" d="M 13187,12566 L 14070,12566 14070,14605 13187,14605 13187,12566 Z M 13200,12596 L 14057,12596 14057,14575 13200,14575 13200,12596 Z"/>
             <path fill="rgb(196,196,196)" stroke="none" d="M 13200,12596 L 14057,12596 14057,14575 13200,14575 13200,12596 Z M 13213,12626 L 14044,12626 14044,14545 13213,14545 13213,12626 Z"/>
             <path fill="rgb(197,197,197)" stroke="none" d="M 13213,12626 L 14044,12626 14044,14545 13213,14545 13213,12626 Z M 13226,12656 L 14031,12656 14031,14515 13226,14515 13226,12656 Z"/>
             <path fill="rgb(198,198,198)" stroke="none" d="M 13226,12656 L 14031,12656 14031,14515 13226,14515 13226,12656 Z M 13239,12686 L 14018,12686 14018,14485 13239,14485 13239,12686 Z"/>
             <path fill="rgb(199,199,199)" stroke="none" d="M 13239,12686 L 14018,12686 14018,14485 13239,14485 13239,12686 Z M 13252,12716 L 14005,12716 14005,14455 13252,14455 13252,12716 Z"/>
             <path fill="rgb(200,200,200)" stroke="none" d="M 13252,12716 L 14005,12716 14005,14455 13252,14455 13252,12716 Z M 13265,12746 L 13992,12746 13992,14425 13265,14425 13265,12746 Z"/>
             <path fill="rgb(201,201,201)" stroke="none" d="M 13265,12746 L 13992,12746 13992,14425 13265,14425 13265,12746 Z M 13278,12776 L 13979,12776 13979,14395 13278,14395 13278,12776 Z"/>
             <path fill="rgb(202,202,202)" stroke="none" d="M 13278,12776 L 13979,12776 13979,14395 13278,14395 13278,12776 Z M 13291,12806 L 13966,12806 13966,14365 13291,14365 13291,12806 Z"/>
             <path fill="rgb(203,203,203)" stroke="none" d="M 13291,12806 L 13966,12806 13966,14365 13291,14365 13291,12806 Z M 13304,12836 L 13953,12836 13953,14335 13304,14335 13304,12836 Z"/>
             <path fill="rgb(204,204,204)" stroke="none" d="M 13304,12836 L 13953,12836 13953,14335 13304,14335 13304,12836 Z M 13317,12866 L 13940,12866 13940,14305 13317,14305 13317,12866 Z"/>
             <path fill="rgb(205,205,205)" stroke="none" d="M 13317,12866 L 13940,12866 13940,14305 13317,14305 13317,12866 Z M 13330,12896 L 13927,12896 13927,14275 13330,14275 13330,12896 Z"/>
             <path fill="rgb(206,206,206)" stroke="none" d="M 13330,12896 L 13927,12896 13927,14275 13330,14275 13330,12896 Z M 13343,12926 L 13914,12926 13914,14245 13343,14245 13343,12926 Z"/>
             <path fill="rgb(207,207,207)" stroke="none" d="M 13343,12926 L 13914,12926 13914,14245 13343,14245 13343,12926 Z M 13356,12956 L 13901,12956 13901,14215 13356,14215 13356,12956 Z"/>
             <path fill="rgb(208,208,208)" stroke="none" d="M 13356,12956 L 13901,12956 13901,14215 13356,14215 13356,12956 Z M 13369,12986 L 13888,12986 13888,14185 13369,14185 13369,12986 Z"/>
             <path fill="rgb(209,209,209)" stroke="none" d="M 13369,12986 L 13888,12986 13888,14185 13369,14185 13369,12986 Z M 13382,13016 L 13875,13016 13875,14155 13382,14155 13382,13016 Z"/>
             <path fill="rgb(210,210,210)" stroke="none" d="M 13382,13016 L 13875,13016 13875,14155 13382,14155 13382,13016 Z M 13395,13046 L 13862,13046 13862,14125 13395,14125 13395,13046 Z"/>
             <path fill="rgb(211,211,211)" stroke="none" d="M 13395,13046 L 13862,13046 13862,14125 13395,14125 13395,13046 Z M 13408,13076 L 13849,13076 13849,14095 13408,14095 13408,13076 Z"/>
             <path fill="rgb(212,212,212)" stroke="none" d="M 13408,13076 L 13849,13076 13849,14095 13408,14095 13408,13076 Z M 13421,13106 L 13836,13106 13836,14065 13421,14065 13421,13106 Z"/>
             <path fill="rgb(213,213,213)" stroke="none" d="M 13421,13106 L 13836,13106 13836,14065 13421,14065 13421,13106 Z M 13434,13136 L 13823,13136 13823,14035 13434,14035 13434,13136 Z"/>
             <path fill="rgb(214,214,214)" stroke="none" d="M 13434,13136 L 13823,13136 13823,14035 13434,14035 13434,13136 Z M 13447,13166 L 13810,13166 13810,14005 13447,14005 13447,13166 Z"/>
             <path fill="rgb(215,215,215)" stroke="none" d="M 13447,13166 L 13810,13166 13810,14005 13447,14005 13447,13166 Z M 13460,13196 L 13797,13196 13797,13975 13460,13975 13460,13196 Z"/>
             <path fill="rgb(216,216,216)" stroke="none" d="M 13460,13196 L 13797,13196 13797,13975 13460,13975 13460,13196 Z M 13473,13226 L 13784,13226 13784,13945 13473,13945 13473,13226 Z"/>
             <path fill="rgb(217,217,217)" stroke="none" d="M 13473,13226 L 13784,13226 13784,13945 13473,13945 13473,13226 Z M 13486,13256 L 13771,13256 13771,13915 13486,13915 13486,13256 Z"/>
             <path fill="rgb(218,218,218)" stroke="none" d="M 13486,13256 L 13771,13256 13771,13915 13486,13915 13486,13256 Z M 13499,13286 L 13758,13286 13758,13885 13499,13885 13499,13286 Z"/>
             <path fill="rgb(219,219,219)" stroke="none" d="M 13499,13286 L 13758,13286 13758,13885 13499,13885 13499,13286 Z M 13512,13316 L 13745,13316 13745,13855 13512,13855 13512,13316 Z"/>
             <path fill="rgb(220,220,220)" stroke="none" d="M 13512,13316 L 13745,13316 13745,13855 13512,13855 13512,13316 Z M 13525,13346 L 13732,13346 13732,13825 13525,13825 13525,13346 Z"/>
             <path fill="rgb(221,221,221)" stroke="none" d="M 13525,13346 L 13732,13346 13732,13825 13525,13825 13525,13346 Z M 13538,13376 L 13719,13376 13719,13795 13538,13795 13538,13376 Z"/>
             <path fill="rgb(222,222,222)" stroke="none" d="M 13538,13376 L 13719,13376 13719,13795 13538,13795 13538,13376 Z M 13551,13406 L 13706,13406 13706,13765 13551,13765 13551,13406 Z"/>
             <path fill="rgb(223,223,223)" stroke="none" d="M 13551,13406 L 13706,13406 13706,13765 13551,13765 13551,13406 Z M 13564,13436 L 13693,13436 13693,13735 13564,13735 13564,13436 Z"/>
             <path fill="rgb(224,224,224)" stroke="none" d="M 13564,13436 L 13693,13436 13693,13735 13564,13735 13564,13436 Z M 13577,13466 L 13680,13466 13680,13705 13577,13705 13577,13466 Z"/>
             <path fill="rgb(225,225,225)" stroke="none" d="M 13577,13466 L 13680,13466 13680,13705 13577,13705 13577,13466 Z M 13590,13496 L 13667,13496 13667,13675 13590,13675 13590,13496 Z"/>
             <path fill="rgb(226,226,226)" stroke="none" d="M 13590,13496 L 13667,13496 13667,13675 13590,13675 13590,13496 Z M 13603,13526 L 13654,13526 13654,13645 13603,13645 13603,13526 Z"/>
             <path fill="rgb(227,227,227)" stroke="none" d="M 13603,13526 L 13654,13526 13654,13645 13603,13645 13603,13526 Z M 13616,13556 L 13641,13556 13641,13615 13616,13615 13616,13556 Z"/>
             <path fill="rgb(229,229,229)" stroke="none" d="M 13616,13556 L 13641,13556 13641,13615 13616,13615 13616,13556 Z"/>
            </g>
           </g>
          </pattern>
         </defs>
         <path style="fill:url(#pattern1)" d="M 13240,15684 L 13240,13437 14537,12687 14537,14935 13240,15684 Z"/>
        </g>
        <path fill="none" stroke="rgb(255,255,255)" stroke-width="40" stroke-linejoin="round" d="M 13240,15684 L 13240,13437 14537,12687 14537,14935 13240,15684 Z"/>
        <g>
         <defs>
          <linearGradient id="gradient1" x1="13564" y1="12313" x2="13564" y2="13437" gradientUnits="userSpaceOnUse">
           <stop offset="0.1" style="stop-color:rgb(179,179,179)"/>
           <stop offset="1" style="stop-color:rgb(229,229,229)"/>
          </linearGradient>
         </defs>
         <path style="fill:url(#gradient1)" d="M 13240,13437 L 12592,13062 13888,12313 14536,12687 13240,13437 Z"/>
        </g>
        <path fill="none" stroke="rgb(255,255,255)" stroke-width="40" stroke-linejoin="round" d="M 13240,13437 L 12592,13062 13888,12313 14536,12687 13240,13437 Z"/>
        <g>
         <defs>
          <linearGradient id="gradient2" x1="12916" y1="15684" x2="12916" y2="13062" gradientUnits="userSpaceOnUse">
           <stop offset="0.1" style="stop-color:rgb(179,179,179)"/>
           <stop offset="1" style="stop-color:rgb(229,229,229)"/>
          </linearGradient>
         </defs>
         <path style="fill:url(#gradient2)" d="M 12592,15310 L 12592,13062 13240,13437 13240,15684 12592,15310 Z"/>
        </g>
        <path fill="none" stroke="rgb(255,255,255)" stroke-width="40" stroke-linejoin="round" d="M 12592,15310 L 12592,13062 13240,13437 13240,15684 12592,15310 Z"/>
        <path fill="none" stroke="rgb(0,0,0)" stroke-width="40" stroke-linejoin="round" d="M 12592,15310 L 12592,13062 13888,12313 14536,12687 14536,14935 13240,15684 12592,15310 Z"/>
        <path fill="rgb(127,127,127)" stroke="none" d="M 12722,15159 L 12722,14935 12851,15010 12851,15234 12722,15159 Z"/>
        <path fill="none" stroke="rgb(0,0,0)" stroke-width="40" stroke-linejoin="round" d="M 12722,15159 L 12722,14935 12851,15010 12851,15234 12722,15159 Z"/>
        <path fill="rgb(127,127,127)" stroke="none" d="M 12980,15310 L 12980,15085 13110,15160 13110,15385 12980,15310 Z"/>
        <path fill="none" stroke="rgb(0,0,0)" stroke-width="40" stroke-linejoin="round" d="M 12980,15310 L 12980,15085 13110,15160 13110,15385 12980,15310 Z"/>
        <path fill="rgb(127,127,127)" stroke="none" d="M 12722,14785 L 12722,14560 12851,14636 12851,14860 12722,14785 Z"/>
        <path fill="none" stroke="rgb(0,0,0)" stroke-width="40" stroke-linejoin="round" d="M 12722,14785 L 12722,14560 12851,14636 12851,14860 12722,14785 Z"/>
        <path fill="rgb(127,127,127)" stroke="none" d="M 12980,14935 L 12980,14710 13110,14785 13110,15010 12980,14935 Z"/>
        <path fill="none" stroke="rgb(0,0,0)" stroke-width="40" stroke-linejoin="round" d="M 12980,14935 L 12980,14710 13110,14785 13110,15010 12980,14935 Z"/>
        <path fill="rgb(127,127,127)" stroke="none" d="M 12980,14560 L 12980,14336 13110,14411 13110,14636 12980,14560 Z"/>
        <path fill="none" stroke="rgb(0,0,0)" stroke-width="40" stroke-linejoin="round" d="M 12980,14560 L 12980,14336 13110,14411 13110,14636 12980,14560 Z"/>
        <path fill="rgb(127,127,127)" stroke="none" d="M 12722,14411 L 12722,14186 12851,14261 12851,14486 12722,14411 Z"/>
        <path fill="none" stroke="rgb(0,0,0)" stroke-width="40" stroke-linejoin="round" d="M 12722,14411 L 12722,14186 12851,14261 12851,14486 12722,14411 Z"/>
        <path fill="rgb(127,127,127)" stroke="none" d="M 12980,14186 L 12980,13961 13110,14037 13110,14261 12980,14186 Z"/>
        <path fill="none" stroke="rgb(0,0,0)" stroke-width="40" stroke-linejoin="round" d="M 12980,14186 L 12980,13961 13110,14037 13110,14261 12980,14186 Z"/>
        <path fill="rgb(127,127,127)" stroke="none" d="M 12722,14036 L 12722,13811 12851,13886 12851,14111 12722,14036 Z"/>
        <path fill="none" stroke="rgb(0,0,0)" stroke-width="40" stroke-linejoin="round" d="M 12722,14036 L 12722,13811 12851,13886 12851,14111 12722,14036 Z"/>
        <path fill="rgb(153,255,102)" stroke="none" d="M 12722,13586 L 12722,13361 12851,13437 12851,13661 12722,13586 Z"/>
        <path fill="none" stroke="rgb(51,51,51)" stroke-width="40" stroke-linejoin="round" d="M 12722,13586 L 12722,13361 12851,13437 12851,13661 12722,13586 Z"/>
       </g>
      </g>
      <g class="com.sun.star.drawing.LineShape">
       <g id="id24">
        <rect class="BoundingBox" stroke="none" fill="none" x="3999" y="14749" width="8603" height="3"/>
        <path fill="none" stroke="rgb(52,101,164)" d="M 4000,14750 L 12600,14750"/>
       </g>
      </g>
      <g class="com.sun.star.drawing.LineShape">
       <g id="id25">
        <rect class="BoundingBox" stroke="none" fill="none" x="14499" y="14249" width="8503" height="3"/>
        <path fill="none" stroke="rgb(52,101,164)" d="M 23000,14250 L 14500,14250"/>
       </g>
      </g>
      <g class="com.sun.star.drawing.LineShape">
       <g id="id26">
        <rect class="BoundingBox" stroke="none" fill="none" x="22999" y="13249" width="3" height="1003"/>
        <path fill="none" stroke="rgb(52,101,164)" d="M 23000,14250 L 23000,13250"/>
       </g>
      </g>
      <g class="TextShape">
       <g id="id27">
        <rect class="BoundingBox" stroke="none" fill="none" x="11050" y="11550" width="5079" height="963"/>
        <text class="SVGTextShape"><tspan class="TextParagraph" font-family="Liberation Sans, sans-serif" font-size="635px" font-weight="400"><tspan class="TextPosition" x="11300" y="12251"><tspan fill="rgb(0,0,0)" stroke="none" style="white-space: pre">Rede de serviço</tspan></tspan></tspan></text>
       </g>
      </g>
     </g>
    </g>
   </g>
  </g>
 </g>
</svg>