<?xml version="1.0" encoding="UTF-8"?>
<!DOCTYPE svg PUBLIC "-//W3C//DTD SVG 1.1//EN" "http://www.w3.org/Graphics/SVG/1.1/DTD/svg11.dtd">
<svg version="1.2" width="180mm" height="74mm" viewBox="0 0 18000 7400" preserveAspectRatio="xMidYMid" fill-rule="evenodd" stroke-width="28.222" stroke-linejoin="round" xmlns="http://www.w3.org/2000/svg" xmlns:ooo="http://xml.openoffice.org/svg/export" xmlns:xlink="http://www.w3.org/1999/xlink" xmlns:presentation="http://sun.com/xmlns/staroffice/presentation" xmlns:smil="http://www.w3.org/2001/SMIL20/" xmlns:anim="urn:oasis:names:tc:opendocument:xmlns:animation:1.0" xmlns:svg="urn:oasis:names:tc:opendocument:xmlns:svg-compatible:1.0" xml:space="preserve">
 <defs class="ClipPathGroup">
  <clipPath id="presentation_clip_path" clipPathUnits="userSpaceOnUse">
   <rect x="0" y="0" width="18000" height="7400"/>
  </clipPath>
  <clipPath id="presentation_clip_path_shrink" clipPathUnits="userSpaceOnUse">
   <rect x="18" y="7" width="17964" height="7386"/>
  </clipPath>
 </defs>
 <defs>
  <font id="EmbeddedFont_1" horiz-adv-x="2048">
   <font-face font-family="Liberation Sans embedded" units-per-em="2048" font-weight="normal" font-style="normal" ascent="1852" descent="423"/>
   <missing-glyph horiz-adv-x="2048" d="M 0,0 L 2047,0 2047,2047 0,2047 0,0 Z"/>
   <glyph unicode="á" horiz-adv-x="1060" d="M 414,-20 C 305,-20 224,9 169,66 114,123 87,202 87,302 87,414 124,500 198,560 271,620 390,652 554,656 L 797,660 797,719 C 797,807 778,870 741,908 704,946 645,965 565,965 484,965 426,951 389,924 352,897 330,853 323,793 L 135,810 C 166,1005 310,1102 569,1102 705,1102 807,1071 876,1009 945,946 979,856 979,738 L 979,272 C 979,219 986,179 1000,152 1014,125 1041,111 1080,111 1097,111 1117,113 1139,118 L 1139,6 C 1094,-5 1047,-10 1000,-10 933,-10 885,8 855,43 824,78 807,132 803,207 L 797,207 C 751,124 698,66 637,32 576,-3 501,-20 414,-20 Z M 455,115 C 521,115 580,130 631,160 682,190 723,231 753,284 782,336 797,390 797,445 L 797,534 600,530 C 515,529 451,520 408,504 364,488 330,463 307,430 284,397 272,353 272,299 272,240 288,195 320,163 351,131 396,115 455,115 Z M 412,1201 L 412,1221 629,1508 836,1508 836,1479 506,1201 412,1201 Z"/>
   <glyph unicode="v" horiz-adv-x="1033" d="M 613,0 L 400,0 7,1082 199,1082 437,378 C 446,351 469,272 506,141 L 541,258 580,376 826,1082 1017,1082 613,0 Z"/>
   <glyph unicode="u" horiz-adv-x="874" d="M 314,1082 L 314,396 C 314,325 321,269 335,230 349,191 371,162 402,145 433,128 478,119 537,119 624,119 692,149 742,208 792,267 817,350 817,455 L 817,1082 997,1082 997,231 C 997,105 999,28 1003,0 L 833,0 C 832,3 832,12 831,27 830,42 830,59 829,78 828,97 826,132 825,185 L 822,185 C 781,110 733,58 679,27 624,-4 557,-20 476,-20 357,-20 271,10 216,69 161,128 133,225 133,361 L 133,1082 314,1082 Z"/>
   <glyph unicode="s" horiz-adv-x="901" d="M 950,299 C 950,197 912,118 835,63 758,8 650,-20 511,-20 376,-20 273,2 200,47 127,91 79,160 57,254 L 216,285 C 231,227 263,185 311,158 359,131 426,117 511,117 602,117 669,131 712,159 754,187 775,229 775,285 775,328 760,362 731,389 702,416 654,438 589,455 L 460,489 C 357,516 283,542 240,568 196,593 162,624 137,661 112,698 100,743 100,796 100,895 135,970 206,1022 276,1073 378,1099 513,1099 632,1099 727,1078 798,1036 868,994 912,927 931,834 L 769,814 C 759,862 732,899 689,925 645,950 586,963 513,963 432,963 372,951 333,926 294,901 275,864 275,814 275,783 283,758 299,738 315,718 339,701 370,687 401,673 467,654 568,629 663,605 732,583 774,563 816,542 849,520 874,495 898,470 917,442 930,410 943,377 950,340 950,299 Z"/>
   <glyph unicode="r" horiz-adv-x="530" d="M 142,0 L 142,830 C 142,906 140,990 136,1082 L 306,1082 C 311,959 314,886 314,861 L 318,861 C 347,954 380,1017 417,1051 454,1085 507,1102 575,1102 599,1102 623,1099 648,1092 L 648,927 C 624,934 592,937 552,937 477,937 420,905 381,841 342,776 322,684 322,564 L 322,0 142,0 Z"/>
   <glyph unicode="p" horiz-adv-x="953" d="M 1053,546 C 1053,169 920,-20 655,-20 488,-20 376,43 319,168 L 314,168 C 317,163 318,106 318,-2 L 318,-425 138,-425 138,861 C 138,972 136,1046 132,1082 L 306,1082 C 307,1079 308,1070 309,1054 310,1037 312,1012 314,978 315,944 316,921 316,908 L 320,908 C 352,975 394,1024 447,1055 500,1086 569,1101 655,1101 788,1101 888,1056 954,967 1020,878 1053,737 1053,546 Z M 864,542 C 864,693 844,800 803,865 762,930 698,962 609,962 538,962 482,947 442,917 401,887 371,840 350,777 329,713 318,630 318,528 318,386 341,281 386,214 431,147 505,113 607,113 696,113 762,146 803,212 844,277 864,387 864,542 Z"/>
   <glyph unicode="o" horiz-adv-x="980" d="M 1053,542 C 1053,353 1011,212 928,119 845,26 724,-20 565,-20 407,-20 288,28 207,125 126,221 86,360 86,542 86,915 248,1102 571,1102 736,1102 858,1057 936,966 1014,875 1053,733 1053,542 Z M 864,542 C 864,691 842,800 798,868 753,935 679,969 574,969 469,969 393,935 346,866 299,797 275,689 275,542 275,399 298,292 345,221 391,149 464,113 563,113 671,113 748,148 795,217 841,286 864,395 864,542 Z"/>
   <glyph unicode="n" horiz-adv-x="874" d="M 825,0 L 825,686 C 825,757 818,813 804,852 790,891 768,920 737,937 706,954 661,963 602,963 515,963 447,933 397,874 347,815 322,732 322,627 L 322,0 142,0 142,851 C 142,977 140,1054 136,1082 L 306,1082 C 307,1079 307,1070 308,1055 309,1040 310,1024 311,1005 312,986 313,950 314,897 L 317,897 C 358,972 406,1025 461,1056 515,1087 582,1102 663,1102 782,1102 869,1073 924,1014 979,955 1006,857 1006,721 L 1006,0 825,0 Z"/>
   <glyph unicode="m" horiz-adv-x="1457" d="M 768,0 L 768,686 C 768,791 754,863 725,903 696,943 645,963 570,963 493,963 433,934 388,875 343,816 321,734 321,627 L 321,0 142,0 142,851 C 142,977 140,1054 136,1082 L 306,1082 C 307,1079 307,1070 308,1055 309,1040 310,1024 311,1005 312,986 313,950 314,897 L 317,897 C 356,974 400,1027 450,1057 500,1087 561,1102 633,1102 715,1102 780,1086 828,1053 875,1020 908,968 927,897 L 930,897 C 967,970 1013,1022 1066,1054 1119,1086 1183,1102 1258,1102 1367,1102 1447,1072 1497,1013 1546,954 1571,856 1571,721 L 1571,0 1393,0 1393,686 C 1393,791 1379,863 1350,903 1321,943 1270,963 1195,963 1116,963 1055,934 1012,876 968,817 946,734 946,627 L 946,0 768,0 Z"/>
   <glyph unicode="i" horiz-adv-x="187" d="M 137,1312 L 137,1484 317,1484 317,1312 137,1312 Z M 137,0 L 137,1082 317,1082 317,0 137,0 Z"/>
   <glyph unicode="e" horiz-adv-x="980" d="M 276,503 C 276,379 302,283 353,216 404,149 479,115 578,115 656,115 719,131 766,162 813,193 844,233 861,281 L 1019,236 C 954,65 807,-20 578,-20 418,-20 296,28 213,123 129,218 87,360 87,548 87,727 129,864 213,959 296,1054 416,1102 571,1102 889,1102 1048,910 1048,527 L 1048,503 276,503 Z M 862,641 C 852,755 823,838 775,891 727,943 658,969 568,969 481,969 412,940 361,882 310,823 282,743 278,641 L 862,641 Z"/>
   <glyph unicode="d" horiz-adv-x="927" d="M 821,174 C 788,105 744,55 689,25 634,-5 565,-20 484,-20 347,-20 247,26 183,118 118,210 86,349 86,536 86,913 219,1102 484,1102 566,1102 634,1087 689,1057 744,1027 788,979 821,914 L 823,914 821,1035 821,1484 1001,1484 1001,223 C 1001,110 1003,36 1007,0 L 835,0 C 833,11 831,35 829,74 826,113 825,146 825,174 L 821,174 Z M 275,542 C 275,391 295,282 335,217 375,152 440,119 530,119 632,119 706,154 752,225 798,296 821,405 821,554 821,697 798,802 752,869 706,936 633,969 532,969 441,969 376,936 336,869 295,802 275,693 275,542 Z"/>
   <glyph unicode="c" horiz-adv-x="901" d="M 275,546 C 275,402 298,295 343,226 388,157 457,122 548,122 612,122 666,139 709,174 752,209 778,262 788,334 L 970,322 C 956,218 912,135 837,73 762,11 668,-20 553,-20 402,-20 286,28 207,124 127,219 87,359 87,542 87,724 127,863 207,959 287,1054 402,1102 551,1102 662,1102 754,1073 827,1016 900,959 945,880 964,779 L 779,765 C 770,825 746,873 708,908 670,943 616,961 546,961 451,961 382,929 339,866 296,803 275,696 275,546 Z"/>
   <glyph unicode="a" horiz-adv-x="1060" d="M 414,-20 C 305,-20 224,9 169,66 114,123 87,202 87,302 87,414 124,500 198,560 271,620 390,652 554,656 L 797,660 797,719 C 797,807 778,870 741,908 704,946 645,965 565,965 484,965 426,951 389,924 352,897 330,853 323,793 L 135,810 C 166,1005 310,1102 569,1102 705,1102 807,1071 876,1009 945,946 979,856 979,738 L 979,272 C 979,219 986,179 1000,152 1014,125 1041,111 1080,111 1097,111 1117,113 1139,118 L 1139,6 C 1094,-5 1047,-10 1000,-10 933,-10 885,8 855,43 824,78 807,132 803,207 L 797,207 C 751,124 698,66 637,32 576,-3 501,-20 414,-20 Z M 455,115 C 521,115 580,130 631,160 682,190 723,231 753,284 782,336 797,390 797,445 L 797,534 600,530 C 515,529 451,520 408,504 364,488 330,463 307,430 284,397 272,353 272,299 272,240 288,195 320,163 351,131 396,115 455,115 Z"/>
   <glyph unicode="U" horiz-adv-x="1192" d="M 731,-20 C 616,-20 515,1 429,43 343,85 276,146 229,226 182,306 158,401 158,512 L 158,1409 349,1409 349,528 C 349,399 382,302 447,235 512,168 607,135 730,135 857,135 955,170 1026,239 1096,308 1131,408 1131,541 L 1131,1409 1321,1409 1321,530 C 1321,416 1297,318 1249,235 1200,152 1132,89 1044,46 955,2 851,-20 731,-20 Z"/>
   <glyph unicode="S" horiz-adv-x="1192" d="M 1272,389 C 1272,259 1221,158 1120,87 1018,16 875,-20 690,-20 347,-20 148,99 93,338 L 278,375 C 299,290 345,228 414,189 483,149 578,129 697,129 820,129 916,150 983,193 1050,235 1083,297 1083,379 1083,425 1073,462 1052,491 1031,520 1001,543 963,562 925,581 880,596 827,609 774,622 716,635 652,650 541,675 456,699 399,724 341,749 295,776 262,807 229,837 203,872 186,913 168,954 159,1000 159,1053 159,1174 205,1267 298,1332 390,1397 522,1430 694,1430 854,1430 976,1406 1061,1357 1146,1308 1205,1224 1239,1106 L 1051,1073 C 1030,1148 991,1202 933,1236 875,1269 795,1286 692,1286 579,1286 493,1267 434,1230 375,1193 345,1137 345,1063 345,1020 357,984 380,956 403,927 436,903 479,884 522,864 609,840 738,811 781,801 825,791 868,781 911,770 952,758 991,744 1030,729 1067,712 1102,693 1136,674 1166,650 1191,622 1216,594 1236,561 1251,523 1265,485 1272,440 1272,389 Z"/>
   <glyph unicode="R" horiz-adv-x="1244" d="M 1164,0 L 798,585 359,585 359,0 168,0 168,1409 831,1409 C 990,1409 1112,1374 1199,1303 1285,1232 1328,1133 1328,1006 1328,901 1298,813 1237,742 1176,671 1091,626 984,607 L 1384,0 1164,0 Z M 1136,1004 C 1136,1086 1108,1149 1053,1192 997,1235 917,1256 812,1256 L 359,1256 359,736 820,736 C 921,736 999,760 1054,807 1109,854 1136,919 1136,1004 Z"/>
   <glyph unicode="N" horiz-adv-x="1165" d="M 1082,0 L 328,1200 333,1103 338,936 338,0 168,0 168,1409 390,1409 1152,201 C 1144,332 1140,426 1140,485 L 1140,1409 1312,1409 1312,0 1082,0 Z"/>
   <glyph unicode="A" horiz-adv-x="1377" d="M 1167,0 L 1006,412 364,412 202,0 4,0 579,1409 796,1409 1362,0 1167,0 Z M 685,1265 L 676,1237 C 659,1182 635,1111 602,1024 L 422,561 949,561 768,1026 C 749,1072 731,1124 712,1182 L 685,1265 Z"/>
   <glyph unicode=" " horiz-adv-x="556"/>
  </font>
 </defs>
 <defs class="TextShapeIndex">
  <g ooo:slide="id1" ooo:id-list="id3 id4 id5 id6 id7 id8 id9 id10 id11 id12 id13 id14 id15 id16 id17 id18 id19 id20 id21 id22 id23 id24 id25 id26 id27 id28"/>
 </defs>
 <defs class="EmbeddedBulletChars">
  <g id="bullet-char-template-57356" transform="scale(0.00048828125,-0.00048828125)">
   <path d="M 580,1141 L 1163,571 580,0 -4,571 580,1141 Z"/>
  </g>
  <g id="bullet-char-template-57354" transform="scale(0.00048828125,-0.00048828125)">
   <path d="M 8,1128 L 1137,1128 1137,0 8,0 8,1128 Z"/>
  </g>
  <g id="bullet-char-template-10146" transform="scale(0.00048828125,-0.00048828125)">
   <path d="M 174,0 L 602,739 174,1481 1456,739 174,0 Z M 1358,739 L 309,1346 659,739 1358,739 Z"/>
  </g>
  <g id="bullet-char-template-10132" transform="scale(0.00048828125,-0.00048828125)">
   <path d="M 2015,739 L 1276,0 717,0 1260,543 174,543 174,936 1260,936 717,1481 1274,1481 2015,739 Z"/>
  </g>
  <g id="bullet-char-template-10007" transform="scale(0.00048828125,-0.00048828125)">
   <path d="M 0,-2 C -7,14 -16,27 -25,37 L 356,567 C 262,823 215,952 215,954 215,979 228,992 255,992 264,992 276,990 289,987 310,991 331,999 354,1012 L 381,999 492,748 772,1049 836,1024 860,1049 C 881,1039 901,1025 922,1006 886,937 835,863 770,784 769,783 710,716 594,584 L 774,223 C 774,196 753,168 711,139 L 727,119 C 717,90 699,76 672,76 641,76 570,178 457,381 L 164,-76 C 142,-110 111,-127 72,-127 30,-127 9,-110 8,-76 1,-67 -2,-52 -2,-32 -2,-23 -1,-13 0,-2 Z"/>
  </g>
  <g id="bullet-char-template-10004" transform="scale(0.00048828125,-0.00048828125)">
   <path d="M 285,-33 C 182,-33 111,30 74,156 52,228 41,333 41,471 41,549 55,616 82,672 116,743 169,778 240,778 293,778 328,747 346,684 L 369,508 C 377,444 397,411 428,410 L 1163,1116 C 1174,1127 1196,1133 1229,1133 1271,1133 1292,1118 1292,1087 L 1292,965 C 1292,929 1282,901 1262,881 L 442,47 C 390,-6 338,-33 285,-33 Z"/>
  </g>
  <g id="bullet-char-template-9679" transform="scale(0.00048828125,-0.00048828125)">
   <path d="M 813,0 C 632,0 489,54 383,161 276,268 223,411 223,592 223,773 276,916 383,1023 489,1130 632,1184 813,1184 992,1184 1136,1130 1245,1023 1353,916 1407,772 1407,592 1407,412 1353,268 1245,161 1136,54 992,0 813,0 Z"/>
  </g>
  <g id="bullet-char-template-8226" transform="scale(0.00048828125,-0.00048828125)">
   <path d="M 346,457 C 273,457 209,483 155,535 101,586 74,649 74,723 74,796 101,859 155,911 209,963 273,989 346,989 419,989 480,963 531,910 582,859 608,796 608,723 608,648 583,586 532,535 482,483 420,457 346,457 Z"/>
  </g>
  <g id="bullet-char-template-8211" transform="scale(0.00048828125,-0.00048828125)">
   <path d="M -4,459 L 1135,459 1135,606 -4,606 -4,459 Z"/>
  </g>
  <g id="bullet-char-template-61548" transform="scale(0.00048828125,-0.00048828125)">
   <path d="M 173,740 C 173,903 231,1043 346,1159 462,1274 601,1332 765,1332 928,1332 1067,1274 1183,1159 1299,1043 1357,903 1357,740 1357,577 1299,437 1183,322 1067,206 928,148 765,148 601,148 462,206 346,322 231,437 173,577 173,740 Z"/>
  </g>
 </defs>
 <g>
  <g id="id2" class="Master_Slide">
   <g id="bg-id2" class="Background"/>
   <g id="bo-id2" class="BackgroundObjects"/>
  </g>
 </g>
 <g class="SlideGroup">
  <g>
   <g id="container-id1">
    <g id="id1" class="Slide" clip-path="url(#presentation_clip_path)">
     <g class="Page">
      <g class="Graphic">
       <g id="id3">
        <rect class="BoundingBox" stroke="none" fill="none" x="180" y="1350" width="4571" height="4409"/>
        <path fill="rgb(221,221,221)" stroke="none" d="M 1884,5692 C 2115,5692 4749,4477 4749,4332 4749,4185 4644,4040 4412,4040 4412,4185 1884,5449 1884,5692 Z"/>
        <path fill="none" stroke="rgb(221,221,221)" d="M 1884,5692 C 2115,5692 4749,4477 4749,4332 4749,4185 4644,4040 4412,4040 4412,4185 1884,5449 1884,5692 Z"/>
        <g>
         <defs>
          <linearGradient id="gradient1" x1="1041" y1="5741" x2="1041" y2="2825" gradientUnits="userSpaceOnUse">
           <stop offset="0.1" style="stop-color:rgb(179,179,179)"/>
           <stop offset="1" style="stop-color:rgb(229,229,229)"/>
          </linearGradient>
         </defs>
         <path style="fill:url(#gradient1)" d="M 198,4769 L 198,2825 1884,3797 1884,5741 198,4769 Z"/>
        </g>
        <path fill="none" stroke="rgb(255,255,255)" stroke-width="35" stroke-linejoin="round" d="M 198,4769 L 198,2825 1884,3797 1884,5741 198,4769 Z"/>
        <g>
         <defs>
          <pattern id="pattern1" x="1884" y="2339" width="2529" height="3403" patternUnits="userSpaceOnUse">
           <g transform="translate(-1884,-2339)">
            <defs>
             <clipPath id="clip_path_1" clipPathUnits="userSpaceOnUse">
              <path d="M 1879,2328 L 4419,2328 4419,5741 1879,5741 1879,2328 Z"/>
             </clipPath>
            </defs>
            <g clip-path="url(#clip_path_1)">
             <path fill="rgb(179,179,179)" stroke="none" d="M 1883,2338 L 4413,2338 4413,5742 1883,5742 1883,2338 Z M 1402,1691 L 3881,1691 3881,5026 1402,5026 1402,1691 Z"/>
             <path fill="rgb(180,180,180)" stroke="none" d="M 1402,1691 L 3881,1691 3881,5026 1402,5026 1402,1691 Z M 1427,1725 L 3856,1725 3856,4992 1427,4992 1427,1725 Z"/>
             <path fill="rgb(181,181,181)" stroke="none" d="M 1427,1725 L 3856,1725 3856,4992 1427,4992 1427,1725 Z M 1452,1759 L 3831,1759 3831,4958 1452,4958 1452,1759 Z"/>
             <path fill="rgb(182,182,182)" stroke="none" d="M 1452,1759 L 3831,1759 3831,4958 1452,4958 1452,1759 Z M 1478,1793 L 3805,1793 3805,4924 1478,4924 1478,1793 Z"/>
             <path fill="rgb(183,183,183)" stroke="none" d="M 1478,1793 L 3805,1793 3805,4924 1478,4924 1478,1793 Z M 1503,1827 L 3780,1827 3780,4890 1503,4890 1503,1827 Z"/>
             <path fill="rgb(184,184,184)" stroke="none" d="M 1503,1827 L 3780,1827 3780,4890 1503,4890 1503,1827 Z M 1528,1861 L 3755,1861 3755,4856 1528,4856 1528,1861 Z"/>
             <path fill="rgb(185,185,185)" stroke="none" d="M 1528,1861 L 3755,1861 3755,4856 1528,4856 1528,1861 Z M 1554,1895 L 3729,1895 3729,4822 1554,4822 1554,1895 Z"/>
             <path fill="rgb(186,186,186)" stroke="none" d="M 1554,1895 L 3729,1895 3729,4822 1554,4822 1554,1895 Z M 1579,1929 L 3704,1929 3704,4788 1579,4788 1579,1929 Z"/>
             <path fill="rgb(187,187,187)" stroke="none" d="M 1579,1929 L 3704,1929 3704,4788 1579,4788 1579,1929 Z M 1604,1963 L 3679,1963 3679,4754 1604,4754 1604,1963 Z"/>
             <path fill="rgb(188,188,188)" stroke="none" d="M 1604,1963 L 3679,1963 3679,4754 1604,4754 1604,1963 Z M 1630,1997 L 3653,1997 3653,4720 1630,4720 1630,1997 Z"/>
             <path fill="rgb(189,189,189)" stroke="none" d="M 1630,1997 L 3653,1997 3653,4720 1630,4720 1630,1997 Z M 1655,2031 L 3628,2031 3628,4686 1655,4686 1655,2031 Z"/>
             <path fill="rgb(190,190,190)" stroke="none" d="M 1655,2031 L 3628,2031 3628,4686 1655,4686 1655,2031 Z M 1680,2065 L 3603,2065 3603,4652 1680,4652 1680,2065 Z"/>
             <path fill="rgb(191,191,191)" stroke="none" d="M 1680,2065 L 3603,2065 3603,4652 1680,4652 1680,2065 Z M 1706,2099 L 3577,2099 3577,4618 1706,4618 1706,2099 Z"/>
             <path fill="rgb(192,192,192)" stroke="none" d="M 1706,2099 L 3577,2099 3577,4618 1706,4618 1706,2099 Z M 1731,2133 L 3552,2133 3552,4584 1731,4584 1731,2133 Z"/>
             <path fill="rgb(193,193,193)" stroke="none" d="M 1731,2133 L 3552,2133 3552,4584 1731,4584 1731,2133 Z M 1756,2167 L 3527,2167 3527,4550 1756,4550 1756,2167 Z"/>
             <path fill="rgb(194,194,194)" stroke="none" d="M 1756,2167 L 3527,2167 3527,4550 1756,4550 1756,2167 Z M 1781,2201 L 3502,2201 3502,4516 1781,4516 1781,2201 Z"/>
             <path fill="rgb(195,195,195)" stroke="none" d="M 1781,2201 L 3502,2201 3502,4516 1781,4516 1781,2201 Z M 1807,2235 L 3476,2235 3476,4482 1807,4482 1807,2235 Z"/>
             <path fill="rgb(196,196,196)" stroke="none" d="M 1807,2235 L 3476,2235 3476,4482 1807,4482 1807,2235 Z M 1832,2269 L 3451,2269 3451,4448 1832,4448 1832,2269 Z"/>
             <path fill="rgb(197,197,197)" stroke="none" d="M 1832,2269 L 3451,2269 3451,4448 1832,4448 1832,2269 Z M 1857,2303 L 3426,2303 3426,4414 1857,4414 1857,2303 Z"/>
             <path fill="rgb(198,198,198)" stroke="none" d="M 1857,2303 L 3426,2303 3426,4414 1857,4414 1857,2303 Z M 1883,2337 L 3400,2337 3400,4379 1883,4379 1883,2337 Z"/>
             <path fill="rgb(199,199,199)" stroke="none" d="M 1883,2337 L 3400,2337 3400,4379 1883,4379 1883,2337 Z M 1908,2372 L 3375,2372 3375,4345 1908,4345 1908,2372 Z"/>
             <path fill="rgb(200,200,200)" stroke="none" d="M 1908,2372 L 3375,2372 3375,4345 1908,4345 1908,2372 Z M 1933,2406 L 3350,2406 3350,4311 1933,4311 1933,2406 Z"/>
             <path fill="rgb(201,201,201)" stroke="none" d="M 1933,2406 L 3350,2406 3350,4311 1933,4311 1933,2406 Z M 1959,2440 L 3324,2440 3324,4277 1959,4277 1959,2440 Z"/>
             <path fill="rgb(202,202,202)" stroke="none" d="M 1959,2440 L 3324,2440 3324,4277 1959,4277 1959,2440 Z M 1984,2474 L 3299,2474 3299,4243 1984,4243 1984,2474 Z"/>
             <path fill="rgb(203,203,203)" stroke="none" d="M 1984,2474 L 3299,2474 3299,4243 1984,4243 1984,2474 Z M 2009,2508 L 3274,2508 3274,4209 2009,4209 2009,2508 Z"/>
             <path fill="rgb(204,204,204)" stroke="none" d="M 2009,2508 L 3274,2508 3274,4209 2009,4209 2009,2508 Z M 2035,2542 L 3248,2542 3248,4175 2035,4175 2035,2542 Z"/>
             <path fill="rgb(205,205,205)" stroke="none" d="M 2035,2542 L 3248,2542 3248,4175 2035,4175 2035,2542 Z M 2060,2576 L 3223,2576 3223,4141 2060,4141 2060,2576 Z"/>
             <path fill="rgb(206,206,206)" stroke="none" d="M 2060,2576 L 3223,2576 3223,4141 2060,4141 2060,2576 Z M 2085,2610 L 3198,2610 3198,4107 2085,4107 2085,2610 Z"/>
             <path fill="rgb(207,207,207)" stroke="none" d="M 2085,2610 L 3198,2610 3198,4107 2085,4107 2085,2610 Z M 2110,2644 L 3173,2644 3173,4073 2110,4073 2110,2644 Z"/>
             <path fill="rgb(208,208,208)" stroke="none" d="M 2110,2644 L 3173,2644 3173,4073 2110,4073 2110,2644 Z M 2136,2678 L 3147,2678 3147,4039 2136,4039 2136,2678 Z"/>
             <path fill="rgb(209,209,209)" stroke="none" d="M 2136,2678 L 3147,2678 3147,4039 2136,4039 2136,2678 Z M 2161,2712 L 3122,2712 3122,4005 2161,4005 2161,2712 Z"/>
             <path fill="rgb(210,210,210)" stroke="none" d="M 2161,2712 L 3122,2712 3122,4005 2161,4005 2161,2712 Z M 2186,2746 L 3097,2746 3097,3971 2186,3971 2186,2746 Z"/>
             <path fill="rgb(211,211,211)" stroke="none" d="M 2186,2746 L 3097,2746 3097,3971 2186,3971 2186,2746 Z M 2212,2780 L 3071,2780 3071,3937 2212,3937 2212,2780 Z"/>
             <path fill="rgb(212,212,212)" stroke="none" d="M 2212,2780 L 3071,2780 3071,3937 2212,3937 2212,2780 Z M 2237,2814 L 3046,2814 3046,3903 2237,3903 2237,2814 Z"/>
             <path fill="rgb(213,213,213)" stroke="none" d="M 2237,2814 L 3046,2814 3046,3903 2237,3903 2237,2814 Z M 2262,2848 L 3021,2848 3021,3869 2262,3869 2262,2848 Z"/>
             <path fill="rgb(214,214,214)" stroke="none" d="M 2262,2848 L 3021,2848 3021,3869 2262,3869 2262,2848 Z M 2288,2882 L 2995,2882 2995,3835 2288,3835 2288,2882 Z"/>
             <path fill="rgb(215,215,215)" stroke="none" d="M 2288,2882 L 2995,2882 2995,3835 2288,3835 2288,2882 Z M 2313,2916 L 2970,2916 2970,3801 2313,3801 2313,2916 Z"/>
             <path fill="rgb(216,216,216)" stroke="none" d="M 2313,2916 L 2970,2916 2970,3801 2313,3801 2313,2916 Z M 2338,2950 L 2945,2950 2945,3767 2338,3767 2338,2950 Z"/>
             <path fill="rgb(217,217,217)" stroke="none" d="M 2338,2950 L 2945,2950 2945,3767 2338,3767 2338,2950 Z M 2364,2984 L 2919,2984 2919,3733 2364,3733 2364,2984 Z"/>
             <path fill="rgb(218,218,218)" stroke="none" d="M 2364,2984 L 2919,2984 2919,3733 2364,3733 2364,2984 Z M 2389,3018 L 2894,3018 2894,3698 2389,3698 2389,3018 Z"/>
             <path fill="rgb(219,219,219)" stroke="none" d="M 2389,3018 L 2894,3018 2894,3698 2389,3698 2389,3018 Z M 2414,3053 L 2869,3053 2869,3664 2414,3664 2414,3053 Z"/>
             <path fill="rgb(220,220,220)" stroke="none" d="M 2414,3053 L 2869,3053 2869,3664 2414,3664 2414,3053 Z M 2440,3087 L 2843,3087 2843,3630 2440,3630 2440,3087 Z"/>
             <path fill="rgb(221,221,221)" stroke="none" d="M 2440,3087 L 2843,3087 2843,3630 2440,3630 2440,3087 Z M 2465,3121 L 2818,3121 2818,3596 2465,3596 2465,3121 Z"/>
             <path fill="rgb(222,222,222)" stroke="none" d="M 2465,3121 L 2818,3121 2818,3596 2465,3596 2465,3121 Z M 2490,3155 L 2793,3155 2793,3562 2490,3562 2490,3155 Z"/>
             <path fill="rgb(223,223,223)" stroke="none" d="M 2490,3155 L 2793,3155 2793,3562 2490,3562 2490,3155 Z M 2515,3189 L 2768,3189 2768,3528 2515,3528 2515,3189 Z"/>
             <path fill="rgb(224,224,224)" stroke="none" d="M 2515,3189 L 2768,3189 2768,3528 2515,3528 2515,3189 Z M 2541,3223 L 2742,3223 2742,3494 2541,3494 2541,3223 Z"/>
             <path fill="rgb(225,225,225)" stroke="none" d="M 2541,3223 L 2742,3223 2742,3494 2541,3494 2541,3223 Z M 2566,3257 L 2717,3257 2717,3460 2566,3460 2566,3257 Z"/>
             <path fill="rgb(226,226,226)" stroke="none" d="M 2566,3257 L 2717,3257 2717,3460 2566,3460 2566,3257 Z M 2591,3291 L 2692,3291 2692,3426 2591,3426 2591,3291 Z"/>
             <path fill="rgb(227,227,227)" stroke="none" d="M 2591,3291 L 2692,3291 2692,3426 2591,3426 2591,3291 Z M 2617,3325 L 2666,3325 2666,3392 2617,3392 2617,3325 Z"/>
             <path fill="rgb(229,229,229)" stroke="none" d="M 2617,3325 L 2666,3325 2666,3392 2617,3392 2617,3325 Z"/>
            </g>
           </g>
          </pattern>
         </defs>
         <path style="fill:url(#pattern1)" d="M 1884,5741 L 1884,3797 4412,2339 4412,4283 1884,5741 Z"/>
        </g>
        <path fill="none" stroke="rgb(255,255,255)" stroke-width="35" stroke-linejoin="round" d="M 1884,5741 L 1884,3797 4412,2339 4412,4283 1884,5741 Z"/>
        <g>
         <defs>
          <linearGradient id="gradient2" x1="2305" y1="1367" x2="2305" y2="3797" gradientUnits="userSpaceOnUse">
           <stop offset="0.1" style="stop-color:rgb(179,179,179)"/>
           <stop offset="1" style="stop-color:rgb(229,229,229)"/>
          </linearGradient>
         </defs>
         <path style="fill:url(#gradient2)" d="M 1884,3797 L 198,2825 2727,1367 4412,2339 1884,3797 Z"/>
        </g>
        <path fill="none" stroke="rgb(255,255,255)" stroke-width="35" stroke-linejoin="round" d="M 1884,3797 L 198,2825 2727,1367 4412,2339 1884,3797 Z"/>
        <path fill="none" stroke="rgb(0,0,0)" stroke-width="35" stroke-linejoin="round" d="M 198,4769 L 198,2825 2727,1367 4412,2339 4412,4283 1884,5741 198,4769 Z"/>
        <path fill="rgb(57,181,74)" stroke="none" d="M 1379,3942 L 1379,3797 1463,3846 1463,3991 1379,3942 Z"/>
        <path fill="none" stroke="rgb(127,127,127)" stroke-width="35" stroke-linejoin="round" d="M 1379,3942 L 1379,3797 1463,3846 1463,3991 1379,3942 Z"/>
        <path fill="rgb(127,127,127)" stroke="none" d="M 1547,4040 L 1547,3797 1716,3895 1716,4138 1547,4040 Z"/>
        <path fill="none" stroke="rgb(0,0,0)" stroke-width="35" stroke-linejoin="round" d="M 1547,4040 L 1547,3797 1716,3895 1716,4138 1547,4040 Z"/>
        <path fill="none" stroke="rgb(127,127,127)" stroke-width="35" stroke-linejoin="round" d="M 3654,3699 L 4328,3311"/>
        <path fill="none" stroke="rgb(255,255,255)" stroke-width="35" stroke-linejoin="round" d="M 1209,5158 L 1041,5061"/>
        <path fill="none" stroke="rgb(255,255,255)" stroke-width="35" stroke-linejoin="round" d="M 1041,4040 L 1041,5061"/>
        <path fill="none" stroke="rgb(102,102,102)" stroke-width="35" stroke-linejoin="round" d="M 1209,4138 L 1209,5158"/>
        <path fill="none" stroke="rgb(102,102,102)" stroke-width="35" stroke-linejoin="round" d="M 1209,4138 L 1041,4040"/>
        <path fill="none" stroke="rgb(255,255,255)" stroke-width="35" stroke-linejoin="round" d="M 452,4721 L 283,4623"/>
        <path fill="none" stroke="rgb(255,255,255)" stroke-width="35" stroke-linejoin="round" d="M 283,3603 L 283,4623"/>
        <path fill="none" stroke="rgb(102,102,102)" stroke-width="35" stroke-linejoin="round" d="M 452,3700 L 452,4721"/>
        <path fill="none" stroke="rgb(102,102,102)" stroke-width="35" stroke-linejoin="round" d="M 452,3700 L 283,3603"/>
        <path fill="none" stroke="rgb(255,255,255)" stroke-width="35" stroke-linejoin="round" d="M 704,4866 L 535,4769"/>
        <path fill="none" stroke="rgb(255,255,255)" stroke-width="35" stroke-linejoin="round" d="M 535,3748 L 535,4769"/>
        <path fill="none" stroke="rgb(102,102,102)" stroke-width="35" stroke-linejoin="round" d="M 704,3846 L 704,4866"/>
        <path fill="none" stroke="rgb(102,102,102)" stroke-width="35" stroke-linejoin="round" d="M 704,3846 L 535,3748"/>
        <path fill="none" stroke="rgb(255,255,255)" stroke-width="35" stroke-linejoin="round" d="M 957,5013 L 788,4915"/>
        <path fill="none" stroke="rgb(255,255,255)" stroke-width="35" stroke-linejoin="round" d="M 788,3895 L 788,4915"/>
        <path fill="none" stroke="rgb(102,102,102)" stroke-width="35" stroke-linejoin="round" d="M 957,3991 L 957,5012"/>
        <path fill="none" stroke="rgb(102,102,102)" stroke-width="35" stroke-linejoin="round" d="M 957,3992 L 788,3895"/>
        <path fill="none" stroke="rgb(255,255,255)" stroke-width="35" stroke-linejoin="round" d="M 1462,5304 L 1294,5206"/>
        <path fill="none" stroke="rgb(255,255,255)" stroke-width="35" stroke-linejoin="round" d="M 1294,4186 L 1294,5207"/>
        <path fill="none" stroke="rgb(102,102,102)" stroke-width="35" stroke-linejoin="round" d="M 1462,4283 L 1462,5304"/>
        <path fill="none" stroke="rgb(102,102,102)" stroke-width="35" stroke-linejoin="round" d="M 1462,4284 L 1294,4186"/>
        <path fill="none" stroke="rgb(255,255,255)" stroke-width="35" stroke-linejoin="round" d="M 1716,5450 L 1547,5352"/>
        <path fill="none" stroke="rgb(255,255,255)" stroke-width="35" stroke-linejoin="round" d="M 1547,4332 L 1547,5352"/>
        <path fill="none" stroke="rgb(102,102,102)" stroke-width="35" stroke-linejoin="round" d="M 1716,4429 L 1716,5450"/>
        <path fill="none" stroke="rgb(102,102,102)" stroke-width="35" stroke-linejoin="round" d="M 1716,4429 L 1547,4332"/>
        <path fill="none" stroke="rgb(127,127,127)" stroke-width="35" stroke-linejoin="round" d="M 3654,3797 L 4328,3409"/>
        <path fill="none" stroke="rgb(127,127,127)" stroke-width="35" stroke-linejoin="round" d="M 3654,3894 L 4328,3505"/>
        <path fill="none" stroke="rgb(127,127,127)" stroke-width="35" stroke-linejoin="round" d="M 3654,3991 L 4328,3603"/>
        <path fill="none" stroke="rgb(127,127,127)" stroke-width="35" stroke-linejoin="round" d="M 3654,4089 L 4328,3700"/>
        <path fill="none" stroke="rgb(127,127,127)" stroke-width="35" stroke-linejoin="round" d="M 3654,4185 L 4328,3797"/>
        <path fill="none" stroke="rgb(127,127,127)" stroke-width="35" stroke-linejoin="round" d="M 3654,4283 L 4328,3895"/>
        <path fill="none" stroke="rgb(127,127,127)" stroke-width="35" stroke-linejoin="round" d="M 3654,4380 L 4328,3991"/>
        <path fill="none" stroke="rgb(127,127,127)" stroke-width="35" stroke-linejoin="round" d="M 3654,4477 L 4328,4089"/>
        <path fill="none" stroke="rgb(127,127,127)" stroke-width="35" stroke-linejoin="round" d="M 3654,4575 L 4328,4186"/>
       </g>
      </g>
      <g class="Graphic">
       <g id="id4">
        <rect class="BoundingBox" stroke="none" fill="none" x="5952" y="1050" width="3995" height="4784"/>
        <path fill="rgb(221,221,221)" stroke="none" d="M 7431,5813 C 8142,5813 9258,5358 9739,5057 10221,4757 9739,4370 9497,4370 L 7431,5813 Z"/>
        <path fill="none" stroke="rgb(221,221,221)" d="M 7431,5813 C 8142,5813 9258,5358 9739,5057 10221,4757 9739,4370 9497,4370 L 7431,5813 Z"/>
        <g>
         <defs>
          <linearGradient id="gradient3" x1="6701" y1="5812" x2="6701" y2="2237" gradientUnits="userSpaceOnUse">
           <stop offset="0.1" style="stop-color:rgb(179,179,179)"/>
           <stop offset="1" style="stop-color:rgb(229,229,229)"/>
          </linearGradient>
         </defs>
         <path style="fill:url(#gradient3)" d="M 5972,4988 L 5972,2238 7431,3063 7431,5813 5972,4988 Z"/>
        </g>
        <path fill="none" stroke="rgb(255,255,255)" stroke-width="40" stroke-linejoin="round" d="M 5972,4988 L 5972,2238 7431,3063 7431,5813 5972,4988 Z"/>
        <g>
         <defs>
          <pattern id="pattern2" x="7431" y="1895" width="2067" height="3919" patternUnits="userSpaceOnUse">
           <g transform="translate(-7431,-1895)">
            <defs>
             <clipPath id="clip_path_2" clipPathUnits="userSpaceOnUse">
              <path d="M 7435,1905 L 9499,1905 9499,5821 7435,5821 7435,1905 Z"/>
             </clipPath>
            </defs>
            <g clip-path="url(#clip_path_2)">
             <path fill="rgb(179,179,179)" stroke="none" d="M 7430,1894 L 9498,1894 9498,5814 7430,5814 7430,1894 Z M 7036,1149 L 9063,1149 9063,4990 7036,4990 7036,1149 Z"/>
             <path fill="rgb(180,180,180)" stroke="none" d="M 7036,1149 L 9063,1149 9063,4990 7036,4990 7036,1149 Z M 7057,1188 L 9042,1188 9042,4951 7057,4951 7057,1188 Z"/>
             <path fill="rgb(181,181,181)" stroke="none" d="M 7057,1188 L 9042,1188 9042,4951 7057,4951 7057,1188 Z M 7078,1227 L 9021,1227 9021,4912 7078,4912 7078,1227 Z"/>
             <path fill="rgb(182,182,182)" stroke="none" d="M 7078,1227 L 9021,1227 9021,4912 7078,4912 7078,1227 Z M 7098,1266 L 9001,1266 9001,4873 7098,4873 7098,1266 Z"/>
             <path fill="rgb(183,183,183)" stroke="none" d="M 7098,1266 L 9001,1266 9001,4873 7098,4873 7098,1266 Z M 7119,1306 L 8980,1306 8980,4833 7119,4833 7119,1306 Z"/>
             <path fill="rgb(184,184,184)" stroke="none" d="M 7119,1306 L 8980,1306 8980,4833 7119,4833 7119,1306 Z M 7140,1345 L 8959,1345 8959,4794 7140,4794 7140,1345 Z"/>
             <path fill="rgb(185,185,185)" stroke="none" d="M 7140,1345 L 8959,1345 8959,4794 7140,4794 7140,1345 Z M 7160,1384 L 8939,1384 8939,4755 7160,4755 7160,1384 Z"/>
             <path fill="rgb(186,186,186)" stroke="none" d="M 7160,1384 L 8939,1384 8939,4755 7160,4755 7160,1384 Z M 7181,1423 L 8918,1423 8918,4716 7181,4716 7181,1423 Z"/>
             <path fill="rgb(187,187,187)" stroke="none" d="M 7181,1423 L 8918,1423 8918,4716 7181,4716 7181,1423 Z M 7202,1462 L 8897,1462 8897,4677 7202,4677 7202,1462 Z"/>
             <path fill="rgb(188,188,188)" stroke="none" d="M 7202,1462 L 8897,1462 8897,4677 7202,4677 7202,1462 Z M 7222,1502 L 8877,1502 8877,4637 7222,4637 7222,1502 Z"/>
             <path fill="rgb(189,189,189)" stroke="none" d="M 7222,1502 L 8877,1502 8877,4637 7222,4637 7222,1502 Z M 7243,1541 L 8856,1541 8856,4598 7243,4598 7243,1541 Z"/>
             <path fill="rgb(190,190,190)" stroke="none" d="M 7243,1541 L 8856,1541 8856,4598 7243,4598 7243,1541 Z M 7264,1580 L 8835,1580 8835,4559 7264,4559 7264,1580 Z"/>
             <path fill="rgb(191,191,191)" stroke="none" d="M 7264,1580 L 8835,1580 8835,4559 7264,4559 7264,1580 Z M 7284,1619 L 8815,1619 8815,4520 7284,4520 7284,1619 Z"/>
             <path fill="rgb(192,192,192)" stroke="none" d="M 7284,1619 L 8815,1619 8815,4520 7284,4520 7284,1619 Z M 7305,1658 L 8794,1658 8794,4481 7305,4481 7305,1658 Z"/>
             <path fill="rgb(193,193,193)" stroke="none" d="M 7305,1658 L 8794,1658 8794,4481 7305,4481 7305,1658 Z M 7326,1698 L 8773,1698 8773,4441 7326,4441 7326,1698 Z"/>
             <path fill="rgb(194,194,194)" stroke="none" d="M 7326,1698 L 8773,1698 8773,4441 7326,4441 7326,1698 Z M 7347,1737 L 8752,1737 8752,4402 7347,4402 7347,1737 Z"/>
             <path fill="rgb(195,195,195)" stroke="none" d="M 7347,1737 L 8752,1737 8752,4402 7347,4402 7347,1737 Z M 7367,1776 L 8732,1776 8732,4363 7367,4363 7367,1776 Z"/>
             <path fill="rgb(196,196,196)" stroke="none" d="M 7367,1776 L 8732,1776 8732,4363 7367,4363 7367,1776 Z M 7388,1815 L 8711,1815 8711,4324 7388,4324 7388,1815 Z"/>
             <path fill="rgb(197,197,197)" stroke="none" d="M 7388,1815 L 8711,1815 8711,4324 7388,4324 7388,1815 Z M 7409,1854 L 8690,1854 8690,4285 7409,4285 7409,1854 Z"/>
             <path fill="rgb(198,198,198)" stroke="none" d="M 7409,1854 L 8690,1854 8690,4285 7409,4285 7409,1854 Z M 7429,1894 L 8670,1894 8670,4245 7429,4245 7429,1894 Z"/>
             <path fill="rgb(199,199,199)" stroke="none" d="M 7429,1894 L 8670,1894 8670,4245 7429,4245 7429,1894 Z M 7450,1933 L 8649,1933 8649,4206 7450,4206 7450,1933 Z"/>
             <path fill="rgb(200,200,200)" stroke="none" d="M 7450,1933 L 8649,1933 8649,4206 7450,4206 7450,1933 Z M 7471,1972 L 8628,1972 8628,4167 7471,4167 7471,1972 Z"/>
             <path fill="rgb(201,201,201)" stroke="none" d="M 7471,1972 L 8628,1972 8628,4167 7471,4167 7471,1972 Z M 7491,2011 L 8608,2011 8608,4128 7491,4128 7491,2011 Z"/>
             <path fill="rgb(202,202,202)" stroke="none" d="M 7491,2011 L 8608,2011 8608,4128 7491,4128 7491,2011 Z M 7512,2051 L 8587,2051 8587,4088 7512,4088 7512,2051 Z"/>
             <path fill="rgb(203,203,203)" stroke="none" d="M 7512,2051 L 8587,2051 8587,4088 7512,4088 7512,2051 Z M 7533,2090 L 8566,2090 8566,4049 7533,4049 7533,2090 Z"/>
             <path fill="rgb(204,204,204)" stroke="none" d="M 7533,2090 L 8566,2090 8566,4049 7533,4049 7533,2090 Z M 7553,2129 L 8546,2129 8546,4010 7553,4010 7553,2129 Z"/>
             <path fill="rgb(205,205,205)" stroke="none" d="M 7553,2129 L 8546,2129 8546,4010 7553,4010 7553,2129 Z M 7574,2168 L 8525,2168 8525,3971 7574,3971 7574,2168 Z"/>
             <path fill="rgb(206,206,206)" stroke="none" d="M 7574,2168 L 8525,2168 8525,3971 7574,3971 7574,2168 Z M 7595,2207 L 8504,2207 8504,3932 7595,3932 7595,2207 Z"/>
             <path fill="rgb(207,207,207)" stroke="none" d="M 7595,2207 L 8504,2207 8504,3932 7595,3932 7595,2207 Z M 7616,2247 L 8483,2247 8483,3892 7616,3892 7616,2247 Z"/>
             <path fill="rgb(208,208,208)" stroke="none" d="M 7616,2247 L 8483,2247 8483,3892 7616,3892 7616,2247 Z M 7636,2286 L 8463,2286 8463,3853 7636,3853 7636,2286 Z"/>
             <path fill="rgb(209,209,209)" stroke="none" d="M 7636,2286 L 8463,2286 8463,3853 7636,3853 7636,2286 Z M 7657,2325 L 8442,2325 8442,3814 7657,3814 7657,2325 Z"/>
             <path fill="rgb(210,210,210)" stroke="none" d="M 7657,2325 L 8442,2325 8442,3814 7657,3814 7657,2325 Z M 7678,2364 L 8421,2364 8421,3775 7678,3775 7678,2364 Z"/>
             <path fill="rgb(211,211,211)" stroke="none" d="M 7678,2364 L 8421,2364 8421,3775 7678,3775 7678,2364 Z M 7698,2403 L 8401,2403 8401,3736 7698,3736 7698,2403 Z"/>
             <path fill="rgb(212,212,212)" stroke="none" d="M 7698,2403 L 8401,2403 8401,3736 7698,3736 7698,2403 Z M 7719,2443 L 8380,2443 8380,3696 7719,3696 7719,2443 Z"/>
             <path fill="rgb(213,213,213)" stroke="none" d="M 7719,2443 L 8380,2443 8380,3696 7719,3696 7719,2443 Z M 7740,2482 L 8359,2482 8359,3657 7740,3657 7740,2482 Z"/>
             <path fill="rgb(214,214,214)" stroke="none" d="M 7740,2482 L 8359,2482 8359,3657 7740,3657 7740,2482 Z M 7760,2521 L 8339,2521 8339,3618 7760,3618 7760,2521 Z"/>
             <path fill="rgb(215,215,215)" stroke="none" d="M 7760,2521 L 8339,2521 8339,3618 7760,3618 7760,2521 Z M 7781,2560 L 8318,2560 8318,3579 7781,3579 7781,2560 Z"/>
             <path fill="rgb(216,216,216)" stroke="none" d="M 7781,2560 L 8318,2560 8318,3579 7781,3579 7781,2560 Z M 7802,2599 L 8297,2599 8297,3540 7802,3540 7802,2599 Z"/>
             <path fill="rgb(217,217,217)" stroke="none" d="M 7802,2599 L 8297,2599 8297,3540 7802,3540 7802,2599 Z M 7822,2639 L 8277,2639 8277,3500 7822,3500 7822,2639 Z"/>
             <path fill="rgb(218,218,218)" stroke="none" d="M 7822,2639 L 8277,2639 8277,3500 7822,3500 7822,2639 Z M 7843,2678 L 8256,2678 8256,3461 7843,3461 7843,2678 Z"/>
             <path fill="rgb(219,219,219)" stroke="none" d="M 7843,2678 L 8256,2678 8256,3461 7843,3461 7843,2678 Z M 7864,2717 L 8235,2717 8235,3422 7864,3422 7864,2717 Z"/>
             <path fill="rgb(220,220,220)" stroke="none" d="M 7864,2717 L 8235,2717 8235,3422 7864,3422 7864,2717 Z M 7884,2756 L 8215,2756 8215,3383 7884,3383 7884,2756 Z"/>
             <path fill="rgb(221,221,221)" stroke="none" d="M 7884,2756 L 8215,2756 8215,3383 7884,3383 7884,2756 Z M 7905,2796 L 8194,2796 8194,3343 7905,3343 7905,2796 Z"/>
             <path fill="rgb(222,222,222)" stroke="none" d="M 7905,2796 L 8194,2796 8194,3343 7905,3343 7905,2796 Z M 7926,2835 L 8173,2835 8173,3304 7926,3304 7926,2835 Z"/>
             <path fill="rgb(223,223,223)" stroke="none" d="M 7926,2835 L 8173,2835 8173,3304 7926,3304 7926,2835 Z M 7947,2874 L 8152,2874 8152,3265 7947,3265 7947,2874 Z"/>
             <path fill="rgb(224,224,224)" stroke="none" d="M 7947,2874 L 8152,2874 8152,3265 7947,3265 7947,2874 Z M 7967,2913 L 8132,2913 8132,3226 7967,3226 7967,2913 Z"/>
             <path fill="rgb(225,225,225)" stroke="none" d="M 7967,2913 L 8132,2913 8132,3226 7967,3226 7967,2913 Z M 7988,2952 L 8111,2952 8111,3187 7988,3187 7988,2952 Z"/>
             <path fill="rgb(226,226,226)" stroke="none" d="M 7988,2952 L 8111,2952 8111,3187 7988,3187 7988,2952 Z M 8009,2992 L 8090,2992 8090,3147 8009,3147 8009,2992 Z"/>
             <path fill="rgb(227,227,227)" stroke="none" d="M 8009,2992 L 8090,2992 8090,3147 8009,3147 8009,2992 Z M 8029,3031 L 8070,3031 8070,3108 8029,3108 8029,3031 Z"/>
             <path fill="rgb(229,229,229)" stroke="none" d="M 8029,3031 L 8070,3031 8070,3108 8029,3108 8029,3031 Z"/>
            </g>
           </g>
          </pattern>
         </defs>
         <path style="fill:url(#pattern2)" d="M 7431,5813 L 7431,3063 9497,1895 9497,4645 7431,5813 Z"/>
        </g>
        <path fill="none" stroke="rgb(255,255,255)" stroke-width="40" stroke-linejoin="round" d="M 7431,5813 L 7431,3063 9497,1895 9497,4645 7431,5813 Z"/>
        <g>
         <defs>
          <linearGradient id="gradient4" x1="7734" y1="1070" x2="7734" y2="3063" gradientUnits="userSpaceOnUse">
           <stop offset="0.1" style="stop-color:rgb(179,179,179)"/>
           <stop offset="1" style="stop-color:rgb(229,229,229)"/>
          </linearGradient>
         </defs>
         <path style="fill:url(#gradient4)" d="M 7431,3063 L 5972,2238 8038,1070 9497,1895 7431,3063 Z"/>
        </g>
        <path fill="none" stroke="rgb(255,255,255)" stroke-width="40" stroke-linejoin="round" d="M 7431,3063 L 5972,2238 8038,1070 9497,1895 7431,3063 Z"/>
        <path fill="none" stroke="rgb(0,0,0)" stroke-width="40" stroke-linejoin="round" d="M 5972,4988 L 5972,2238 8038,1070 9497,1895 9497,4645 7431,5813 5972,4988 Z"/>
        <path fill="none" stroke="rgb(128,128,128)" stroke-width="40" stroke-linejoin="round" d="M 7187,5126 L 6215,4576"/>
        <path fill="none" stroke="rgb(128,128,128)" stroke-width="40" stroke-linejoin="round" d="M 7187,5401 L 6215,4851"/>
        <path fill="none" stroke="rgb(128,128,128)" stroke-width="40" stroke-linejoin="round" d="M 7187,5263 L 6215,4713"/>
        <path fill="none" stroke="rgb(255,255,255)" stroke-width="40" stroke-linejoin="round" d="M 7308,3476 L 6093,2788 6093,2651"/>
        <path fill="none" stroke="rgb(128,128,128)" stroke-width="40" stroke-linejoin="round" d="M 7308,3476 L 7308,3338 6114,2648"/>
        <path fill="rgb(57,181,74)" stroke="none" d="M 6543,4185 L 6543,4023 6686,4103 6686,4266 6543,4185 Z"/>
        <path fill="none" stroke="rgb(128,128,128)" stroke-width="40" stroke-linejoin="round" d="M 6543,4185 L 6543,4023 6686,4103 6686,4266 6543,4185 Z"/>
        <path fill="none" stroke="rgb(128,128,128)" stroke-width="40" stroke-linejoin="round" d="M 7187,4988 L 6215,4438"/>
       </g>
      </g>
      <g class="Group">
       <g class="com.sun.star.drawing.ClosedBezierShape">
        <g id="id5">
         <rect class="BoundingBox" stroke="none" fill="none" x="13165" y="4398" width="2511" height="1468"/>
         <path fill="rgb(221,221,221)" stroke="none" d="M 13166,5864 C 13876,5864 14989,5402 15469,5097 15949,4792 15469,4399 15227,4399 L 13166,5864 Z"/>
         <path fill="none" stroke="rgb(221,221,221)" d="M 13166,5864 C 13876,5864 14989,5402 15469,5097 15949,4792 15469,4399 15227,4399 L 13166,5864 Z"/>
        </g>
       </g>
       <g class="Group">
        <g class="com.sun.star.drawing.PolyPolygonShape">
         <g id="id6">
          <rect class="BoundingBox" stroke="none" fill="none" x="11691" y="2216" width="1496" height="3669"/>
          <g>
           <defs>
            <linearGradient id="gradient5" x1="12438" y1="5864" x2="12438" y2="2236" gradientUnits="userSpaceOnUse">
             <stop offset="0.1" style="stop-color:rgb(179,179,179)"/>
             <stop offset="1" style="stop-color:rgb(229,229,229)"/>
            </linearGradient>
           </defs>
           <path style="fill:url(#gradient5)" d="M 11711,5027 L 11711,2236 13166,3073 13166,5864 11711,5027 Z"/>
          </g>
          <path fill="none" stroke="rgb(255,255,255)" stroke-width="40" stroke-linejoin="round" d="M 11711,5027 L 11711,2236 13166,3073 13166,5864 11711,5027 Z"/>
         </g>
        </g>
        <g class="com.sun.star.drawing.PolyPolygonShape">
         <g id="id7">
          <rect class="BoundingBox" stroke="none" fill="none" x="13146" y="1867" width="2102" height="4018"/>
          <g>
           <defs>
            <pattern id="pattern3" x="13166" y="1887" width="2062" height="3978" patternUnits="userSpaceOnUse">
             <g transform="translate(-13166,-1887)">
              <defs>
               <clipPath id="clip_path_3" clipPathUnits="userSpaceOnUse">
                <path d="M 13176,1879 L 15240,1879 15240,5874 13176,5874 13176,1879 Z"/>
               </clipPath>
              </defs>
              <g clip-path="url(#clip_path_3)">
               <path fill="rgb(179,179,179)" stroke="none" d="M 13165,1886 L 15228,1886 15228,5865 13165,5865 13165,1886 Z M 12773,1130 L 14794,1130 14794,5029 12773,5029 12773,1130 Z"/>
               <path fill="rgb(180,180,180)" stroke="none" d="M 12773,1130 L 14794,1130 14794,5029 12773,5029 12773,1130 Z M 12794,1170 L 14773,1170 14773,4989 12794,4989 12794,1170 Z"/>
               <path fill="rgb(181,181,181)" stroke="none" d="M 12794,1170 L 14773,1170 14773,4989 12794,4989 12794,1170 Z M 12814,1210 L 14753,1210 14753,4949 12814,4949 12814,1210 Z"/>
               <path fill="rgb(182,182,182)" stroke="none" d="M 12814,1210 L 14753,1210 14753,4949 12814,4949 12814,1210 Z M 12835,1250 L 14732,1250 14732,4909 12835,4909 12835,1250 Z"/>
               <path fill="rgb(183,183,183)" stroke="none" d="M 12835,1250 L 14732,1250 14732,4909 12835,4909 12835,1250 Z M 12856,1289 L 14711,1289 14711,4869 12856,4869 12856,1289 Z"/>
               <path fill="rgb(184,184,184)" stroke="none" d="M 12856,1289 L 14711,1289 14711,4869 12856,4869 12856,1289 Z M 12876,1329 L 14691,1329 14691,4830 12876,4830 12876,1329 Z"/>
               <path fill="rgb(185,185,185)" stroke="none" d="M 12876,1329 L 14691,1329 14691,4830 12876,4830 12876,1329 Z M 12897,1369 L 14670,1369 14670,4790 12897,4790 12897,1369 Z"/>
               <path fill="rgb(186,186,186)" stroke="none" d="M 12897,1369 L 14670,1369 14670,4790 12897,4790 12897,1369 Z M 12918,1409 L 14649,1409 14649,4750 12918,4750 12918,1409 Z"/>
               <path fill="rgb(187,187,187)" stroke="none" d="M 12918,1409 L 14649,1409 14649,4750 12918,4750 12918,1409 Z M 12938,1449 L 14629,1449 14629,4710 12938,4710 12938,1449 Z"/>
               <path fill="rgb(188,188,188)" stroke="none" d="M 12938,1449 L 14629,1449 14629,4710 12938,4710 12938,1449 Z M 12959,1488 L 14608,1488 14608,4670 12959,4670 12959,1488 Z"/>
               <path fill="rgb(189,189,189)" stroke="none" d="M 12959,1488 L 14608,1488 14608,4670 12959,4670 12959,1488 Z M 12980,1528 L 14587,1528 14587,4631 12980,4631 12980,1528 Z"/>
               <path fill="rgb(190,190,190)" stroke="none" d="M 12980,1528 L 14587,1528 14587,4631 12980,4631 12980,1528 Z M 13000,1568 L 14567,1568 14567,4591 13000,4591 13000,1568 Z"/>
               <path fill="rgb(191,191,191)" stroke="none" d="M 13000,1568 L 14567,1568 14567,4591 13000,4591 13000,1568 Z M 13021,1608 L 14546,1608 14546,4551 13021,4551 13021,1608 Z"/>
               <path fill="rgb(192,192,192)" stroke="none" d="M 13021,1608 L 14546,1608 14546,4551 13021,4551 13021,1608 Z M 13041,1648 L 14526,1648 14526,4511 13041,4511 13041,1648 Z"/>
               <path fill="rgb(193,193,193)" stroke="none" d="M 13041,1648 L 14526,1648 14526,4511 13041,4511 13041,1648 Z M 13062,1687 L 14505,1687 14505,4471 13062,4471 13062,1687 Z"/>
               <path fill="rgb(194,194,194)" stroke="none" d="M 13062,1687 L 14505,1687 14505,4471 13062,4471 13062,1687 Z M 13083,1727 L 14484,1727 14484,4432 13083,4432 13083,1727 Z"/>
               <path fill="rgb(195,195,195)" stroke="none" d="M 13083,1727 L 14484,1727 14484,4432 13083,4432 13083,1727 Z M 13103,1767 L 14464,1767 14464,4392 13103,4392 13103,1767 Z"/>
               <path fill="rgb(196,196,196)" stroke="none" d="M 13103,1767 L 14464,1767 14464,4392 13103,4392 13103,1767 Z M 13124,1807 L 14443,1807 14443,4352 13124,4352 13124,1807 Z"/>
               <path fill="rgb(197,197,197)" stroke="none" d="M 13124,1807 L 14443,1807 14443,4352 13124,4352 13124,1807 Z M 13145,1847 L 14422,1847 14422,4312 13145,4312 13145,1847 Z"/>
               <path fill="rgb(198,198,198)" stroke="none" d="M 13145,1847 L 14422,1847 14422,4312 13145,4312 13145,1847 Z M 13164,1885 L 14402,1885 14402,4272 13164,4272 13164,1885 Z"/>
               <path fill="rgb(199,199,199)" stroke="none" d="M 13164,1885 L 14402,1885 14402,4272 13164,4272 13164,1885 Z M 13185,1925 L 14381,1925 14381,4233 13185,4233 13185,1925 Z"/>
               <path fill="rgb(200,200,200)" stroke="none" d="M 13185,1925 L 14381,1925 14381,4233 13185,4233 13185,1925 Z M 13206,1965 L 14360,1965 14360,4193 13206,4193 13206,1965 Z"/>
               <path fill="rgb(201,201,201)" stroke="none" d="M 13206,1965 L 14360,1965 14360,4193 13206,4193 13206,1965 Z M 13226,2005 L 14340,2005 14340,4153 13226,4153 13226,2005 Z"/>
               <path fill="rgb(202,202,202)" stroke="none" d="M 13226,2005 L 14340,2005 14340,4153 13226,4153 13226,2005 Z M 13247,2045 L 14319,2045 14319,4113 13247,4113 13247,2045 Z"/>
               <path fill="rgb(203,203,203)" stroke="none" d="M 13247,2045 L 14319,2045 14319,4113 13247,4113 13247,2045 Z M 13267,2084 L 14298,2084 14298,4073 13267,4073 13267,2084 Z"/>
               <path fill="rgb(204,204,204)" stroke="none" d="M 13267,2084 L 14298,2084 14298,4073 13267,4073 13267,2084 Z M 13288,2124 L 14278,2124 14278,4034 13288,4034 13288,2124 Z"/>
               <path fill="rgb(205,205,205)" stroke="none" d="M 13288,2124 L 14278,2124 14278,4034 13288,4034 13288,2124 Z M 13309,2164 L 14257,2164 14257,3994 13309,3994 13309,2164 Z"/>
               <path fill="rgb(206,206,206)" stroke="none" d="M 13309,2164 L 14257,2164 14257,3994 13309,3994 13309,2164 Z M 13329,2204 L 14237,2204 14237,3954 13329,3954 13329,2204 Z"/>
               <path fill="rgb(207,207,207)" stroke="none" d="M 13329,2204 L 14237,2204 14237,3954 13329,3954 13329,2204 Z M 13350,2244 L 14216,2244 14216,3914 13350,3914 13350,2244 Z"/>
               <path fill="rgb(208,208,208)" stroke="none" d="M 13350,2244 L 14216,2244 14216,3914 13350,3914 13350,2244 Z M 13371,2283 L 14195,2283 14195,3874 13371,3874 13371,2283 Z"/>
               <path fill="rgb(209,209,209)" stroke="none" d="M 13371,2283 L 14195,2283 14195,3874 13371,3874 13371,2283 Z M 13391,2323 L 14175,2323 14175,3835 13391,3835 13391,2323 Z"/>
               <path fill="rgb(210,210,210)" stroke="none" d="M 13391,2323 L 14175,2323 14175,3835 13391,3835 13391,2323 Z M 13412,2363 L 14154,2363 14154,3795 13412,3795 13412,2363 Z"/>
               <path fill="rgb(211,211,211)" stroke="none" d="M 13412,2363 L 14154,2363 14154,3795 13412,3795 13412,2363 Z M 13433,2403 L 14133,2403 14133,3755 13433,3755 13433,2403 Z"/>
               <path fill="rgb(212,212,212)" stroke="none" d="M 13433,2403 L 14133,2403 14133,3755 13433,3755 13433,2403 Z M 13453,2443 L 14113,2443 14113,3715 13453,3715 13453,2443 Z"/>
               <path fill="rgb(213,213,213)" stroke="none" d="M 13453,2443 L 14113,2443 14113,3715 13453,3715 13453,2443 Z M 13474,2482 L 14092,2482 14092,3675 13474,3675 13474,2482 Z"/>
               <path fill="rgb(214,214,214)" stroke="none" d="M 13474,2482 L 14092,2482 14092,3675 13474,3675 13474,2482 Z M 13495,2522 L 14071,2522 14071,3636 13495,3636 13495,2522 Z"/>
               <path fill="rgb(215,215,215)" stroke="none" d="M 13495,2522 L 14071,2522 14071,3636 13495,3636 13495,2522 Z M 13515,2562 L 14051,2562 14051,3596 13515,3596 13515,2562 Z"/>
               <path fill="rgb(216,216,216)" stroke="none" d="M 13515,2562 L 14051,2562 14051,3596 13515,3596 13515,2562 Z M 13536,2602 L 14030,2602 14030,3556 13536,3556 13536,2602 Z"/>
               <path fill="rgb(217,217,217)" stroke="none" d="M 13536,2602 L 14030,2602 14030,3556 13536,3556 13536,2602 Z M 13556,2642 L 14010,2642 14010,3516 13556,3516 13556,2642 Z"/>
               <path fill="rgb(218,218,218)" stroke="none" d="M 13556,2642 L 14010,2642 14010,3516 13556,3516 13556,2642 Z M 13577,2681 L 13989,2681 13989,3476 13577,3476 13577,2681 Z"/>
               <path fill="rgb(219,219,219)" stroke="none" d="M 13577,2681 L 13989,2681 13989,3476 13577,3476 13577,2681 Z M 13598,2721 L 13968,2721 13968,3437 13598,3437 13598,2721 Z"/>
               <path fill="rgb(220,220,220)" stroke="none" d="M 13598,2721 L 13968,2721 13968,3437 13598,3437 13598,2721 Z M 13618,2761 L 13948,2761 13948,3397 13618,3397 13618,2761 Z"/>
               <path fill="rgb(221,221,221)" stroke="none" d="M 13618,2761 L 13948,2761 13948,3397 13618,3397 13618,2761 Z M 13639,2801 L 13927,2801 13927,3357 13639,3357 13639,2801 Z"/>
               <path fill="rgb(222,222,222)" stroke="none" d="M 13639,2801 L 13927,2801 13927,3357 13639,3357 13639,2801 Z M 13660,2841 L 13906,2841 13906,3317 13660,3317 13660,2841 Z"/>
               <path fill="rgb(223,223,223)" stroke="none" d="M 13660,2841 L 13906,2841 13906,3317 13660,3317 13660,2841 Z M 13680,2880 L 13886,2880 13886,3277 13680,3277 13680,2880 Z"/>
               <path fill="rgb(224,224,224)" stroke="none" d="M 13680,2880 L 13886,2880 13886,3277 13680,3277 13680,2880 Z M 13701,2920 L 13865,2920 13865,3238 13701,3238 13701,2920 Z"/>
               <path fill="rgb(225,225,225)" stroke="none" d="M 13701,2920 L 13865,2920 13865,3238 13701,3238 13701,2920 Z M 13722,2960 L 13844,2960 13844,3198 13722,3198 13722,2960 Z"/>
               <path fill="rgb(226,226,226)" stroke="none" d="M 13722,2960 L 13844,2960 13844,3198 13722,3198 13722,2960 Z M 13742,3000 L 13824,3000 13824,3158 13742,3158 13742,3000 Z"/>
               <path fill="rgb(227,227,227)" stroke="none" d="M 13742,3000 L 13824,3000 13824,3158 13742,3158 13742,3000 Z M 13763,3040 L 13803,3040 13803,3118 13763,3118 13763,3040 Z"/>
               <path fill="rgb(229,229,229)" stroke="none" d="M 13763,3040 L 13803,3040 13803,3118 13763,3118 13763,3040 Z"/>
              </g>
             </g>
            </pattern>
           </defs>
           <path style="fill:url(#pattern3)" d="M 13166,5864 L 13166,3073 15227,1887 15227,4678 13166,5864 Z"/>
          </g>
          <path fill="none" stroke="rgb(255,255,255)" stroke-width="40" stroke-linejoin="round" d="M 13166,5864 L 13166,3073 15227,1887 15227,4678 13166,5864 Z"/>
         </g>
        </g>
        <g class="com.sun.star.drawing.PolyPolygonShape">
         <g id="id8">
          <rect class="BoundingBox" stroke="none" fill="none" x="11690" y="1030" width="3558" height="2065"/>
          <g>
           <defs>
            <linearGradient id="gradient6" x1="13469" y1="1050" x2="13469" y2="3073" gradientUnits="userSpaceOnUse">
             <stop offset="0.1" style="stop-color:rgb(179,179,179)"/>
             <stop offset="1" style="stop-color:rgb(229,229,229)"/>
            </linearGradient>
           </defs>
           <path style="fill:url(#gradient6)" d="M 13166,3073 L 11711,2236 13772,1050 15227,1887 13166,3073 Z"/>
          </g>
          <path fill="none" stroke="rgb(255,255,255)" stroke-width="40" stroke-linejoin="round" d="M 13166,3073 L 11711,2236 13772,1050 15227,1887 13166,3073 Z"/>
         </g>
        </g>
        <g class="com.sun.star.drawing.PolyPolygonShape">
         <g id="id9">
          <rect class="BoundingBox" stroke="none" fill="none" x="11690" y="1030" width="3558" height="4855"/>
          <path fill="none" stroke="rgb(0,0,0)" stroke-width="40" stroke-linejoin="round" d="M 11711,5027 L 11711,2236 13772,1050 15227,1887 15227,4678 13166,5864 11711,5027 Z"/>
         </g>
        </g>
        <g class="com.sun.star.drawing.LineShape">
         <g id="id10">
          <rect class="BoundingBox" stroke="none" fill="none" x="11933" y="4588" width="1011" height="600"/>
          <path fill="none" stroke="rgb(128,128,128)" stroke-width="40" stroke-linejoin="round" d="M 12923,5166 L 11953,4608"/>
         </g>
        </g>
        <g class="com.sun.star.drawing.LineShape">
         <g id="id11">
          <rect class="BoundingBox" stroke="none" fill="none" x="11932" y="4867" width="1012" height="600"/>
          <path fill="none" stroke="rgb(128,128,128)" stroke-width="40" stroke-linejoin="round" d="M 12923,5445 L 11953,4887"/>
         </g>
        </g>
        <g class="com.sun.star.drawing.LineShape">
         <g id="id12">
          <rect class="BoundingBox" stroke="none" fill="none" x="11932" y="4727" width="1012" height="600"/>
          <path fill="none" stroke="rgb(128,128,128)" stroke-width="40" stroke-linejoin="round" d="M 12923,5306 L 11953,4748"/>
         </g>
        </g>
        <g class="com.sun.star.drawing.PolyLineShape">
         <g id="id13">
          <rect class="BoundingBox" stroke="none" fill="none" x="11812" y="2634" width="1253" height="879"/>
          <path fill="none" stroke="rgb(255,255,255)" stroke-width="40" stroke-linejoin="round" d="M 13044,3492 L 11832,2794 11832,2655"/>
         </g>
        </g>
        <g class="com.sun.star.drawing.PolyLineShape">
         <g id="id14">
          <rect class="BoundingBox" stroke="none" fill="none" x="11833" y="2631" width="1232" height="882"/>
          <path fill="none" stroke="rgb(128,128,128)" stroke-width="40" stroke-linejoin="round" d="M 13044,3492 L 13044,3352 11853,2652"/>
         </g>
        </g>
        <g class="com.sun.star.drawing.PolyPolygonShape">
         <g id="id15">
          <rect class="BoundingBox" stroke="none" fill="none" x="12261" y="4027" width="184" height="288"/>
          <path fill="rgb(57,181,74)" stroke="none" d="M 12281,4211 L 12281,4047 12423,4129 12423,4293 12281,4211 Z"/>
          <path fill="none" stroke="rgb(128,128,128)" stroke-width="40" stroke-linejoin="round" d="M 12281,4211 L 12281,4047 12423,4129 12423,4293 12281,4211 Z"/>
         </g>
        </g>
        <g class="com.sun.star.drawing.LineShape">
         <g id="id16">
          <rect class="BoundingBox" stroke="none" fill="none" x="11933" y="4448" width="1011" height="600"/>
          <path fill="none" stroke="rgb(128,128,128)" stroke-width="40" stroke-linejoin="round" d="M 12923,5027 L 11953,4469"/>
         </g>
        </g>
       </g>
      </g>
      <g class="TextShape">
       <g id="id17">
        <rect class="BoundingBox" stroke="none" fill="none" x="5400" y="100" width="5325" height="963"/>
        <text class="SVGTextShape"><tspan class="TextParagraph" font-family="Liberation Sans, sans-serif" font-size="635px" font-weight="400"><tspan class="TextPosition" x="5650" y="801"><tspan fill="rgb(0,0,0)" stroke="none" style="white-space: pre">Servidor primário</tspan></tspan></tspan></text>
       </g>
      </g>
      <g class="TextShape">
       <g id="id18">
        <rect class="BoundingBox" stroke="none" fill="none" x="400" y="100" width="4338" height="963"/>
        <text class="SVGTextShape"><tspan class="TextParagraph" font-family="Liberation Sans, sans-serif" font-size="635px" font-weight="400"><tspan class="TextPosition" x="650" y="801"><tspan fill="rgb(0,0,0)" stroke="none" style="white-space: pre">Unidade NAS</tspan></tspan></tspan></text>
       </g>
      </g>
      <g class="TextShape">
       <g id="id19">
        <rect class="BoundingBox" stroke="none" fill="none" x="10750" y="100" width="6133" height="963"/>
        <text class="SVGTextShape"><tspan class="TextParagraph" font-family="Liberation Sans, sans-serif" font-size="635px" font-weight="400"><tspan class="TextPosition" x="11000" y="801"><tspan fill="rgb(0,0,0)" stroke="none" style="white-space: pre">Servidor secundário</tspan></tspan></tspan></text>
       </g>
      </g>
      <g class="Graphic">
       <g id="id20">
        <rect class="BoundingBox" stroke="none" fill="none" x="15722" y="4950" width="1579" height="2356"/>
        <path fill="rgb(221,221,221)" stroke="none" d="M 16170,7291 C 16409,7291 17300,7032 17300,6825 17300,6618 17277,6515 17039,6515 17039,6670 16170,7084 16170,7291 Z"/>
        <path fill="none" stroke="rgb(221,221,221)" d="M 16170,7291 C 16409,7291 17300,7032 17300,6825 17300,6618 17277,6515 17039,6515 17039,6670 16170,7084 16170,7291 Z"/>
        <g>
         <defs>
          <pattern id="pattern4" x="16170" y="5222" width="870" height="2070" patternUnits="userSpaceOnUse">
           <g transform="translate(-16170,-5222)">
            <defs>
             <clipPath id="clip_path_4" clipPathUnits="userSpaceOnUse">
              <path d="M 16166,5212 L 17039,5212 17039,7303 16166,7303 16166,5212 Z"/>
             </clipPath>
            </defs>
            <g clip-path="url(#clip_path_4)">
             <path fill="rgb(179,179,179)" stroke="none" d="M 16169,5221 L 17040,5221 17040,7292 16169,7292 16169,5221 Z M 16002,4827 L 16856,4827 16856,6856 16002,6856 16002,4827 Z"/>
             <path fill="rgb(180,180,180)" stroke="none" d="M 16002,4827 L 16856,4827 16856,6856 16002,6856 16002,4827 Z M 16011,4848 L 16847,4848 16847,6835 16011,6835 16011,4848 Z"/>
             <path fill="rgb(181,181,181)" stroke="none" d="M 16011,4848 L 16847,4848 16847,6835 16011,6835 16011,4848 Z M 16020,4869 L 16838,4869 16838,6814 16020,6814 16020,4869 Z"/>
             <path fill="rgb(182,182,182)" stroke="none" d="M 16020,4869 L 16838,4869 16838,6814 16020,6814 16020,4869 Z M 16028,4889 L 16830,4889 16830,6794 16028,6794 16028,4889 Z"/>
             <path fill="rgb(183,183,183)" stroke="none" d="M 16028,4889 L 16830,4889 16830,6794 16028,6794 16028,4889 Z M 16037,4910 L 16821,4910 16821,6773 16037,6773 16037,4910 Z"/>
             <path fill="rgb(184,184,184)" stroke="none" d="M 16037,4910 L 16821,4910 16821,6773 16037,6773 16037,4910 Z M 16046,4931 L 16812,4931 16812,6752 16046,6752 16046,4931 Z"/>
             <path fill="rgb(185,185,185)" stroke="none" d="M 16046,4931 L 16812,4931 16812,6752 16046,6752 16046,4931 Z M 16055,4951 L 16803,4951 16803,6731 16055,6731 16055,4951 Z"/>
             <path fill="rgb(186,186,186)" stroke="none" d="M 16055,4951 L 16803,4951 16803,6731 16055,6731 16055,4951 Z M 16063,4971 L 16795,4971 16795,6711 16063,6711 16063,4971 Z"/>
             <path fill="rgb(187,187,187)" stroke="none" d="M 16063,4971 L 16795,4971 16795,6711 16063,6711 16063,4971 Z M 16072,4992 L 16786,4992 16786,6690 16072,6690 16072,4992 Z"/>
             <path fill="rgb(188,188,188)" stroke="none" d="M 16072,4992 L 16786,4992 16786,6690 16072,6690 16072,4992 Z M 16081,5013 L 16777,5013 16777,6669 16081,6669 16081,5013 Z"/>
             <path fill="rgb(189,189,189)" stroke="none" d="M 16081,5013 L 16777,5013 16777,6669 16081,6669 16081,5013 Z M 16089,5033 L 16769,5033 16769,6649 16089,6649 16089,5033 Z"/>
             <path fill="rgb(190,190,190)" stroke="none" d="M 16089,5033 L 16769,5033 16769,6649 16089,6649 16089,5033 Z M 16098,5054 L 16760,5054 16760,6628 16098,6628 16098,5054 Z"/>
             <path fill="rgb(191,191,191)" stroke="none" d="M 16098,5054 L 16760,5054 16760,6628 16098,6628 16098,5054 Z M 16107,5075 L 16751,5075 16751,6607 16107,6607 16107,5075 Z"/>
             <path fill="rgb(192,192,192)" stroke="none" d="M 16107,5075 L 16751,5075 16751,6607 16107,6607 16107,5075 Z M 16116,5096 L 16742,5096 16742,6586 16116,6586 16116,5096 Z"/>
             <path fill="rgb(193,193,193)" stroke="none" d="M 16116,5096 L 16742,5096 16742,6586 16116,6586 16116,5096 Z M 16124,5116 L 16734,5116 16734,6566 16124,6566 16124,5116 Z"/>
             <path fill="rgb(194,194,194)" stroke="none" d="M 16124,5116 L 16734,5116 16734,6566 16124,6566 16124,5116 Z M 16133,5137 L 16725,5137 16725,6545 16133,6545 16133,5137 Z"/>
             <path fill="rgb(195,195,195)" stroke="none" d="M 16133,5137 L 16725,5137 16725,6545 16133,6545 16133,5137 Z M 16142,5158 L 16716,5158 16716,6524 16142,6524 16142,5158 Z"/>
             <path fill="rgb(196,196,196)" stroke="none" d="M 16142,5158 L 16716,5158 16716,6524 16142,6524 16142,5158 Z M 16150,5178 L 16708,5178 16708,6504 16150,6504 16150,5178 Z"/>
             <path fill="rgb(197,197,197)" stroke="none" d="M 16150,5178 L 16708,5178 16708,6504 16150,6504 16150,5178 Z M 16159,5199 L 16699,5199 16699,6483 16159,6483 16159,5199 Z"/>
             <path fill="rgb(198,198,198)" stroke="none" d="M 16159,5199 L 16699,5199 16699,6483 16159,6483 16159,5199 Z M 16168,5220 L 16690,5220 16690,6462 16168,6462 16168,5220 Z"/>
             <path fill="rgb(199,199,199)" stroke="none" d="M 16168,5220 L 16690,5220 16690,6462 16168,6462 16168,5220 Z M 16177,5241 L 16681,5241 16681,6441 16177,6441 16177,5241 Z"/>
             <path fill="rgb(200,200,200)" stroke="none" d="M 16177,5241 L 16681,5241 16681,6441 16177,6441 16177,5241 Z M 16185,5261 L 16673,5261 16673,6421 16185,6421 16185,5261 Z"/>
             <path fill="rgb(201,201,201)" stroke="none" d="M 16185,5261 L 16673,5261 16673,6421 16185,6421 16185,5261 Z M 16194,5282 L 16664,5282 16664,6400 16194,6400 16194,5282 Z"/>
             <path fill="rgb(202,202,202)" stroke="none" d="M 16194,5282 L 16664,5282 16664,6400 16194,6400 16194,5282 Z M 16203,5303 L 16655,5303 16655,6379 16203,6379 16203,5303 Z"/>
             <path fill="rgb(203,203,203)" stroke="none" d="M 16203,5303 L 16655,5303 16655,6379 16203,6379 16203,5303 Z M 16212,5324 L 16646,5324 16646,6358 16212,6358 16212,5324 Z"/>
             <path fill="rgb(204,204,204)" stroke="none" d="M 16212,5324 L 16646,5324 16646,6358 16212,6358 16212,5324 Z M 16220,5344 L 16638,5344 16638,6338 16220,6338 16220,5344 Z"/>
             <path fill="rgb(205,205,205)" stroke="none" d="M 16220,5344 L 16638,5344 16638,6338 16220,6338 16220,5344 Z M 16229,5365 L 16629,5365 16629,6317 16229,6317 16229,5365 Z"/>
             <path fill="rgb(206,206,206)" stroke="none" d="M 16229,5365 L 16629,5365 16629,6317 16229,6317 16229,5365 Z M 16238,5386 L 16620,5386 16620,6296 16238,6296 16238,5386 Z"/>
             <path fill="rgb(207,207,207)" stroke="none" d="M 16238,5386 L 16620,5386 16620,6296 16238,6296 16238,5386 Z M 16246,5406 L 16612,5406 16612,6276 16246,6276 16246,5406 Z"/>
             <path fill="rgb(208,208,208)" stroke="none" d="M 16246,5406 L 16612,5406 16612,6276 16246,6276 16246,5406 Z M 16255,5427 L 16603,5427 16603,6255 16255,6255 16255,5427 Z"/>
             <path fill="rgb(209,209,209)" stroke="none" d="M 16255,5427 L 16603,5427 16603,6255 16255,6255 16255,5427 Z M 16264,5448 L 16594,5448 16594,6234 16264,6234 16264,5448 Z"/>
             <path fill="rgb(210,210,210)" stroke="none" d="M 16264,5448 L 16594,5448 16594,6234 16264,6234 16264,5448 Z M 16273,5469 L 16585,5469 16585,6213 16273,6213 16273,5469 Z"/>
             <path fill="rgb(211,211,211)" stroke="none" d="M 16273,5469 L 16585,5469 16585,6213 16273,6213 16273,5469 Z M 16281,5489 L 16577,5489 16577,6193 16281,6193 16281,5489 Z"/>
             <path fill="rgb(212,212,212)" stroke="none" d="M 16281,5489 L 16577,5489 16577,6193 16281,6193 16281,5489 Z M 16290,5510 L 16568,5510 16568,6172 16290,6172 16290,5510 Z"/>
             <path fill="rgb(213,213,213)" stroke="none" d="M 16290,5510 L 16568,5510 16568,6172 16290,6172 16290,5510 Z M 16299,5531 L 16559,5531 16559,6151 16299,6151 16299,5531 Z"/>
             <path fill="rgb(214,214,214)" stroke="none" d="M 16299,5531 L 16559,5531 16559,6151 16299,6151 16299,5531 Z M 16307,5551 L 16551,5551 16551,6131 16307,6131 16307,5551 Z"/>
             <path fill="rgb(215,215,215)" stroke="none" d="M 16307,5551 L 16551,5551 16551,6131 16307,6131 16307,5551 Z M 16316,5572 L 16542,5572 16542,6110 16316,6110 16316,5572 Z"/>
             <path fill="rgb(216,216,216)" stroke="none" d="M 16316,5572 L 16542,5572 16542,6110 16316,6110 16316,5572 Z M 16325,5593 L 16533,5593 16533,6089 16325,6089 16325,5593 Z"/>
             <path fill="rgb(217,217,217)" stroke="none" d="M 16325,5593 L 16533,5593 16533,6089 16325,6089 16325,5593 Z M 16334,5614 L 16524,5614 16524,6068 16334,6068 16334,5614 Z"/>
             <path fill="rgb(218,218,218)" stroke="none" d="M 16334,5614 L 16524,5614 16524,6068 16334,6068 16334,5614 Z M 16342,5634 L 16516,5634 16516,6048 16342,6048 16342,5634 Z"/>
             <path fill="rgb(219,219,219)" stroke="none" d="M 16342,5634 L 16516,5634 16516,6048 16342,6048 16342,5634 Z M 16351,5655 L 16507,5655 16507,6027 16351,6027 16351,5655 Z"/>
             <path fill="rgb(220,220,220)" stroke="none" d="M 16351,5655 L 16507,5655 16507,6027 16351,6027 16351,5655 Z M 16360,5676 L 16498,5676 16498,6006 16360,6006 16360,5676 Z"/>
             <path fill="rgb(221,221,221)" stroke="none" d="M 16360,5676 L 16498,5676 16498,6006 16360,6006 16360,5676 Z M 16368,5696 L 16490,5696 16490,5986 16368,5986 16368,5696 Z"/>
             <path fill="rgb(222,222,222)" stroke="none" d="M 16368,5696 L 16490,5696 16490,5986 16368,5986 16368,5696 Z M 16377,5717 L 16481,5717 16481,5965 16377,5965 16377,5717 Z"/>
             <path fill="rgb(223,223,223)" stroke="none" d="M 16377,5717 L 16481,5717 16481,5965 16377,5965 16377,5717 Z M 16386,5738 L 16472,5738 16472,5944 16386,5944 16386,5738 Z"/>
             <path fill="rgb(224,224,224)" stroke="none" d="M 16386,5738 L 16472,5738 16472,5944 16386,5944 16386,5738 Z M 16395,5759 L 16463,5759 16463,5923 16395,5923 16395,5759 Z"/>
             <path fill="rgb(225,225,225)" stroke="none" d="M 16395,5759 L 16463,5759 16463,5923 16395,5923 16395,5759 Z M 16403,5779 L 16455,5779 16455,5903 16403,5903 16403,5779 Z"/>
             <path fill="rgb(226,226,226)" stroke="none" d="M 16403,5779 L 16455,5779 16455,5903 16403,5903 16403,5779 Z M 16412,5800 L 16446,5800 16446,5882 16412,5882 16412,5800 Z"/>
             <path fill="rgb(227,227,227)" stroke="none" d="M 16412,5800 L 16446,5800 16446,5882 16412,5882 16412,5800 Z M 16421,5821 L 16437,5821 16437,5861 16421,5861 16421,5821 Z"/>
             <path fill="rgb(229,229,229)" stroke="none" d="M 16421,5821 L 16437,5821 16437,5861 16421,5861 16421,5821 Z"/>
            </g>
           </g>
          </pattern>
         </defs>
         <path style="fill:url(#pattern4)" d="M 16170,7291 L 16170,5739 17039,5222 17039,6773 16170,7291 Z"/>
        </g>
        <path fill="none" stroke="rgb(255,255,255)" stroke-width="27" stroke-linejoin="round" d="M 16170,7291 L 16170,5739 17039,5222 17039,6773 16170,7291 Z"/>
        <g>
         <defs>
          <linearGradient id="gradient7" x1="16387" y1="4964" x2="16387" y2="5739" gradientUnits="userSpaceOnUse">
           <stop offset="0.1" style="stop-color:rgb(179,179,179)"/>
           <stop offset="1" style="stop-color:rgb(229,229,229)"/>
          </linearGradient>
         </defs>
         <path style="fill:url(#gradient7)" d="M 16170,5739 L 15735,5481 16605,4964 17039,5222 16170,5739 Z"/>
        </g>
        <path fill="none" stroke="rgb(255,255,255)" stroke-width="27" stroke-linejoin="round" d="M 16170,5739 L 15735,5481 16605,4964 17039,5222 16170,5739 Z"/>
        <g>
         <defs>
          <linearGradient id="gradient8" x1="15952" y1="7291" x2="15952" y2="5481" gradientUnits="userSpaceOnUse">
           <stop offset="0.1" style="stop-color:rgb(179,179,179)"/>
           <stop offset="1" style="stop-color:rgb(229,229,229)"/>
          </linearGradient>
         </defs>
         <path style="fill:url(#gradient8)" d="M 15735,7032 L 15735,5481 16170,5739 16170,7291 15735,7032 Z"/>
        </g>
        <path fill="none" stroke="rgb(255,255,255)" stroke-width="27" stroke-linejoin="round" d="M 15735,7032 L 15735,5481 16170,5739 16170,7291 15735,7032 Z"/>
        <path fill="none" stroke="rgb(0,0,0)" stroke-width="27" stroke-linejoin="round" d="M 15735,7032 L 15735,5481 16605,4964 17039,5222 17039,6773 16170,7291 15735,7032 Z"/>
        <path fill="rgb(127,127,127)" stroke="none" d="M 15822,6929 L 15822,6773 15909,6825 15909,6981 15822,6929 Z"/>
        <path fill="none" stroke="rgb(0,0,0)" stroke-width="27" stroke-linejoin="round" d="M 15822,6929 L 15822,6773 15909,6825 15909,6981 15822,6929 Z"/>
        <path fill="rgb(127,127,127)" stroke="none" d="M 15996,7032 L 15996,6877 16083,6929 16083,7084 15996,7032 Z"/>
        <path fill="none" stroke="rgb(0,0,0)" stroke-width="27" stroke-linejoin="round" d="M 15996,7032 L 15996,6877 16083,6929 16083,7084 15996,7032 Z"/>
        <path fill="rgb(127,127,127)" stroke="none" d="M 15822,6670 L 15822,6515 15909,6567 15909,6722 15822,6670 Z"/>
        <path fill="none" stroke="rgb(0,0,0)" stroke-width="27" stroke-linejoin="round" d="M 15822,6670 L 15822,6515 15909,6567 15909,6722 15822,6670 Z"/>
        <path fill="rgb(127,127,127)" stroke="none" d="M 15996,6773 L 15996,6618 16083,6670 16083,6825 15996,6773 Z"/>
        <path fill="none" stroke="rgb(0,0,0)" stroke-width="27" stroke-linejoin="round" d="M 15996,6773 L 15996,6618 16083,6670 16083,6825 15996,6773 Z"/>
        <path fill="rgb(127,127,127)" stroke="none" d="M 15996,6515 L 15996,6360 16083,6412 16083,6567 15996,6515 Z"/>
        <path fill="none" stroke="rgb(0,0,0)" stroke-width="27" stroke-linejoin="round" d="M 15996,6515 L 15996,6360 16083,6412 16083,6567 15996,6515 Z"/>
        <path fill="rgb(127,127,127)" stroke="none" d="M 15822,6412 L 15822,6257 15909,6309 15909,6464 15822,6412 Z"/>
        <path fill="none" stroke="rgb(0,0,0)" stroke-width="27" stroke-linejoin="round" d="M 15822,6412 L 15822,6257 15909,6309 15909,6464 15822,6412 Z"/>
        <path fill="rgb(127,127,127)" stroke="none" d="M 15996,6257 L 15996,6102 16083,6154 16083,6309 15996,6257 Z"/>
        <path fill="none" stroke="rgb(0,0,0)" stroke-width="27" stroke-linejoin="round" d="M 15996,6257 L 15996,6102 16083,6154 16083,6309 15996,6257 Z"/>
        <path fill="rgb(127,127,127)" stroke="none" d="M 15822,6153 L 15822,5998 15909,6050 15909,6205 15822,6153 Z"/>
        <path fill="none" stroke="rgb(0,0,0)" stroke-width="27" stroke-linejoin="round" d="M 15822,6153 L 15822,5998 15909,6050 15909,6205 15822,6153 Z"/>
        <path fill="rgb(153,255,102)" stroke="none" d="M 15822,5843 L 15822,5688 15909,5739 15909,5895 15822,5843 Z"/>
        <path fill="none" stroke="rgb(51,51,51)" stroke-width="27" stroke-linejoin="round" d="M 15822,5843 L 15822,5688 15909,5739 15909,5895 15822,5843 Z"/>
       </g>
      </g>
      <g class="com.sun.star.drawing.LineShape">
       <g id="id21">
        <rect class="BoundingBox" stroke="none" fill="none" x="6749" y="6499" width="9003" height="3"/>
        <path fill="none" stroke="rgb(52,101,164)" d="M 6750,6500 L 15750,6500"/>
       </g>
      </g>
      <g class="com.sun.star.drawing.LineShape">
       <g id="id22">
        <rect class="BoundingBox" stroke="none" fill="none" x="12499" y="6199" width="3253" height="53"/>
        <path fill="none" stroke="rgb(52,101,164)" d="M 12500,6250 L 15750,6200"/>
       </g>
      </g>
      <g class="com.sun.star.drawing.LineShape">
       <g id="id23">
        <rect class="BoundingBox" stroke="none" fill="none" x="999" y="6749" width="14753" height="53"/>
        <path fill="none" stroke="rgb(52,101,164)" d="M 1000,6750 L 15750,6800"/>
       </g>
      </g>
      <g class="com.sun.star.drawing.LineShape">
       <g id="id24">
        <rect class="BoundingBox" stroke="none" fill="none" x="999" y="5249" width="3" height="1503"/>
        <path fill="none" stroke="rgb(52,101,164)" d="M 1000,6750 L 1000,5250"/>
       </g>
      </g>
      <g class="com.sun.star.drawing.LineShape">
       <g id="id25">
        <rect class="BoundingBox" stroke="none" fill="none" x="12499" y="5499" width="3" height="753"/>
        <path fill="none" stroke="rgb(52,101,164)" d="M 12500,6250 L 12500,5500"/>
       </g>
      </g>
      <g class="com.sun.star.drawing.LineShape">
       <g id="id26">
        <rect class="BoundingBox" stroke="none" fill="none" x="6749" y="5399" width="3" height="1103"/>
        <path fill="none" stroke="rgb(52,101,164)" d="M 6750,6500 L 6750,5400"/>
       </g>
      </g>
      <g class="TextShape">
       <g id="id27">
        <rect class="BoundingBox" stroke="none" fill="none" x="15832" y="4400" width="1519" height="726"/>
        <text class="SVGTextShape"><tspan class="TextParagraph" font-family="Liberation Sans, sans-serif" font-size="423px" font-weight="400"><tspan class="TextPosition" x="16082" y="4910"><tspan fill="rgb(0,0,0)" stroke="none" style="white-space: pre">Rede</tspan></tspan></tspan></text>
       </g>
      </g>
      <g class="Graphic">
       <g id="id28">
        <rect class="BoundingBox" stroke="none" fill="none" x="12341" y="5741" width="318" height="318"/>
        <defs>
         <clipPath id="clip_path_5" clipPathUnits="userSpaceOnUse">
          <path d="M 12645,5973 L 12572,5900 12645,5826 12573,5754 12499,5827 12426,5754 12354,5826 12427,5900 12354,5973 12426,6045 12499,5972 12573,6045 12645,5973 Z"/>
         </clipPath>
        </defs>
        <g clip-path="url(#clip_path_5)">
         <path fill="rgb(249,85,7)" stroke="none" d="M 12428,5628 L 12442,5640 12235,5880 12221,5868 12428,5628 Z"/>
         <path fill="rgb(248,84,7)" stroke="none" d="M 12434,5634 L 12448,5646 12241,5885 12227,5873 12434,5634 Z"/>
         <path fill="rgb(248,83,7)" stroke="none" d="M 12440,5639 L 12454,5651 12247,5890 12233,5878 12440,5639 Z"/>
         <path fill="rgb(247,81,7)" stroke="none" d="M 12446,5644 L 12460,5656 12253,5896 12239,5883 12446,5644 Z"/>
         <path fill="rgb(246,80,8)" stroke="none" d="M 12452,5649 L 12466,5661 12259,5901 12245,5889 12452,5649 Z"/>
         <path fill="rgb(246,79,8)" stroke="none" d="M 12458,5654 L 12472,5666 12265,5906 12251,5894 12458,5654 Z"/>
         <path fill="rgb(245,78,8)" stroke="none" d="M 12464,5659 L 12478,5672 12271,5911 12257,5899 12464,5659 Z"/>
         <path fill="rgb(244,77,8)" stroke="none" d="M 12470,5665 L 12484,5677 12277,5916 12263,5904 12470,5665 Z"/>
         <path fill="rgb(244,76,8)" stroke="none" d="M 12476,5670 L 12490,5682 12283,5921 12269,5909 12476,5670 Z"/>
         <path fill="rgb(243,74,8)" stroke="none" d="M 12482,5675 L 12496,5687 12289,5927 12275,5915 12482,5675 Z"/>
         <path fill="rgb(243,73,9)" stroke="none" d="M 12488,5680 L 12502,5692 12295,5932 12281,5920 12488,5680 Z"/>
         <path fill="rgb(242,72,9)" stroke="none" d="M 12494,5685 L 12508,5698 12301,5937 12287,5925 12494,5685 Z"/>
         <path fill="rgb(241,71,9)" stroke="none" d="M 12500,5691 L 12514,5703 12307,5942 12293,5930 12500,5691 Z"/>
         <path fill="rgb(241,70,9)" stroke="none" d="M 12506,5696 L 12520,5708 12313,5947 12299,5935 12506,5696 Z"/>
         <path fill="rgb(240,68,9)" stroke="none" d="M 12512,5701 L 12526,5713 12319,5953 12305,5941 12512,5701 Z"/>
         <path fill="rgb(239,67,9)" stroke="none" d="M 12518,5706 L 12532,5718 12325,5958 12311,5946 12518,5706 Z"/>
         <path fill="rgb(239,66,10)" stroke="none" d="M 12524,5711 L 12538,5723 12331,5963 12317,5951 12524,5711 Z"/>
         <path fill="rgb(238,65,10)" stroke="none" d="M 12530,5717 L 12544,5729 12337,5968 12323,5956 12530,5717 Z"/>
         <path fill="rgb(237,64,10)" stroke="none" d="M 12536,5722 L 12550,5734 12343,5973 12329,5961 12536,5722 Z"/>
         <path fill="rgb(237,62,10)" stroke="none" d="M 12542,5727 L 12556,5739 12349,5979 12335,5966 12542,5727 Z"/>
         <path fill="rgb(236,61,10)" stroke="none" d="M 12548,5732 L 12562,5744 12355,5984 12341,5972 12548,5732 Z"/>
         <path fill="rgb(235,60,10)" stroke="none" d="M 12554,5737 L 12568,5749 12361,5989 12347,5977 12554,5737 Z"/>
         <path fill="rgb(235,59,10)" stroke="none" d="M 12560,5742 L 12574,5755 12367,5994 12353,5982 12560,5742 Z"/>
         <path fill="rgb(234,58,11)" stroke="none" d="M 12566,5748 L 12580,5760 12373,5999 12359,5987 12566,5748 Z"/>
         <path fill="rgb(234,57,11)" stroke="none" d="M 12572,5753 L 12586,5765 12379,6005 12365,5992 12572,5753 Z"/>
         <path fill="rgb(233,55,11)" stroke="none" d="M 12578,5758 L 12592,5770 12385,6010 12371,5998 12578,5758 Z"/>
         <path fill="rgb(232,54,11)" stroke="none" d="M 12584,5763 L 12598,5775 12391,6015 12377,6003 12584,5763 Z"/>
         <path fill="rgb(232,53,11)" stroke="none" d="M 12590,5768 L 12604,5781 12397,6020 12383,6008 12590,5768 Z"/>
         <path fill="rgb(231,52,11)" stroke="none" d="M 12596,5774 L 12610,5786 12403,6025 12389,6013 12596,5774 Z"/>
         <path fill="rgb(230,51,12)" stroke="none" d="M 12602,5779 L 12616,5791 12409,6030 12395,6018 12602,5779 Z"/>
         <path fill="rgb(230,49,12)" stroke="none" d="M 12608,5784 L 12622,5796 12415,6036 12401,6024 12608,5784 Z"/>
         <path fill="rgb(229,48,12)" stroke="none" d="M 12614,5789 L 12628,5801 12421,6041 12407,6029 12614,5789 Z"/>
         <path fill="rgb(228,47,12)" stroke="none" d="M 12620,5794 L 12634,5807 12427,6046 12413,6034 12620,5794 Z"/>
         <path fill="rgb(228,46,12)" stroke="none" d="M 12626,5800 L 12640,5812 12433,6051 12419,6039 12626,5800 Z"/>
         <path fill="rgb(227,45,12)" stroke="none" d="M 12632,5805 L 12646,5817 12439,6056 12425,6044 12632,5805 Z"/>
         <path fill="rgb(227,43,13)" stroke="none" d="M 12638,5810 L 12652,5822 12445,6062 12431,6049 12638,5810 Z"/>
         <path fill="rgb(226,42,13)" stroke="none" d="M 12644,5815 L 12658,5827 12451,6067 12437,6055 12644,5815 Z"/>
         <path fill="rgb(225,41,13)" stroke="none" d="M 12650,5820 L 12664,5832 12457,6072 12443,6060 12650,5820 Z"/>
         <path fill="rgb(225,40,13)" stroke="none" d="M 12656,5826 L 12670,5838 12463,6077 12449,6065 12656,5826 Z"/>
         <path fill="rgb(224,39,13)" stroke="none" d="M 12662,5831 L 12676,5843 12469,6082 12455,6070 12662,5831 Z"/>
         <path fill="rgb(223,38,13)" stroke="none" d="M 12668,5836 L 12682,5848 12475,6088 12461,6075 12668,5836 Z"/>
         <path fill="rgb(223,36,13)" stroke="none" d="M 12674,5841 L 12688,5853 12481,6093 12467,6081 12674,5841 Z"/>
         <path fill="rgb(222,35,14)" stroke="none" d="M 12680,5846 L 12694,5858 12487,6098 12473,6086 12680,5846 Z"/>
         <path fill="rgb(221,34,14)" stroke="none" d="M 12686,5851 L 12700,5864 12493,6103 12479,6091 12686,5851 Z"/>
         <path fill="rgb(221,33,14)" stroke="none" d="M 12692,5857 L 12706,5869 12499,6108 12485,6096 12692,5857 Z"/>
         <path fill="rgb(220,32,14)" stroke="none" d="M 12698,5862 L 12712,5874 12505,6114 12491,6101 12698,5862 Z"/>
         <path fill="rgb(219,30,14)" stroke="none" d="M 12704,5867 L 12718,5879 12511,6119 12497,6107 12704,5867 Z"/>
         <path fill="rgb(219,29,14)" stroke="none" d="M 12710,5872 L 12724,5884 12517,6124 12503,6112 12710,5872 Z"/>
         <path fill="rgb(218,28,15)" stroke="none" d="M 12716,5877 L 12730,5890 12523,6129 12509,6117 12716,5877 Z"/>
         <path fill="rgb(218,27,15)" stroke="none" d="M 12722,5883 L 12736,5895 12529,6134 12515,6122 12722,5883 Z"/>
         <path fill="rgb(217,26,15)" stroke="none" d="M 12728,5888 L 12742,5900 12535,6139 12521,6127 12728,5888 Z"/>
         <path fill="rgb(216,25,15)" stroke="none" d="M 12734,5893 L 12748,5905 12541,6145 12527,6133 12734,5893 Z"/>
         <path fill="rgb(216,23,15)" stroke="none" d="M 12740,5898 L 12754,5910 12547,6150 12533,6138 12740,5898 Z"/>
         <path fill="rgb(215,22,15)" stroke="none" d="M 12746,5903 L 12760,5916 12553,6155 12539,6143 12746,5903 Z"/>
         <path fill="rgb(214,21,15)" stroke="none" d="M 12752,5909 L 12766,5921 12559,6160 12545,6148 12752,5909 Z"/>
         <path fill="rgb(214,20,16)" stroke="none" d="M 12758,5914 L 12772,5926 12565,6165 12551,6153 12758,5914 Z"/>
         <path fill="rgb(213,19,16)" stroke="none" d="M 12764,5919 L 12778,5931 12571,6171 12557,6158 12764,5919 Z"/>
         <path fill="rgb(212,17,16)" stroke="none" d="M 12770,5924 L 12784,5936 12577,6176 12563,6164 12770,5924 Z"/>
         <path fill="rgb(212,16,16)" stroke="none" d="M 12776,5929 L 12790,5941 12583,6181 12569,6169 12776,5929 Z"/>
         <path fill="rgb(211,15,16)" stroke="none" d="M 12782,5935 L 12796,5947 12589,6186 12575,6174 12782,5935 Z"/>
         <path fill="rgb(210,14,16)" stroke="none" d="M 12788,5940 L 12802,5952 12595,6191 12581,6179 12788,5940 Z"/>
         <path fill="rgb(210,13,17)" stroke="none" d="M 12794,5945 L 12808,5957 12601,6197 12587,6184 12794,5945 Z"/>
         <path fill="rgb(209,11,17)" stroke="none" d="M 12800,5950 L 12814,5962 12607,6202 12593,6190 12800,5950 Z"/>
         <path fill="rgb(209,10,17)" stroke="none" d="M 12806,5955 L 12820,5967 12613,6207 12599,6195 12806,5955 Z"/>
         <path fill="rgb(208,9,17)" stroke="none" d="M 12812,5960 L 12826,5973 12619,6212 12605,6200 12812,5960 Z"/>
         <path fill="rgb(207,8,17)" stroke="none" d="M 12818,5966 L 12832,5978 12625,6217 12611,6205 12818,5966 Z"/>
         <path fill="rgb(207,7,17)" stroke="none" d="M 12824,5971 L 12838,5983 12631,6223 12617,6210 12824,5971 Z"/>
         <path fill="rgb(206,6,18)" stroke="none" d="M 12830,5976 L 12844,5988 12637,6228 12623,6216 12830,5976 Z"/>
         <path fill="rgb(205,4,18)" stroke="none" d="M 12836,5981 L 12850,5993 12643,6233 12629,6221 12836,5981 Z"/>
         <path fill="rgb(205,3,18)" stroke="none" d="M 12842,5986 L 12856,5999 12649,6238 12635,6226 12842,5986 Z"/>
        </g>
       </g>
      </g>
     </g>
    </g>
   </g>
  </g>
 </g>
</svg>