<?xml version="1.0" encoding="UTF-8"?>
<!DOCTYPE svg PUBLIC "-//W3C//DTD SVG 1.1//EN" "http://www.w3.org/Graphics/SVG/1.1/DTD/svg11.dtd">
<svg version="1.2" width="175mm" height="55mm" viewBox="0 0 17500 5500" preserveAspectRatio="xMidYMid" fill-rule="evenodd" stroke-width="28.222" stroke-linejoin="round" xmlns="http://www.w3.org/2000/svg" xmlns:ooo="http://xml.openoffice.org/svg/export" xmlns:xlink="http://www.w3.org/1999/xlink" xmlns:presentation="http://sun.com/xmlns/staroffice/presentation" xmlns:smil="http://www.w3.org/2001/SMIL20/" xmlns:anim="urn:oasis:names:tc:opendocument:xmlns:animation:1.0" xmlns:svg="urn:oasis:names:tc:opendocument:xmlns:svg-compatible:1.0" xml:space="preserve">
 <defs class="ClipPathGroup">
  <clipPath id="presentation_clip_path" clipPathUnits="userSpaceOnUse">
   <rect x="0" y="0" width="17500" height="5500"/>
  </clipPath>
  <clipPath id="presentation_clip_path_shrink" clipPathUnits="userSpaceOnUse">
   <rect x="17" y="5" width="17465" height="5489"/>
  </clipPath>
 </defs>
 <defs>
  <font id="EmbeddedFont_1" horiz-adv-x="2048">
   <font-face font-family="Liberation Sans embedded" units-per-em="2048" font-weight="normal" font-style="normal" ascent="1852" descent="423"/>
   <missing-glyph horiz-adv-x="2048" d="M 0,0 L 2047,0 2047,2047 0,2047 0,0 Z"/>
   <glyph unicode="ó" horiz-adv-x="980" d="M 1053,542 C 1053,353 1011,212 928,119 845,26 724,-20 565,-20 407,-20 288,28 207,125 126,221 86,360 86,542 86,915 248,1102 571,1102 736,1102 858,1057 936,966 1014,875 1053,733 1053,542 Z M 864,542 C 864,691 842,800 798,868 753,935 679,969 574,969 469,969 393,935 346,866 299,797 275,689 275,542 275,399 298,292 345,221 391,149 464,113 563,113 671,113 748,148 795,217 841,286 864,395 864,542 Z M 431,1201 L 431,1221 648,1508 855,1508 855,1479 525,1201 431,1201 Z"/>
   <glyph unicode="â" horiz-adv-x="1060" d="M 414,-20 C 305,-20 224,9 169,66 114,123 87,202 87,302 87,414 124,500 198,560 271,620 390,652 554,656 L 797,660 797,719 C 797,807 778,870 741,908 704,946 645,965 565,965 484,965 426,951 389,924 352,897 330,853 323,793 L 135,810 C 166,1005 310,1102 569,1102 705,1102 807,1071 876,1009 945,946 979,856 979,738 L 979,272 C 979,219 986,179 1000,152 1014,125 1041,111 1080,111 1097,111 1117,113 1139,118 L 1139,6 C 1094,-5 1047,-10 1000,-10 933,-10 885,8 855,43 824,78 807,132 803,207 L 797,207 C 751,124 698,66 637,32 576,-3 501,-20 414,-20 Z M 455,115 C 521,115 580,130 631,160 682,190 723,231 753,284 782,336 797,390 797,445 L 797,534 600,530 C 515,529 451,520 408,504 364,488 330,463 307,430 284,397 272,353 272,299 272,240 288,195 320,163 351,131 396,115 455,115 Z M 880,1221 L 880,1201 775,1201 556,1370 554,1370 322,1201 218,1201 218,1221 452,1491 656,1491 880,1221 Z"/>
   <glyph unicode="w" horiz-adv-x="1509" d="M 1174,0 L 965,0 776,765 740,934 C 734,904 725,861 712,805 699,748 631,480 508,0 L 300,0 -3,1082 175,1082 358,347 C 363,331 377,265 401,149 L 418,223 644,1082 837,1082 1026,339 1072,149 1103,288 1308,1082 1484,1082 1174,0 Z"/>
   <glyph unicode="v" horiz-adv-x="1033" d="M 613,0 L 400,0 7,1082 199,1082 437,378 C 446,351 469,272 506,141 L 541,258 580,376 826,1082 1017,1082 613,0 Z"/>
   <glyph unicode="u" horiz-adv-x="874" d="M 314,1082 L 314,396 C 314,325 321,269 335,230 349,191 371,162 402,145 433,128 478,119 537,119 624,119 692,149 742,208 792,267 817,350 817,455 L 817,1082 997,1082 997,231 C 997,105 999,28 1003,0 L 833,0 C 832,3 832,12 831,27 830,42 830,59 829,78 828,97 826,132 825,185 L 822,185 C 781,110 733,58 679,27 624,-4 557,-20 476,-20 357,-20 271,10 216,69 161,128 133,225 133,361 L 133,1082 314,1082 Z"/>
   <glyph unicode="t" horiz-adv-x="531" d="M 554,8 C 495,-8 434,-16 372,-16 228,-16 156,66 156,229 L 156,951 31,951 31,1082 163,1082 216,1324 336,1324 336,1082 536,1082 536,951 336,951 336,268 C 336,216 345,180 362,159 379,138 408,127 450,127 474,127 509,132 554,141 L 554,8 Z"/>
   <glyph unicode="s" horiz-adv-x="901" d="M 950,299 C 950,197 912,118 835,63 758,8 650,-20 511,-20 376,-20 273,2 200,47 127,91 79,160 57,254 L 216,285 C 231,227 263,185 311,158 359,131 426,117 511,117 602,117 669,131 712,159 754,187 775,229 775,285 775,328 760,362 731,389 702,416 654,438 589,455 L 460,489 C 357,516 283,542 240,568 196,593 162,624 137,661 112,698 100,743 100,796 100,895 135,970 206,1022 276,1073 378,1099 513,1099 632,1099 727,1078 798,1036 868,994 912,927 931,834 L 769,814 C 759,862 732,899 689,925 645,950 586,963 513,963 432,963 372,951 333,926 294,901 275,864 275,814 275,783 283,758 299,738 315,718 339,701 370,687 401,673 467,654 568,629 663,605 732,583 774,563 816,542 849,520 874,495 898,470 917,442 930,410 943,377 950,340 950,299 Z"/>
   <glyph unicode="r" horiz-adv-x="530" d="M 142,0 L 142,830 C 142,906 140,990 136,1082 L 306,1082 C 311,959 314,886 314,861 L 318,861 C 347,954 380,1017 417,1051 454,1085 507,1102 575,1102 599,1102 623,1099 648,1092 L 648,927 C 624,934 592,937 552,937 477,937 420,905 381,841 342,776 322,684 322,564 L 322,0 142,0 Z"/>
   <glyph unicode="q" horiz-adv-x="927" d="M 484,-20 C 347,-20 246,26 182,119 118,212 86,351 86,536 86,913 219,1102 484,1102 566,1102 634,1088 687,1059 740,1030 785,981 821,914 L 823,914 C 823,934 824,969 827,1018 830,1067 832,1093 835,1096 L 1008,1096 C 1003,1057 1001,958 1001,801 L 1001,-425 821,-425 821,14 825,178 823,178 C 787,107 743,56 690,26 637,-5 569,-20 484,-20 Z M 821,554 C 821,695 798,799 752,867 706,935 633,969 532,969 441,969 375,935 335,867 295,799 275,691 275,542 275,391 295,282 336,217 376,152 441,119 530,119 632,119 706,155 752,228 798,301 821,409 821,554 Z"/>
   <glyph unicode="p" horiz-adv-x="953" d="M 1053,546 C 1053,169 920,-20 655,-20 488,-20 376,43 319,168 L 314,168 C 317,163 318,106 318,-2 L 318,-425 138,-425 138,861 C 138,972 136,1046 132,1082 L 306,1082 C 307,1079 308,1070 309,1054 310,1037 312,1012 314,978 315,944 316,921 316,908 L 320,908 C 352,975 394,1024 447,1055 500,1086 569,1101 655,1101 788,1101 888,1056 954,967 1020,878 1053,737 1053,546 Z M 864,542 C 864,693 844,800 803,865 762,930 698,962 609,962 538,962 482,947 442,917 401,887 371,840 350,777 329,713 318,630 318,528 318,386 341,281 386,214 431,147 505,113 607,113 696,113 762,146 803,212 844,277 864,387 864,542 Z"/>
   <glyph unicode="o" horiz-adv-x="980" d="M 1053,542 C 1053,353 1011,212 928,119 845,26 724,-20 565,-20 407,-20 288,28 207,125 126,221 86,360 86,542 86,915 248,1102 571,1102 736,1102 858,1057 936,966 1014,875 1053,733 1053,542 Z M 864,542 C 864,691 842,800 798,868 753,935 679,969 574,969 469,969 393,935 346,866 299,797 275,689 275,542 275,399 298,292 345,221 391,149 464,113 563,113 671,113 748,148 795,217 841,286 864,395 864,542 Z"/>
   <glyph unicode="n" horiz-adv-x="874" d="M 825,0 L 825,686 C 825,757 818,813 804,852 790,891 768,920 737,937 706,954 661,963 602,963 515,963 447,933 397,874 347,815 322,732 322,627 L 322,0 142,0 142,851 C 142,977 140,1054 136,1082 L 306,1082 C 307,1079 307,1070 308,1055 309,1040 310,1024 311,1005 312,986 313,950 314,897 L 317,897 C 358,972 406,1025 461,1056 515,1087 582,1102 663,1102 782,1102 869,1073 924,1014 979,955 1006,857 1006,721 L 1006,0 825,0 Z"/>
   <glyph unicode="m" horiz-adv-x="1457" d="M 768,0 L 768,686 C 768,791 754,863 725,903 696,943 645,963 570,963 493,963 433,934 388,875 343,816 321,734 321,627 L 321,0 142,0 142,851 C 142,977 140,1054 136,1082 L 306,1082 C 307,1079 307,1070 308,1055 309,1040 310,1024 311,1005 312,986 313,950 314,897 L 317,897 C 356,974 400,1027 450,1057 500,1087 561,1102 633,1102 715,1102 780,1086 828,1053 875,1020 908,968 927,897 L 930,897 C 967,970 1013,1022 1066,1054 1119,1086 1183,1102 1258,1102 1367,1102 1447,1072 1497,1013 1546,954 1571,856 1571,721 L 1571,0 1393,0 1393,686 C 1393,791 1379,863 1350,903 1321,943 1270,963 1195,963 1116,963 1055,934 1012,876 968,817 946,734 946,627 L 946,0 768,0 Z"/>
   <glyph unicode="l" horiz-adv-x="187" d="M 138,0 L 138,1484 318,1484 318,0 138,0 Z"/>
   <glyph unicode="i" horiz-adv-x="187" d="M 137,1312 L 137,1484 317,1484 317,1312 137,1312 Z M 137,0 L 137,1082 317,1082 317,0 137,0 Z"/>
   <glyph unicode="h" horiz-adv-x="874" d="M 317,897 C 356,968 402,1020 457,1053 511,1086 580,1102 663,1102 780,1102 867,1073 923,1015 978,956 1006,858 1006,721 L 1006,0 825,0 825,686 C 825,762 818,819 804,856 790,893 767,920 735,937 703,954 659,963 602,963 517,963 450,934 399,875 348,816 322,737 322,638 L 322,0 142,0 142,1484 322,1484 322,1098 C 322,1057 321,1015 319,972 316,929 315,904 314,897 L 317,897 Z"/>
   <glyph unicode="g" horiz-adv-x="927" d="M 548,-425 C 430,-425 336,-402 266,-356 196,-309 151,-243 131,-158 L 312,-132 C 324,-182 351,-220 392,-248 433,-274 486,-288 553,-288 732,-288 822,-183 822,27 L 822,201 820,201 C 786,132 739,80 680,45 621,10 551,-8 472,-8 339,-8 242,36 180,124 117,212 86,350 86,539 86,730 120,872 187,963 254,1054 355,1099 492,1099 569,1099 635,1082 692,1047 748,1012 791,962 822,897 L 824,897 C 824,917 825,952 828,1001 831,1050 833,1077 836,1082 L 1007,1082 C 1003,1046 1001,971 1001,858 L 1001,31 C 1001,-273 850,-425 548,-425 Z M 822,541 C 822,629 810,705 786,769 762,832 728,881 685,915 641,948 591,965 536,965 444,965 377,932 335,865 293,798 272,690 272,541 272,393 292,287 331,222 370,157 438,125 533,125 590,125 640,142 684,175 728,208 762,256 786,319 810,381 822,455 822,541 Z"/>
   <glyph unicode="e" horiz-adv-x="980" d="M 276,503 C 276,379 302,283 353,216 404,149 479,115 578,115 656,115 719,131 766,162 813,193 844,233 861,281 L 1019,236 C 954,65 807,-20 578,-20 418,-20 296,28 213,123 129,218 87,360 87,548 87,727 129,864 213,959 296,1054 416,1102 571,1102 889,1102 1048,910 1048,527 L 1048,503 276,503 Z M 862,641 C 852,755 823,838 775,891 727,943 658,969 568,969 481,969 412,940 361,882 310,823 282,743 278,641 L 862,641 Z"/>
   <glyph unicode="d" horiz-adv-x="927" d="M 821,174 C 788,105 744,55 689,25 634,-5 565,-20 484,-20 347,-20 247,26 183,118 118,210 86,349 86,536 86,913 219,1102 484,1102 566,1102 634,1087 689,1057 744,1027 788,979 821,914 L 823,914 821,1035 821,1484 1001,1484 1001,223 C 1001,110 1003,36 1007,0 L 835,0 C 833,11 831,35 829,74 826,113 825,146 825,174 L 821,174 Z M 275,542 C 275,391 295,282 335,217 375,152 440,119 530,119 632,119 706,154 752,225 798,296 821,405 821,554 821,697 798,802 752,869 706,936 633,969 532,969 441,969 376,936 336,869 295,802 275,693 275,542 Z"/>
   <glyph unicode="c" horiz-adv-x="901" d="M 275,546 C 275,402 298,295 343,226 388,157 457,122 548,122 612,122 666,139 709,174 752,209 778,262 788,334 L 970,322 C 956,218 912,135 837,73 762,11 668,-20 553,-20 402,-20 286,28 207,124 127,219 87,359 87,542 87,724 127,863 207,959 287,1054 402,1102 551,1102 662,1102 754,1073 827,1016 900,959 945,880 964,779 L 779,765 C 770,825 746,873 708,908 670,943 616,961 546,961 451,961 382,929 339,866 296,803 275,696 275,546 Z"/>
   <glyph unicode="a" horiz-adv-x="1060" d="M 414,-20 C 305,-20 224,9 169,66 114,123 87,202 87,302 87,414 124,500 198,560 271,620 390,652 554,656 L 797,660 797,719 C 797,807 778,870 741,908 704,946 645,965 565,965 484,965 426,951 389,924 352,897 330,853 323,793 L 135,810 C 166,1005 310,1102 569,1102 705,1102 807,1071 876,1009 945,946 979,856 979,738 L 979,272 C 979,219 986,179 1000,152 1014,125 1041,111 1080,111 1097,111 1117,113 1139,118 L 1139,6 C 1094,-5 1047,-10 1000,-10 933,-10 885,8 855,43 824,78 807,132 803,207 L 797,207 C 751,124 698,66 637,32 576,-3 501,-20 414,-20 Z M 455,115 C 521,115 580,130 631,160 682,190 723,231 753,284 782,336 797,390 797,445 L 797,534 600,530 C 515,529 451,520 408,504 364,488 330,463 307,430 284,397 272,353 272,299 272,240 288,195 320,163 351,131 396,115 455,115 Z"/>
   <glyph unicode="_" horiz-adv-x="1218" d="M -31,-407 L -31,-277 1162,-277 1162,-407 -31,-407 Z"/>
   <glyph unicode="W" horiz-adv-x="1932" d="M 1511,0 L 1283,0 1039,895 C 1023,951 1000,1051 969,1196 952,1119 937,1054 925,1002 913,950 822,616 652,0 L 424,0 9,1409 208,1409 461,514 C 491,402 519,287 544,168 560,241 579,321 600,408 621,495 713,828 877,1409 L 1060,1409 1305,532 C 1342,389 1372,267 1393,168 L 1402,203 C 1420,280 1435,342 1446,391 1457,439 1551,778 1727,1409 L 1926,1409 1511,0 Z"/>
   <glyph unicode="S" horiz-adv-x="1192" d="M 1272,389 C 1272,259 1221,158 1120,87 1018,16 875,-20 690,-20 347,-20 148,99 93,338 L 278,375 C 299,290 345,228 414,189 483,149 578,129 697,129 820,129 916,150 983,193 1050,235 1083,297 1083,379 1083,425 1073,462 1052,491 1031,520 1001,543 963,562 925,581 880,596 827,609 774,622 716,635 652,650 541,675 456,699 399,724 341,749 295,776 262,807 229,837 203,872 186,913 168,954 159,1000 159,1053 159,1174 205,1267 298,1332 390,1397 522,1430 694,1430 854,1430 976,1406 1061,1357 1146,1308 1205,1224 1239,1106 L 1051,1073 C 1030,1148 991,1202 933,1236 875,1269 795,1286 692,1286 579,1286 493,1267 434,1230 375,1193 345,1137 345,1063 345,1020 357,984 380,956 403,927 436,903 479,884 522,864 609,840 738,811 781,801 825,791 868,781 911,770 952,758 991,744 1030,729 1067,712 1102,693 1136,674 1166,650 1191,622 1216,594 1236,561 1251,523 1265,485 1272,440 1272,389 Z"/>
   <glyph unicode="Q" horiz-adv-x="1430" d="M 1495,711 C 1495,512 1445,349 1345,221 1245,93 1106,17 928,-6 955,-90 991,-151 1036,-188 1080,-225 1136,-244 1204,-244 1241,-244 1279,-240 1319,-231 L 1319,-365 C 1257,-380 1198,-387 1141,-387 1040,-387 958,-358 893,-302 828,-244 774,-149 733,-16 601,-9 487,24 392,85 296,145 223,229 173,337 122,444 97,569 97,711 97,936 159,1113 282,1240 405,1367 577,1430 797,1430 940,1430 1065,1402 1170,1345 1275,1288 1356,1205 1412,1096 1467,987 1495,859 1495,711 Z M 1300,711 C 1300,886 1256,1024 1169,1124 1081,1224 957,1274 797,1274 636,1274 511,1225 423,1126 335,1027 291,889 291,711 291,534 336,394 425,291 514,187 637,135 795,135 958,135 1083,185 1170,286 1257,386 1300,528 1300,711 Z"/>
   <glyph unicode="P" horiz-adv-x="1112" d="M 1258,985 C 1258,852 1215,746 1128,667 1041,588 922,549 773,549 L 359,549 359,0 168,0 168,1409 761,1409 C 919,1409 1041,1372 1128,1298 1215,1224 1258,1120 1258,985 Z M 1066,983 C 1066,1165 957,1256 738,1256 L 359,1256 359,700 746,700 C 959,700 1066,794 1066,983 Z"/>
   <glyph unicode="L" horiz-adv-x="927" d="M 168,0 L 168,1409 359,1409 359,156 1071,156 1071,0 168,0 Z"/>
   <glyph unicode="I" horiz-adv-x="213" d="M 189,0 L 189,1409 380,1409 380,0 189,0 Z"/>
   <glyph unicode="D" horiz-adv-x="1218" d="M 1381,719 C 1381,574 1353,447 1296,338 1239,229 1159,145 1055,87 951,29 831,0 695,0 L 168,0 168,1409 634,1409 C 873,1409 1057,1349 1187,1230 1316,1110 1381,940 1381,719 Z M 1189,719 C 1189,894 1141,1027 1046,1119 950,1210 811,1256 630,1256 L 359,1256 359,153 673,153 C 776,153 867,176 946,221 1024,266 1084,332 1126,417 1168,502 1189,603 1189,719 Z"/>
   <glyph unicode="A" horiz-adv-x="1377" d="M 1167,0 L 1006,412 364,412 202,0 4,0 579,1409 796,1409 1362,0 1167,0 Z M 685,1265 L 676,1237 C 659,1182 635,1111 602,1024 L 422,561 949,561 768,1026 C 749,1072 731,1124 712,1182 L 685,1265 Z"/>
   <glyph unicode=" " horiz-adv-x="556"/>
  </font>
 </defs>
 <defs class="TextShapeIndex">
  <g ooo:slide="id1" ooo:id-list="id3 id4 id5 id6 id7 id8 id9 id10 id11 id12 id13 id14 id15"/>
 </defs>
 <defs class="EmbeddedBulletChars">
  <g id="bullet-char-template-57356" transform="scale(0.00048828125,-0.00048828125)">
   <path d="M 580,1141 L 1163,571 580,0 -4,571 580,1141 Z"/>
  </g>
  <g id="bullet-char-template-57354" transform="scale(0.00048828125,-0.00048828125)">
   <path d="M 8,1128 L 1137,1128 1137,0 8,0 8,1128 Z"/>
  </g>
  <g id="bullet-char-template-10146" transform="scale(0.00048828125,-0.00048828125)">
   <path d="M 174,0 L 602,739 174,1481 1456,739 174,0 Z M 1358,739 L 309,1346 659,739 1358,739 Z"/>
  </g>
  <g id="bullet-char-template-10132" transform="scale(0.00048828125,-0.00048828125)">
   <path d="M 2015,739 L 1276,0 717,0 1260,543 174,543 174,936 1260,936 717,1481 1274,1481 2015,739 Z"/>
  </g>
  <g id="bullet-char-template-10007" transform="scale(0.00048828125,-0.00048828125)">
   <path d="M 0,-2 C -7,14 -16,27 -25,37 L 356,567 C 262,823 215,952 215,954 215,979 228,992 255,992 264,992 276,990 289,987 310,991 331,999 354,1012 L 381,999 492,748 772,1049 836,1024 860,1049 C 881,1039 901,1025 922,1006 886,937 835,863 770,784 769,783 710,716 594,584 L 774,223 C 774,196 753,168 711,139 L 727,119 C 717,90 699,76 672,76 641,76 570,178 457,381 L 164,-76 C 142,-110 111,-127 72,-127 30,-127 9,-110 8,-76 1,-67 -2,-52 -2,-32 -2,-23 -1,-13 0,-2 Z"/>
  </g>
  <g id="bullet-char-template-10004" transform="scale(0.00048828125,-0.00048828125)">
   <path d="M 285,-33 C 182,-33 111,30 74,156 52,228 41,333 41,471 41,549 55,616 82,672 116,743 169,778 240,778 293,778 328,747 346,684 L 369,508 C 377,444 397,411 428,410 L 1163,1116 C 1174,1127 1196,1133 1229,1133 1271,1133 1292,1118 1292,1087 L 1292,965 C 1292,929 1282,901 1262,881 L 442,47 C 390,-6 338,-33 285,-33 Z"/>
  </g>
  <g id="bullet-char-template-9679" transform="scale(0.00048828125,-0.00048828125)">
   <path d="M 813,0 C 632,0 489,54 383,161 276,268 223,411 223,592 223,773 276,916 383,1023 489,1130 632,1184 813,1184 992,1184 1136,1130 1245,1023 1353,916 1407,772 1407,592 1407,412 1353,268 1245,161 1136,54 992,0 813,0 Z"/>
  </g>
  <g id="bullet-char-template-8226" transform="scale(0.00048828125,-0.00048828125)">
   <path d="M 346,457 C 273,457 209,483 155,535 101,586 74,649 74,723 74,796 101,859 155,911 209,963 273,989 346,989 419,989 480,963 531,910 582,859 608,796 608,723 608,648 583,586 532,535 482,483 420,457 346,457 Z"/>
  </g>
  <g id="bullet-char-template-8211" transform="scale(0.00048828125,-0.00048828125)">
   <path d="M -4,459 L 1135,459 1135,606 -4,606 -4,459 Z"/>
  </g>
  <g id="bullet-char-template-61548" transform="scale(0.00048828125,-0.00048828125)">
   <path d="M 173,740 C 173,903 231,1043 346,1159 462,1274 601,1332 765,1332 928,1332 1067,1274 1183,1159 1299,1043 1357,903 1357,740 1357,577 1299,437 1183,322 1067,206 928,148 765,148 601,148 462,206 346,322 231,437 173,577 173,740 Z"/>
  </g>
 </defs>
 <g>
  <g id="id2" class="Master_Slide">
   <g id="bg-id2" class="Background"/>
   <g id="bo-id2" class="BackgroundObjects"/>
  </g>
 </g>
 <g class="SlideGroup">
  <g>
   <g id="container-id1">
    <g id="id1" class="Slide" clip-path="url(#presentation_clip_path)">
     <g class="Page">
      <defs class="SlideBackground">
       <g id="bg-id1" class="Background">
        <path fill="rgb(255,255,255)" stroke="none" d="M 8737,5486 L -13,5486 -13,-13 17486,-13 17486,5486 8737,5486 Z"/>
       </g>
      </defs>
      <g class="com.sun.star.drawing.CustomShape">
       <g id="id3">
        <rect class="BoundingBox" stroke="none" fill="none" x="174" y="1486" width="3754" height="3254"/>
        <path fill="rgb(114,159,207)" stroke="none" d="M 175,1998 L 175,1999 C 175,1909 262,1821 426,1743 591,1665 828,1600 1113,1556 1398,1511 1721,1487 2050,1487 L 2050,1487 C 2380,1487 2703,1511 2988,1556 3273,1600 3510,1665 3675,1743 3839,1821 3926,1909 3926,1999 L 3926,1999 3926,4226 3926,4226 C 3926,4316 3839,4404 3675,4482 3510,4560 3273,4625 2988,4669 2703,4714 2380,4738 2051,4738 L 2051,4738 C 1721,4738 1398,4714 1113,4669 828,4625 591,4560 426,4482 262,4404 175,4316 175,4226 L 175,1998 Z"/>
        <path fill="none" stroke="rgb(52,101,164)" d="M 175,1998 L 175,1999 C 175,1909 262,1821 426,1743 591,1665 828,1600 1113,1556 1398,1511 1721,1487 2050,1487 L 2050,1487 C 2380,1487 2703,1511 2988,1556 3273,1600 3510,1665 3675,1743 3839,1821 3926,1909 3926,1999 L 3926,1999 3926,4226 3926,4226 C 3926,4316 3839,4404 3675,4482 3510,4560 3273,4625 2988,4669 2703,4714 2380,4738 2051,4738 L 2051,4738 C 1721,4738 1398,4714 1113,4669 828,4625 591,4560 426,4482 262,4404 175,4316 175,4226 L 175,1998 Z"/>
        <path fill="rgb(114,159,207)" stroke="none" d="M 175,1998 L 175,1999 C 175,2089 262,2177 426,2255 591,2332 828,2397 1113,2442 1398,2487 1721,2510 2051,2510 L 2051,2510 C 2380,2510 2703,2487 2988,2442 3273,2397 3510,2332 3675,2255 3839,2177 3926,2089 3926,1999 L 175,1998 Z"/>
        <path fill="none" stroke="rgb(52,101,164)" d="M 175,1998 L 175,1999 C 175,2089 262,2177 426,2255 591,2332 828,2397 1113,2442 1398,2487 1721,2510 2051,2510 L 2051,2510 C 2380,2510 2703,2487 2988,2442 3273,2397 3510,2332 3675,2255 3839,2177 3926,2089 3926,1999"/>
       </g>
      </g>
      <g class="TextShape">
       <g id="id4">
        <rect class="BoundingBox" stroke="none" fill="none" x="0" y="400" width="3957" height="963"/>
        <text class="SVGTextShape"><tspan class="TextParagraph" font-family="Liberation Sans, sans-serif" font-size="635px" font-weight="400"><tspan class="TextPosition" x="250" y="1101"><tspan fill="rgb(0,0,0)" stroke="none" style="white-space: pre">PostgreSQL</tspan></tspan></tspan></text>
       </g>
      </g>
      <g class="TextShape">
       <g id="id5">
        <rect class="BoundingBox" stroke="none" fill="none" x="5450" y="388" width="5304" height="963"/>
        <text class="SVGTextShape"><tspan class="TextParagraph" font-family="Liberation Sans, sans-serif" font-size="635px" font-weight="400"><tspan class="TextPosition" x="5700" y="1089"><tspan fill="rgb(0,0,0)" stroke="none" style="white-space: pre">Diretório de WAL</tspan></tspan></tspan></text>
       </g>
      </g>
      <g class="TextShape">
       <g id="id6">
        <rect class="BoundingBox" stroke="none" fill="none" x="12225" y="87" width="4338" height="1674"/>
        <text class="SVGTextShape"><tspan class="TextParagraph" font-family="Liberation Sans, sans-serif" font-size="635px" font-weight="400"><tspan class="TextPosition" x="12475" y="788"><tspan fill="rgb(0,0,0)" stroke="none" style="white-space: pre">Diretório de</tspan></tspan></tspan><tspan class="TextParagraph" font-family="Liberation Sans, sans-serif" font-size="635px" font-weight="400"><tspan class="TextPosition" x="12475" y="1499"><tspan fill="rgb(0,0,0)" stroke="none" style="white-space: pre">arquivamento</tspan></tspan></tspan></text>
       </g>
      </g>
      <g class="TextShape">
       <g id="id7">
        <rect class="BoundingBox" stroke="none" fill="none" x="11525" y="4300" width="5826" height="1051"/>
        <text class="SVGTextShape"><tspan class="TextParagraph" font-family="Liberation Sans, sans-serif" font-size="635px" font-weight="400"><tspan class="TextPosition" x="11775" y="5001"><tspan fill="rgb(0,0,0)" stroke="none" style="white-space: pre">archive_command</tspan></tspan></tspan></text>
       </g>
      </g>
      <g class="TextShape">
       <g id="id8">
        <rect class="BoundingBox" stroke="none" fill="none" x="6925" y="4287" width="2505" height="1101"/>
        <text class="SVGTextShape"><tspan class="TextParagraph" font-family="Liberation Sans, sans-serif" font-size="635px" font-weight="400"><tspan class="TextPosition" x="7175" y="4988"><tspan fill="rgb(0,0,0)" stroke="none" style="white-space: pre">pg_wal</tspan></tspan></tspan></text>
       </g>
      </g>
      <g class="TextShape">
       <g id="id9">
        <rect class="BoundingBox" stroke="none" fill="none" x="425" y="2837" width="3039" height="963"/>
        <text class="SVGTextShape"><tspan class="TextParagraph" font-family="Liberation Sans, sans-serif" font-size="635px" font-weight="400"><tspan class="TextPosition" x="675" y="3538"><tspan fill="rgb(0,0,0)" stroke="none" style="white-space: pre">Instância</tspan></tspan></tspan></text>
       </g>
      </g>
      <g class="com.sun.star.drawing.CustomShape">
       <g id="id10">
        <rect class="BoundingBox" stroke="none" fill="none" x="11899" y="1849" width="4504" height="2504"/>
        <path fill="rgb(114,159,207)" stroke="none" d="M 12650,4351 L 12650,4351 C 12518,4351 12389,4293 12275,4183 12161,4074 12066,3916 12001,3726 11935,3536 11900,3320 11900,3101 L 11900,3101 C 11900,2881 11935,2665 12001,2475 12066,2285 12161,2127 12275,2018 12389,1908 12518,1850 12650,1850 L 16401,1850 16401,1850 C 16269,1850 16140,1908 16026,2018 15912,2127 15817,2285 15751,2475 15685,2665 15651,2881 15651,3101 L 15651,3101 C 15651,3320 15685,3536 15751,3726 15817,3916 15912,4074 16026,4183 16140,4293 16269,4351 16401,4351 L 12650,4351 Z"/>
        <path fill="none" stroke="rgb(52,101,164)" d="M 12650,4351 L 12650,4351 C 12518,4351 12389,4293 12275,4183 12161,4074 12066,3916 12001,3726 11935,3536 11900,3320 11900,3101 L 11900,3101 C 11900,2881 11935,2665 12001,2475 12066,2285 12161,2127 12275,2018 12389,1908 12518,1850 12650,1850 L 16401,1850 16401,1850 C 16269,1850 16140,1908 16026,2018 15912,2127 15817,2285 15751,2475 15685,2665 15651,2881 15651,3101 L 15651,3101 C 15651,3320 15685,3536 15751,3726 15817,3916 15912,4074 16026,4183 16140,4293 16269,4351 16401,4351 L 12650,4351 Z"/>
       </g>
      </g>
      <g class="TextShape">
       <g id="id11">
        <rect class="BoundingBox" stroke="none" fill="none" x="12050" y="1850" width="3598" height="2385"/>
        <text class="SVGTextShape"><tspan class="TextParagraph" font-family="Liberation Sans, sans-serif" font-size="635px" font-weight="400"><tspan class="TextPosition" x="12300" y="2551"><tspan fill="rgb(0,0,0)" stroke="none" style="white-space: pre">Arquivos</tspan></tspan></tspan><tspan class="TextParagraph" font-family="Liberation Sans, sans-serif" font-size="635px" font-weight="400"><tspan class="TextPosition" x="12300" y="3262"><tspan fill="rgb(0,0,0)" stroke="none" style="white-space: pre">de WAL</tspan></tspan></tspan><tspan class="TextParagraph" font-family="Liberation Sans, sans-serif" font-size="635px" font-weight="400"><tspan class="TextPosition" x="12300" y="3973"><tspan fill="rgb(0,0,0)" stroke="none" style="white-space: pre">arquivados</tspan></tspan></tspan></text>
       </g>
      </g>
      <g class="com.sun.star.drawing.CustomShape">
       <g id="id12">
        <rect class="BoundingBox" stroke="none" fill="none" x="5900" y="1850" width="4504" height="2504"/>
        <path fill="rgb(114,159,207)" stroke="none" d="M 6651,4352 L 6651,4352 C 6519,4352 6390,4294 6276,4184 6162,4075 6067,3917 6002,3727 5936,3537 5901,3321 5901,3102 L 5901,3102 C 5901,2882 5936,2666 6002,2476 6067,2286 6162,2128 6276,2019 6390,1909 6519,1851 6651,1851 L 10402,1851 10402,1851 C 10270,1851 10141,1909 10027,2019 9913,2128 9818,2286 9752,2476 9686,2666 9652,2882 9652,3102 L 9652,3102 C 9652,3321 9686,3537 9752,3727 9818,3917 9913,4075 10027,4184 10141,4294 10270,4352 10402,4352 L 6651,4352 Z"/>
        <path fill="none" stroke="rgb(52,101,164)" d="M 6651,4352 L 6651,4352 C 6519,4352 6390,4294 6276,4184 6162,4075 6067,3917 6002,3727 5936,3537 5901,3321 5901,3102 L 5901,3102 C 5901,2882 5936,2666 6002,2476 6067,2286 6162,2128 6276,2019 6390,1909 6519,1851 6651,1851 L 10402,1851 10402,1851 C 10270,1851 10141,1909 10027,2019 9913,2128 9818,2286 9752,2476 9686,2666 9652,2882 9652,3102 L 9652,3102 C 9652,3321 9686,3537 9752,3727 9818,3917 9913,4075 10027,4184 10141,4294 10270,4352 10402,4352 L 6651,4352 Z"/>
       </g>
      </g>
      <g class="TextShape">
       <g id="id13">
        <rect class="BoundingBox" stroke="none" fill="none" x="6250" y="2200" width="2967" height="1674"/>
        <text class="SVGTextShape"><tspan class="TextParagraph" font-family="Liberation Sans, sans-serif" font-size="635px" font-weight="400"><tspan class="TextPosition" x="6500" y="2901"><tspan fill="rgb(0,0,0)" stroke="none" style="white-space: pre">Arquivos</tspan></tspan></tspan><tspan class="TextParagraph" font-family="Liberation Sans, sans-serif" font-size="635px" font-weight="400"><tspan class="TextPosition" x="6500" y="3612"><tspan fill="rgb(0,0,0)" stroke="none" style="white-space: pre">de WAL</tspan></tspan></tspan></text>
       </g>
      </g>
      <g class="com.sun.star.drawing.LineShape">
       <g id="id14">
        <rect class="BoundingBox" stroke="none" fill="none" x="3899" y="2950" width="2002" height="301"/>
        <path fill="none" stroke="rgb(52,101,164)" d="M 3900,3100 L 5620,3100"/>
        <path fill="rgb(52,101,164)" stroke="none" d="M 5600,2950 L 5900,3100 5600,3250 5600,2950 Z"/>
       </g>
      </g>
      <g class="com.sun.star.drawing.LineShape">
       <g id="id15">
        <rect class="BoundingBox" stroke="none" fill="none" x="9649" y="2950" width="2252" height="301"/>
        <path fill="none" stroke="rgb(52,101,164)" d="M 9650,3100 L 11620,3100"/>
        <path fill="rgb(52,101,164)" stroke="none" d="M 11600,2950 L 11900,3100 11600,3250 11600,2950 Z"/>
       </g>
      </g>
     </g>
    </g>
   </g>
  </g>
 </g>
</svg>