<?xml version="1.0" encoding="UTF-8"?>
<!DOCTYPE svg PUBLIC "-//W3C//DTD SVG 1.1//EN" "http://www.w3.org/Graphics/SVG/1.1/DTD/svg11.dtd">
<svg version="1.2" width="282mm" height="86mm" viewBox="0 0 28200 8600" preserveAspectRatio="xMidYMid" fill-rule="evenodd" stroke-width="28.222" stroke-linejoin="round" xmlns="http://www.w3.org/2000/svg" xmlns:ooo="http://xml.openoffice.org/svg/export" xmlns:xlink="http://www.w3.org/1999/xlink" xmlns:presentation="http://sun.com/xmlns/staroffice/presentation" xmlns:smil="http://www.w3.org/2001/SMIL20/" xmlns:anim="urn:oasis:names:tc:opendocument:xmlns:animation:1.0" xmlns:svg="urn:oasis:names:tc:opendocument:xmlns:svg-compatible:1.0" xml:space="preserve">
 <defs class="ClipPathGroup">
  <clipPath id="presentation_clip_path" clipPathUnits="userSpaceOnUse">
   <rect x="0" y="0" width="28200" height="8600"/>
  </clipPath>
  <clipPath id="presentation_clip_path_shrink" clipPathUnits="userSpaceOnUse">
   <rect x="28" y="8" width="28144" height="8583"/>
  </clipPath>
 </defs>
 <defs>
  <font id="EmbeddedFont_1" horiz-adv-x="2048">
   <font-face font-family="Arial Narrow embedded" units-per-em="2048" font-weight="bold" font-style="italic" ascent="1455" descent="582"/>
   <missing-glyph horiz-adv-x="2048" d="M 0,0 L 2047,0 2047,2047 0,2047 0,0 Z"/>
   <glyph unicode="e" horiz-adv-x="900" d="M 690,319 C 653,242 594,201 514,201 410,201 350,266 350,387 350,403 352,436 356,467 L 969,467 977,518 C 989,586 995,653 995,719 995,979 877,1118 657,1118 473,1118 324,1018 225,827 158,696 119,530 119,367 119,109 240,-29 471,-29 571,-29 659,0 739,59 823,121 870,184 932,319 L 690,319 Z M 395,653 C 442,813 510,883 614,883 707,883 762,815 762,707 L 760,653 395,653 Z"/>
   <glyph unicode="d" horiz-adv-x="1060" d="M 1182,1470 L 946,1470 854,942 C 805,1067 739,1118 625,1118 354,1118 137,786 137,369 137,115 244,-29 428,-29 549,-29 639,25 721,143 L 694,0 926,0 1182,1470 Z M 651,870 C 754,870 805,799 805,657 805,399 688,207 530,207 434,207 383,285 383,428 383,526 410,645 453,727 500,821 569,870 651,870 Z"/>
   <glyph unicode="R" horiz-adv-x="1218" d="M 127,0 L 373,0 473,575 733,575 C 856,575 901,543 901,451 901,418 897,381 883,297 864,188 856,113 856,55 L 856,0 1137,0 1143,39 C 1116,55 1110,70 1110,104 1110,133 1114,176 1122,221 1157,428 1159,453 1159,520 1159,610 1133,655 1053,705 1120,735 1151,760 1194,813 1266,901 1307,1024 1307,1145 1307,1352 1192,1470 993,1470 L 383,1470 127,0 Z M 518,823 L 586,1217 899,1217 C 995,1217 1047,1167 1047,1075 1047,1016 1028,948 999,905 963,850 903,823 813,823 L 518,823 Z"/>
  </font>
 </defs>
 <defs>
  <font id="EmbeddedFont_2" horiz-adv-x="2048">
   <font-face font-family="Liberation Sans embedded" units-per-em="2048" font-weight="normal" font-style="normal" ascent="1852" descent="423"/>
   <missing-glyph horiz-adv-x="2048" d="M 0,0 L 2047,0 2047,2047 0,2047 0,0 Z"/>
   <glyph unicode="ç" horiz-adv-x="901" d="M 275,546 C 275,402 298,295 343,226 388,157 457,122 548,122 612,122 666,139 709,174 752,209 778,262 788,334 L 970,322 C 956,218 912,135 837,73 762,11 668,-20 553,-20 402,-20 286,28 207,124 127,219 87,359 87,542 87,724 127,863 207,959 287,1054 402,1102 551,1102 662,1102 754,1073 827,1016 900,959 945,880 964,779 L 779,765 C 770,825 746,873 708,908 670,943 616,961 546,961 451,961 382,929 339,866 296,803 275,696 275,546 Z M 751,-252 C 751,-373 660,-434 477,-434 439,-434 409,-433 387,-430 L 387,-332 C 420,-336 448,-338 473,-338 571,-338 620,-311 620,-257 620,-206 576,-180 487,-180 458,-180 439,-181 430,-182 L 495,0 602,0 563,-102 C 626,-102 673,-116 704,-143 735,-170 751,-206 751,-252 Z"/>
   <glyph unicode="ã" horiz-adv-x="1060" d="M 414,-20 C 305,-20 224,9 169,66 114,123 87,202 87,302 87,414 124,500 198,560 271,620 390,652 554,656 L 797,660 797,719 C 797,807 778,870 741,908 704,946 645,965 565,965 484,965 426,951 389,924 352,897 330,853 323,793 L 135,810 C 166,1005 310,1102 569,1102 705,1102 807,1071 876,1009 945,946 979,856 979,738 L 979,272 C 979,219 986,179 1000,152 1014,125 1041,111 1080,111 1097,111 1117,113 1139,118 L 1139,6 C 1094,-5 1047,-10 1000,-10 933,-10 885,8 855,43 824,78 807,132 803,207 L 797,207 C 751,124 698,66 637,32 576,-3 501,-20 414,-20 Z M 455,115 C 521,115 580,130 631,160 682,190 723,231 753,284 782,336 797,390 797,445 L 797,534 600,530 C 515,529 451,520 408,504 364,488 330,463 307,430 284,397 272,353 272,299 272,240 288,195 320,163 351,131 396,115 455,115 Z M 737,1201 C 709,1201 681,1207 653,1220 625,1232 598,1246 572,1261 546,1276 521,1289 498,1302 474,1314 452,1320 431,1320 394,1320 367,1310 349,1289 331,1268 319,1239 313,1201 L 222,1201 C 229,1269 241,1321 257,1356 273,1391 295,1418 322,1439 349,1459 383,1469 425,1469 454,1469 483,1463 511,1451 539,1438 566,1425 592,1410 618,1395 643,1381 666,1369 689,1356 710,1350 730,1350 797,1350 836,1390 847,1469 L 939,1469 C 928,1370 905,1301 872,1261 839,1221 794,1201 737,1201 Z"/>
   <glyph unicode="á" horiz-adv-x="1060" d="M 414,-20 C 305,-20 224,9 169,66 114,123 87,202 87,302 87,414 124,500 198,560 271,620 390,652 554,656 L 797,660 797,719 C 797,807 778,870 741,908 704,946 645,965 565,965 484,965 426,951 389,924 352,897 330,853 323,793 L 135,810 C 166,1005 310,1102 569,1102 705,1102 807,1071 876,1009 945,946 979,856 979,738 L 979,272 C 979,219 986,179 1000,152 1014,125 1041,111 1080,111 1097,111 1117,113 1139,118 L 1139,6 C 1094,-5 1047,-10 1000,-10 933,-10 885,8 855,43 824,78 807,132 803,207 L 797,207 C 751,124 698,66 637,32 576,-3 501,-20 414,-20 Z M 455,115 C 521,115 580,130 631,160 682,190 723,231 753,284 782,336 797,390 797,445 L 797,534 600,530 C 515,529 451,520 408,504 364,488 330,463 307,430 284,397 272,353 272,299 272,240 288,195 320,163 351,131 396,115 455,115 Z M 412,1201 L 412,1221 629,1508 836,1508 836,1479 506,1201 412,1201 Z"/>
   <glyph unicode="v" horiz-adv-x="1033" d="M 613,0 L 400,0 7,1082 199,1082 437,378 C 446,351 469,272 506,141 L 541,258 580,376 826,1082 1017,1082 613,0 Z"/>
   <glyph unicode="u" horiz-adv-x="874" d="M 314,1082 L 314,396 C 314,325 321,269 335,230 349,191 371,162 402,145 433,128 478,119 537,119 624,119 692,149 742,208 792,267 817,350 817,455 L 817,1082 997,1082 997,231 C 997,105 999,28 1003,0 L 833,0 C 832,3 832,12 831,27 830,42 830,59 829,78 828,97 826,132 825,185 L 822,185 C 781,110 733,58 679,27 624,-4 557,-20 476,-20 357,-20 271,10 216,69 161,128 133,225 133,361 L 133,1082 314,1082 Z"/>
   <glyph unicode="t" horiz-adv-x="531" d="M 554,8 C 495,-8 434,-16 372,-16 228,-16 156,66 156,229 L 156,951 31,951 31,1082 163,1082 216,1324 336,1324 336,1082 536,1082 536,951 336,951 336,268 C 336,216 345,180 362,159 379,138 408,127 450,127 474,127 509,132 554,141 L 554,8 Z"/>
   <glyph unicode="s" horiz-adv-x="901" d="M 950,299 C 950,197 912,118 835,63 758,8 650,-20 511,-20 376,-20 273,2 200,47 127,91 79,160 57,254 L 216,285 C 231,227 263,185 311,158 359,131 426,117 511,117 602,117 669,131 712,159 754,187 775,229 775,285 775,328 760,362 731,389 702,416 654,438 589,455 L 460,489 C 357,516 283,542 240,568 196,593 162,624 137,661 112,698 100,743 100,796 100,895 135,970 206,1022 276,1073 378,1099 513,1099 632,1099 727,1078 798,1036 868,994 912,927 931,834 L 769,814 C 759,862 732,899 689,925 645,950 586,963 513,963 432,963 372,951 333,926 294,901 275,864 275,814 275,783 283,758 299,738 315,718 339,701 370,687 401,673 467,654 568,629 663,605 732,583 774,563 816,542 849,520 874,495 898,470 917,442 930,410 943,377 950,340 950,299 Z"/>
   <glyph unicode="r" horiz-adv-x="530" d="M 142,0 L 142,830 C 142,906 140,990 136,1082 L 306,1082 C 311,959 314,886 314,861 L 318,861 C 347,954 380,1017 417,1051 454,1085 507,1102 575,1102 599,1102 623,1099 648,1092 L 648,927 C 624,934 592,937 552,937 477,937 420,905 381,841 342,776 322,684 322,564 L 322,0 142,0 Z"/>
   <glyph unicode="p" horiz-adv-x="953" d="M 1053,546 C 1053,169 920,-20 655,-20 488,-20 376,43 319,168 L 314,168 C 317,163 318,106 318,-2 L 318,-425 138,-425 138,861 C 138,972 136,1046 132,1082 L 306,1082 C 307,1079 308,1070 309,1054 310,1037 312,1012 314,978 315,944 316,921 316,908 L 320,908 C 352,975 394,1024 447,1055 500,1086 569,1101 655,1101 788,1101 888,1056 954,967 1020,878 1053,737 1053,546 Z M 864,542 C 864,693 844,800 803,865 762,930 698,962 609,962 538,962 482,947 442,917 401,887 371,840 350,777 329,713 318,630 318,528 318,386 341,281 386,214 431,147 505,113 607,113 696,113 762,146 803,212 844,277 864,387 864,542 Z"/>
   <glyph unicode="o" horiz-adv-x="980" d="M 1053,542 C 1053,353 1011,212 928,119 845,26 724,-20 565,-20 407,-20 288,28 207,125 126,221 86,360 86,542 86,915 248,1102 571,1102 736,1102 858,1057 936,966 1014,875 1053,733 1053,542 Z M 864,542 C 864,691 842,800 798,868 753,935 679,969 574,969 469,969 393,935 346,866 299,797 275,689 275,542 275,399 298,292 345,221 391,149 464,113 563,113 671,113 748,148 795,217 841,286 864,395 864,542 Z"/>
   <glyph unicode="n" horiz-adv-x="874" d="M 825,0 L 825,686 C 825,757 818,813 804,852 790,891 768,920 737,937 706,954 661,963 602,963 515,963 447,933 397,874 347,815 322,732 322,627 L 322,0 142,0 142,851 C 142,977 140,1054 136,1082 L 306,1082 C 307,1079 307,1070 308,1055 309,1040 310,1024 311,1005 312,986 313,950 314,897 L 317,897 C 358,972 406,1025 461,1056 515,1087 582,1102 663,1102 782,1102 869,1073 924,1014 979,955 1006,857 1006,721 L 1006,0 825,0 Z"/>
   <glyph unicode="m" horiz-adv-x="1457" d="M 768,0 L 768,686 C 768,791 754,863 725,903 696,943 645,963 570,963 493,963 433,934 388,875 343,816 321,734 321,627 L 321,0 142,0 142,851 C 142,977 140,1054 136,1082 L 306,1082 C 307,1079 307,1070 308,1055 309,1040 310,1024 311,1005 312,986 313,950 314,897 L 317,897 C 356,974 400,1027 450,1057 500,1087 561,1102 633,1102 715,1102 780,1086 828,1053 875,1020 908,968 927,897 L 930,897 C 967,970 1013,1022 1066,1054 1119,1086 1183,1102 1258,1102 1367,1102 1447,1072 1497,1013 1546,954 1571,856 1571,721 L 1571,0 1393,0 1393,686 C 1393,791 1379,863 1350,903 1321,943 1270,963 1195,963 1116,963 1055,934 1012,876 968,817 946,734 946,627 L 946,0 768,0 Z"/>
   <glyph unicode="l" horiz-adv-x="187" d="M 138,0 L 138,1484 318,1484 318,0 138,0 Z"/>
   <glyph unicode="i" horiz-adv-x="187" d="M 137,1312 L 137,1484 317,1484 317,1312 137,1312 Z M 137,0 L 137,1082 317,1082 317,0 137,0 Z"/>
   <glyph unicode="g" horiz-adv-x="927" d="M 548,-425 C 430,-425 336,-402 266,-356 196,-309 151,-243 131,-158 L 312,-132 C 324,-182 351,-220 392,-248 433,-274 486,-288 553,-288 732,-288 822,-183 822,27 L 822,201 820,201 C 786,132 739,80 680,45 621,10 551,-8 472,-8 339,-8 242,36 180,124 117,212 86,350 86,539 86,730 120,872 187,963 254,1054 355,1099 492,1099 569,1099 635,1082 692,1047 748,1012 791,962 822,897 L 824,897 C 824,917 825,952 828,1001 831,1050 833,1077 836,1082 L 1007,1082 C 1003,1046 1001,971 1001,858 L 1001,31 C 1001,-273 850,-425 548,-425 Z M 822,541 C 822,629 810,705 786,769 762,832 728,881 685,915 641,948 591,965 536,965 444,965 377,932 335,865 293,798 272,690 272,541 272,393 292,287 331,222 370,157 438,125 533,125 590,125 640,142 684,175 728,208 762,256 786,319 810,381 822,455 822,541 Z"/>
   <glyph unicode="f" horiz-adv-x="557" d="M 361,951 L 361,0 181,0 181,951 29,951 29,1082 181,1082 181,1204 C 181,1303 203,1374 246,1417 289,1460 356,1482 445,1482 495,1482 537,1478 572,1470 L 572,1333 C 542,1338 515,1341 492,1341 446,1341 413,1329 392,1306 371,1283 361,1240 361,1179 L 361,1082 572,1082 572,951 361,951 Z"/>
   <glyph unicode="e" horiz-adv-x="980" d="M 276,503 C 276,379 302,283 353,216 404,149 479,115 578,115 656,115 719,131 766,162 813,193 844,233 861,281 L 1019,236 C 954,65 807,-20 578,-20 418,-20 296,28 213,123 129,218 87,360 87,548 87,727 129,864 213,959 296,1054 416,1102 571,1102 889,1102 1048,910 1048,527 L 1048,503 276,503 Z M 862,641 C 852,755 823,838 775,891 727,943 658,969 568,969 481,969 412,940 361,882 310,823 282,743 278,641 L 862,641 Z"/>
   <glyph unicode="d" horiz-adv-x="927" d="M 821,174 C 788,105 744,55 689,25 634,-5 565,-20 484,-20 347,-20 247,26 183,118 118,210 86,349 86,536 86,913 219,1102 484,1102 566,1102 634,1087 689,1057 744,1027 788,979 821,914 L 823,914 821,1035 821,1484 1001,1484 1001,223 C 1001,110 1003,36 1007,0 L 835,0 C 833,11 831,35 829,74 826,113 825,146 825,174 L 821,174 Z M 275,542 C 275,391 295,282 335,217 375,152 440,119 530,119 632,119 706,154 752,225 798,296 821,405 821,554 821,697 798,802 752,869 706,936 633,969 532,969 441,969 376,936 336,869 295,802 275,693 275,542 Z"/>
   <glyph unicode="a" horiz-adv-x="1060" d="M 414,-20 C 305,-20 224,9 169,66 114,123 87,202 87,302 87,414 124,500 198,560 271,620 390,652 554,656 L 797,660 797,719 C 797,807 778,870 741,908 704,946 645,965 565,965 484,965 426,951 389,924 352,897 330,853 323,793 L 135,810 C 166,1005 310,1102 569,1102 705,1102 807,1071 876,1009 945,946 979,856 979,738 L 979,272 C 979,219 986,179 1000,152 1014,125 1041,111 1080,111 1097,111 1117,113 1139,118 L 1139,6 C 1094,-5 1047,-10 1000,-10 933,-10 885,8 855,43 824,78 807,132 803,207 L 797,207 C 751,124 698,66 637,32 576,-3 501,-20 414,-20 Z M 455,115 C 521,115 580,130 631,160 682,190 723,231 753,284 782,336 797,390 797,445 L 797,534 600,530 C 515,529 451,520 408,504 364,488 330,463 307,430 284,397 272,353 272,299 272,240 288,195 320,163 351,131 396,115 455,115 Z"/>
   <glyph unicode="P" horiz-adv-x="1112" d="M 1258,985 C 1258,852 1215,746 1128,667 1041,588 922,549 773,549 L 359,549 359,0 168,0 168,1409 761,1409 C 919,1409 1041,1372 1128,1298 1215,1224 1258,1120 1258,985 Z M 1066,983 C 1066,1165 957,1256 738,1256 L 359,1256 359,700 746,700 C 959,700 1066,794 1066,983 Z"/>
   <glyph unicode="E" horiz-adv-x="1138" d="M 168,0 L 168,1409 1237,1409 1237,1253 359,1253 359,801 1177,801 1177,647 359,647 359,156 1278,156 1278,0 168,0 Z"/>
   <glyph unicode="C" horiz-adv-x="1324" d="M 792,1274 C 636,1274 515,1224 428,1124 341,1023 298,886 298,711 298,538 343,400 434,295 524,190 646,137 800,137 997,137 1146,235 1245,430 L 1401,352 C 1343,231 1262,138 1157,75 1052,12 930,-20 791,-20 649,-20 526,10 423,69 319,128 240,212 186,322 131,431 104,561 104,711 104,936 165,1112 286,1239 407,1366 575,1430 790,1430 940,1430 1065,1401 1166,1342 1267,1283 1341,1196 1388,1081 L 1207,1021 C 1174,1103 1122,1166 1050,1209 977,1252 891,1274 792,1274 Z"/>
   <glyph unicode="-" horiz-adv-x="531" d="M 91,464 L 91,624 591,624 591,464 91,464 Z"/>
   <glyph unicode=")" horiz-adv-x="557" d="M 555,528 C 555,335 525,162 465,9 404,-144 311,-289 186,-424 L 12,-424 C 137,-284 229,-136 287,19 345,174 374,344 374,530 374,716 345,887 287,1042 228,1197 137,1345 12,1484 L 186,1484 C 312,1348 405,1203 465,1050 525,896 555,723 555,532 L 555,528 Z"/>
   <glyph unicode="(" horiz-adv-x="583" d="M 127,532 C 127,725 157,898 218,1051 278,1204 371,1349 496,1484 L 670,1484 C 545,1345 454,1198 396,1042 337,886 308,715 308,530 308,345 337,175 395,20 452,-135 544,-283 670,-424 L 496,-424 C 370,-288 277,-143 217,11 157,164 127,337 127,528 L 127,532 Z"/>
   <glyph unicode=" " horiz-adv-x="556"/>
  </font>
 </defs>
 <defs class="TextShapeIndex">
  <g ooo:slide="id1" ooo:id-list="id3 id4 id5 id6 id7 id8 id9 id10 id11 id12 id13 id14 id15 id16 id17 id18 id19 id20 id21 id22 id23 id24 id25 id26 id27 id28 id29 id30 id31 id32 id33 id34 id35 id36 id37 id38 id39 id40 id41 id42 id43 id44 id45 id46 id47 id48 id49 id50 id51 id52 id53 id54 id55 id56 id57 id58 id59 id60 id61 id62 id63 id64 id65 id66 id67 id68 id69"/>
 </defs>
 <defs class="EmbeddedBulletChars">
  <g id="bullet-char-template-57356" transform="scale(0.00048828125,-0.00048828125)">
   <path d="M 580,1141 L 1163,571 580,0 -4,571 580,1141 Z"/>
  </g>
  <g id="bullet-char-template-57354" transform="scale(0.00048828125,-0.00048828125)">
   <path d="M 8,1128 L 1137,1128 1137,0 8,0 8,1128 Z"/>
  </g>
  <g id="bullet-char-template-10146" transform="scale(0.00048828125,-0.00048828125)">
   <path d="M 174,0 L 602,739 174,1481 1456,739 174,0 Z M 1358,739 L 309,1346 659,739 1358,739 Z"/>
  </g>
  <g id="bullet-char-template-10132" transform="scale(0.00048828125,-0.00048828125)">
   <path d="M 2015,739 L 1276,0 717,0 1260,543 174,543 174,936 1260,936 717,1481 1274,1481 2015,739 Z"/>
  </g>
  <g id="bullet-char-template-10007" transform="scale(0.00048828125,-0.00048828125)">
   <path d="M 0,-2 C -7,14 -16,27 -25,37 L 356,567 C 262,823 215,952 215,954 215,979 228,992 255,992 264,992 276,990 289,987 310,991 331,999 354,1012 L 381,999 492,748 772,1049 836,1024 860,1049 C 881,1039 901,1025 922,1006 886,937 835,863 770,784 769,783 710,716 594,584 L 774,223 C 774,196 753,168 711,139 L 727,119 C 717,90 699,76 672,76 641,76 570,178 457,381 L 164,-76 C 142,-110 111,-127 72,-127 30,-127 9,-110 8,-76 1,-67 -2,-52 -2,-32 -2,-23 -1,-13 0,-2 Z"/>
  </g>
  <g id="bullet-char-template-10004" transform="scale(0.00048828125,-0.00048828125)">
   <path d="M 285,-33 C 182,-33 111,30 74,156 52,228 41,333 41,471 41,549 55,616 82,672 116,743 169,778 240,778 293,778 328,747 346,684 L 369,508 C 377,444 397,411 428,410 L 1163,1116 C 1174,1127 1196,1133 1229,1133 1271,1133 1292,1118 1292,1087 L 1292,965 C 1292,929 1282,901 1262,881 L 442,47 C 390,-6 338,-33 285,-33 Z"/>
  </g>
  <g id="bullet-char-template-9679" transform="scale(0.00048828125,-0.00048828125)">
   <path d="M 813,0 C 632,0 489,54 383,161 276,268 223,411 223,592 223,773 276,916 383,1023 489,1130 632,1184 813,1184 992,1184 1136,1130 1245,1023 1353,916 1407,772 1407,592 1407,412 1353,268 1245,161 1136,54 992,0 813,0 Z"/>
  </g>
  <g id="bullet-char-template-8226" transform="scale(0.00048828125,-0.00048828125)">
   <path d="M 346,457 C 273,457 209,483 155,535 101,586 74,649 74,723 74,796 101,859 155,911 209,963 273,989 346,989 419,989 480,963 531,910 582,859 608,796 608,723 608,648 583,586 532,535 482,483 420,457 346,457 Z"/>
  </g>
  <g id="bullet-char-template-8211" transform="scale(0.00048828125,-0.00048828125)">
   <path d="M -4,459 L 1135,459 1135,606 -4,606 -4,459 Z"/>
  </g>
  <g id="bullet-char-template-61548" transform="scale(0.00048828125,-0.00048828125)">
   <path d="M 173,740 C 173,903 231,1043 346,1159 462,1274 601,1332 765,1332 928,1332 1067,1274 1183,1159 1299,1043 1357,903 1357,740 1357,577 1299,437 1183,322 1067,206 928,148 765,148 601,148 462,206 346,322 231,437 173,577 173,740 Z"/>
  </g>
 </defs>
 <g>
  <g id="id2" class="Master_Slide">
   <g id="bg-id2" class="Background"/>
   <g id="bo-id2" class="BackgroundObjects"/>
  </g>
 </g>
 <g class="SlideGroup">
  <g>
   <g id="container-id1">
    <g id="id1" class="Slide" clip-path="url(#presentation_clip_path)">
     <g class="Page">
      <g class="Group">
       <g class="com.sun.star.drawing.ClosedBezierShape">
        <g id="id3">
         <rect class="BoundingBox" stroke="none" fill="none" x="2462" y="5395" width="2511" height="1473"/>
         <path fill="rgb(221,221,221)" stroke="none" d="M 2463,6866 C 3173,6866 4286,6402 4766,6096 5246,5790 4766,5396 4524,5396 L 2463,6866 Z"/>
         <path fill="none" stroke="rgb(221,221,221)" d="M 2463,6866 C 3173,6866 4286,6402 4766,6096 5246,5790 4766,5396 4524,5396 L 2463,6866 Z"/>
        </g>
       </g>
       <g class="Group">
        <g class="com.sun.star.drawing.PolyPolygonShape">
         <g id="id4">
          <rect class="BoundingBox" stroke="none" fill="none" x="988" y="3206" width="1497" height="3681"/>
          <g>
           <defs>
            <linearGradient id="gradient1" x1="1735" y1="6866" x2="1735" y2="3226" gradientUnits="userSpaceOnUse">
             <stop offset="0.1" style="stop-color:rgb(179,179,179)"/>
             <stop offset="1" style="stop-color:rgb(229,229,229)"/>
            </linearGradient>
           </defs>
           <path style="fill:url(#gradient1)" d="M 1008,6026 L 1008,3226 2463,4066 2463,6866 1008,6026 Z"/>
          </g>
          <path fill="none" stroke="rgb(255,255,255)" stroke-width="40" stroke-linejoin="round" d="M 1008,6026 L 1008,3226 2463,4066 2463,6866 1008,6026 Z"/>
         </g>
        </g>
        <g class="com.sun.star.drawing.PolyPolygonShape">
         <g id="id5">
          <rect class="BoundingBox" stroke="none" fill="none" x="2443" y="2856" width="2102" height="4031"/>
          <g>
           <defs>
            <pattern id="pattern1" x="2463" y="2876" width="2062" height="3991" patternUnits="userSpaceOnUse">
             <g transform="translate(-2463,-2876)">
              <defs>
               <clipPath id="clip_path_1" clipPathUnits="userSpaceOnUse">
                <path d="M 2461,2884 L 4524,2884 4524,6879 2461,6879 2461,2884 Z"/>
               </clipPath>
              </defs>
              <g clip-path="url(#clip_path_1)">
               <path fill="rgb(179,179,179)" stroke="none" d="M 2462,2875 L 4525,2875 4525,6867 2462,6867 2462,2875 Z M 2070,2116 L 4091,2116 4091,6028 2070,6028 2070,2116 Z"/>
               <path fill="rgb(180,180,180)" stroke="none" d="M 2070,2116 L 4091,2116 4091,6028 2070,6028 2070,2116 Z M 2091,2156 L 4070,2156 4070,5988 2091,5988 2091,2156 Z"/>
               <path fill="rgb(181,181,181)" stroke="none" d="M 2091,2156 L 4070,2156 4070,5988 2091,5988 2091,2156 Z M 2111,2196 L 4050,2196 4050,5948 2111,5948 2111,2196 Z"/>
               <path fill="rgb(182,182,182)" stroke="none" d="M 2111,2196 L 4050,2196 4050,5948 2111,5948 2111,2196 Z M 2132,2236 L 4029,2236 4029,5908 2132,5908 2132,2236 Z"/>
               <path fill="rgb(183,183,183)" stroke="none" d="M 2132,2236 L 4029,2236 4029,5908 2132,5908 2132,2236 Z M 2153,2276 L 4008,2276 4008,5868 2153,5868 2153,2276 Z"/>
               <path fill="rgb(184,184,184)" stroke="none" d="M 2153,2276 L 4008,2276 4008,5868 2153,5868 2153,2276 Z M 2173,2316 L 3988,2316 3988,5828 2173,5828 2173,2316 Z"/>
               <path fill="rgb(185,185,185)" stroke="none" d="M 2173,2316 L 3988,2316 3988,5828 2173,5828 2173,2316 Z M 2194,2356 L 3967,2356 3967,5788 2194,5788 2194,2356 Z"/>
               <path fill="rgb(186,186,186)" stroke="none" d="M 2194,2356 L 3967,2356 3967,5788 2194,5788 2194,2356 Z M 2215,2396 L 3946,2396 3946,5748 2215,5748 2215,2396 Z"/>
               <path fill="rgb(187,187,187)" stroke="none" d="M 2215,2396 L 3946,2396 3946,5748 2215,5748 2215,2396 Z M 2235,2436 L 3926,2436 3926,5708 2235,5708 2235,2436 Z"/>
               <path fill="rgb(188,188,188)" stroke="none" d="M 2235,2436 L 3926,2436 3926,5708 2235,5708 2235,2436 Z M 2256,2476 L 3905,2476 3905,5668 2256,5668 2256,2476 Z"/>
               <path fill="rgb(189,189,189)" stroke="none" d="M 2256,2476 L 3905,2476 3905,5668 2256,5668 2256,2476 Z M 2277,2516 L 3884,2516 3884,5628 2277,5628 2277,2516 Z"/>
               <path fill="rgb(190,190,190)" stroke="none" d="M 2277,2516 L 3884,2516 3884,5628 2277,5628 2277,2516 Z M 2297,2556 L 3864,2556 3864,5588 2297,5588 2297,2556 Z"/>
               <path fill="rgb(191,191,191)" stroke="none" d="M 2297,2556 L 3864,2556 3864,5588 2297,5588 2297,2556 Z M 2318,2596 L 3843,2596 3843,5548 2318,5548 2318,2596 Z"/>
               <path fill="rgb(192,192,192)" stroke="none" d="M 2318,2596 L 3843,2596 3843,5548 2318,5548 2318,2596 Z M 2338,2636 L 3823,2636 3823,5508 2338,5508 2338,2636 Z"/>
               <path fill="rgb(193,193,193)" stroke="none" d="M 2338,2636 L 3823,2636 3823,5508 2338,5508 2338,2636 Z M 2359,2675 L 3802,2675 3802,5469 2359,5469 2359,2675 Z"/>
               <path fill="rgb(194,194,194)" stroke="none" d="M 2359,2675 L 3802,2675 3802,5469 2359,5469 2359,2675 Z M 2380,2715 L 3781,2715 3781,5429 2380,5429 2380,2715 Z"/>
               <path fill="rgb(195,195,195)" stroke="none" d="M 2380,2715 L 3781,2715 3781,5429 2380,5429 2380,2715 Z M 2400,2755 L 3761,2755 3761,5389 2400,5389 2400,2755 Z"/>
               <path fill="rgb(196,196,196)" stroke="none" d="M 2400,2755 L 3761,2755 3761,5389 2400,5389 2400,2755 Z M 2421,2795 L 3740,2795 3740,5349 2421,5349 2421,2795 Z"/>
               <path fill="rgb(197,197,197)" stroke="none" d="M 2421,2795 L 3740,2795 3740,5349 2421,5349 2421,2795 Z M 2442,2835 L 3719,2835 3719,5309 2442,5309 2442,2835 Z"/>
               <path fill="rgb(198,198,198)" stroke="none" d="M 2442,2835 L 3719,2835 3719,5309 2442,5309 2442,2835 Z M 2461,2874 L 3699,2874 3699,5269 2461,5269 2461,2874 Z"/>
               <path fill="rgb(199,199,199)" stroke="none" d="M 2461,2874 L 3699,2874 3699,5269 2461,5269 2461,2874 Z M 2482,2914 L 3678,2914 3678,5229 2482,5229 2482,2914 Z"/>
               <path fill="rgb(200,200,200)" stroke="none" d="M 2482,2914 L 3678,2914 3678,5229 2482,5229 2482,2914 Z M 2503,2954 L 3657,2954 3657,5189 2503,5189 2503,2954 Z"/>
               <path fill="rgb(201,201,201)" stroke="none" d="M 2503,2954 L 3657,2954 3657,5189 2503,5189 2503,2954 Z M 2523,2994 L 3637,2994 3637,5149 2523,5149 2523,2994 Z"/>
               <path fill="rgb(202,202,202)" stroke="none" d="M 2523,2994 L 3637,2994 3637,5149 2523,5149 2523,2994 Z M 2544,3034 L 3616,3034 3616,5109 2544,5109 2544,3034 Z"/>
               <path fill="rgb(203,203,203)" stroke="none" d="M 2544,3034 L 3616,3034 3616,5109 2544,5109 2544,3034 Z M 2564,3074 L 3595,3074 3595,5069 2564,5069 2564,3074 Z"/>
               <path fill="rgb(204,204,204)" stroke="none" d="M 2564,3074 L 3595,3074 3595,5069 2564,5069 2564,3074 Z M 2585,3114 L 3575,3114 3575,5029 2585,5029 2585,3114 Z"/>
               <path fill="rgb(205,205,205)" stroke="none" d="M 2585,3114 L 3575,3114 3575,5029 2585,5029 2585,3114 Z M 2606,3154 L 3554,3154 3554,4989 2606,4989 2606,3154 Z"/>
               <path fill="rgb(206,206,206)" stroke="none" d="M 2606,3154 L 3554,3154 3554,4989 2606,4989 2606,3154 Z M 2626,3194 L 3534,3194 3534,4949 2626,4949 2626,3194 Z"/>
               <path fill="rgb(207,207,207)" stroke="none" d="M 2626,3194 L 3534,3194 3534,4949 2626,4949 2626,3194 Z M 2647,3233 L 3513,3233 3513,4910 2647,4910 2647,3233 Z"/>
               <path fill="rgb(208,208,208)" stroke="none" d="M 2647,3233 L 3513,3233 3513,4910 2647,4910 2647,3233 Z M 2668,3273 L 3492,3273 3492,4870 2668,4870 2668,3273 Z"/>
               <path fill="rgb(209,209,209)" stroke="none" d="M 2668,3273 L 3492,3273 3492,4870 2668,4870 2668,3273 Z M 2688,3313 L 3472,3313 3472,4830 2688,4830 2688,3313 Z"/>
               <path fill="rgb(210,210,210)" stroke="none" d="M 2688,3313 L 3472,3313 3472,4830 2688,4830 2688,3313 Z M 2709,3353 L 3451,3353 3451,4790 2709,4790 2709,3353 Z"/>
               <path fill="rgb(211,211,211)" stroke="none" d="M 2709,3353 L 3451,3353 3451,4790 2709,4790 2709,3353 Z M 2730,3393 L 3430,3393 3430,4750 2730,4750 2730,3393 Z"/>
               <path fill="rgb(212,212,212)" stroke="none" d="M 2730,3393 L 3430,3393 3430,4750 2730,4750 2730,3393 Z M 2750,3433 L 3410,3433 3410,4710 2750,4710 2750,3433 Z"/>
               <path fill="rgb(213,213,213)" stroke="none" d="M 2750,3433 L 3410,3433 3410,4710 2750,4710 2750,3433 Z M 2771,3473 L 3389,3473 3389,4670 2771,4670 2771,3473 Z"/>
               <path fill="rgb(214,214,214)" stroke="none" d="M 2771,3473 L 3389,3473 3389,4670 2771,4670 2771,3473 Z M 2792,3513 L 3368,3513 3368,4630 2792,4630 2792,3513 Z"/>
               <path fill="rgb(215,215,215)" stroke="none" d="M 2792,3513 L 3368,3513 3368,4630 2792,4630 2792,3513 Z M 2812,3553 L 3348,3553 3348,4590 2812,4590 2812,3553 Z"/>
               <path fill="rgb(216,216,216)" stroke="none" d="M 2812,3553 L 3348,3553 3348,4590 2812,4590 2812,3553 Z M 2833,3593 L 3327,3593 3327,4550 2833,4550 2833,3593 Z"/>
               <path fill="rgb(217,217,217)" stroke="none" d="M 2833,3593 L 3327,3593 3327,4550 2833,4550 2833,3593 Z M 2853,3633 L 3307,3633 3307,4510 2853,4510 2853,3633 Z"/>
               <path fill="rgb(218,218,218)" stroke="none" d="M 2853,3633 L 3307,3633 3307,4510 2853,4510 2853,3633 Z M 2874,3673 L 3286,3673 3286,4470 2874,4470 2874,3673 Z"/>
               <path fill="rgb(219,219,219)" stroke="none" d="M 2874,3673 L 3286,3673 3286,4470 2874,4470 2874,3673 Z M 2895,3713 L 3265,3713 3265,4430 2895,4430 2895,3713 Z"/>
               <path fill="rgb(220,220,220)" stroke="none" d="M 2895,3713 L 3265,3713 3265,4430 2895,4430 2895,3713 Z M 2915,3753 L 3245,3753 3245,4390 2915,4390 2915,3753 Z"/>
               <path fill="rgb(221,221,221)" stroke="none" d="M 2915,3753 L 3245,3753 3245,4390 2915,4390 2915,3753 Z M 2936,3792 L 3224,3792 3224,4351 2936,4351 2936,3792 Z"/>
               <path fill="rgb(222,222,222)" stroke="none" d="M 2936,3792 L 3224,3792 3224,4351 2936,4351 2936,3792 Z M 2957,3832 L 3203,3832 3203,4311 2957,4311 2957,3832 Z"/>
               <path fill="rgb(223,223,223)" stroke="none" d="M 2957,3832 L 3203,3832 3203,4311 2957,4311 2957,3832 Z M 2977,3872 L 3183,3872 3183,4271 2977,4271 2977,3872 Z"/>
               <path fill="rgb(224,224,224)" stroke="none" d="M 2977,3872 L 3183,3872 3183,4271 2977,4271 2977,3872 Z M 2998,3912 L 3162,3912 3162,4231 2998,4231 2998,3912 Z"/>
               <path fill="rgb(225,225,225)" stroke="none" d="M 2998,3912 L 3162,3912 3162,4231 2998,4231 2998,3912 Z M 3019,3952 L 3141,3952 3141,4191 3019,4191 3019,3952 Z"/>
               <path fill="rgb(226,226,226)" stroke="none" d="M 3019,3952 L 3141,3952 3141,4191 3019,4191 3019,3952 Z M 3039,3992 L 3121,3992 3121,4151 3039,4151 3039,3992 Z"/>
               <path fill="rgb(227,227,227)" stroke="none" d="M 3039,3992 L 3121,3992 3121,4151 3039,4151 3039,3992 Z M 3060,4032 L 3100,4032 3100,4111 3060,4111 3060,4032 Z"/>
               <path fill="rgb(229,229,229)" stroke="none" d="M 3060,4032 L 3100,4032 3100,4111 3060,4111 3060,4032 Z"/>
              </g>
             </g>
            </pattern>
           </defs>
           <path style="fill:url(#pattern1)" d="M 2463,6866 L 2463,4066 4524,2876 4524,5676 2463,6866 Z"/>
          </g>
          <path fill="none" stroke="rgb(255,255,255)" stroke-width="40" stroke-linejoin="round" d="M 2463,6866 L 2463,4066 4524,2876 4524,5676 2463,6866 Z"/>
         </g>
        </g>
        <g class="com.sun.star.drawing.PolyPolygonShape">
         <g id="id6">
          <rect class="BoundingBox" stroke="none" fill="none" x="988" y="2016" width="3557" height="2071"/>
          <g>
           <defs>
            <linearGradient id="gradient2" x1="2766" y1="2036" x2="2766" y2="4066" gradientUnits="userSpaceOnUse">
             <stop offset="0.1" style="stop-color:rgb(179,179,179)"/>
             <stop offset="1" style="stop-color:rgb(229,229,229)"/>
            </linearGradient>
           </defs>
           <path style="fill:url(#gradient2)" d="M 2463,4066 L 1008,3226 3069,2036 4524,2876 2463,4066 Z"/>
          </g>
          <path fill="none" stroke="rgb(255,255,255)" stroke-width="40" stroke-linejoin="round" d="M 2463,4066 L 1008,3226 3069,2036 4524,2876 2463,4066 Z"/>
         </g>
        </g>
        <g class="com.sun.star.drawing.PolyPolygonShape">
         <g id="id7">
          <rect class="BoundingBox" stroke="none" fill="none" x="988" y="2016" width="3557" height="4871"/>
          <path fill="none" stroke="rgb(0,0,0)" stroke-width="40" stroke-linejoin="round" d="M 1008,6026 L 1008,3226 3069,2036 4524,2876 4524,5676 2463,6866 1008,6026 Z"/>
         </g>
        </g>
        <g class="com.sun.star.drawing.LineShape">
         <g id="id8">
          <rect class="BoundingBox" stroke="none" fill="none" x="1230" y="5586" width="1012" height="601"/>
          <path fill="none" stroke="rgb(128,128,128)" stroke-width="40" stroke-linejoin="round" d="M 2220,6166 L 1250,5606"/>
         </g>
        </g>
        <g class="com.sun.star.drawing.LineShape">
         <g id="id9">
          <rect class="BoundingBox" stroke="none" fill="none" x="1230" y="5866" width="1011" height="602"/>
          <path fill="none" stroke="rgb(128,128,128)" stroke-width="40" stroke-linejoin="round" d="M 2220,6446 L 1250,5886"/>
         </g>
        </g>
        <g class="com.sun.star.drawing.LineShape">
         <g id="id10">
          <rect class="BoundingBox" stroke="none" fill="none" x="1230" y="5726" width="1011" height="601"/>
          <path fill="none" stroke="rgb(128,128,128)" stroke-width="40" stroke-linejoin="round" d="M 2220,6306 L 1250,5746"/>
         </g>
        </g>
        <g class="com.sun.star.drawing.PolyLineShape">
         <g id="id11">
          <rect class="BoundingBox" stroke="none" fill="none" x="1109" y="3626" width="1253" height="882"/>
          <path fill="none" stroke="rgb(255,255,255)" stroke-width="40" stroke-linejoin="round" d="M 2341,4486 L 1129,3786 1129,3646"/>
         </g>
        </g>
        <g class="com.sun.star.drawing.PolyLineShape">
         <g id="id12">
          <rect class="BoundingBox" stroke="none" fill="none" x="1130" y="3623" width="1232" height="885"/>
          <path fill="none" stroke="rgb(128,128,128)" stroke-width="40" stroke-linejoin="round" d="M 2341,4486 L 2341,4346 1150,3643"/>
         </g>
        </g>
        <g class="com.sun.star.drawing.PolyPolygonShape">
         <g id="id13">
          <rect class="BoundingBox" stroke="none" fill="none" x="1558" y="5023" width="184" height="288"/>
          <path fill="rgb(57,181,74)" stroke="none" d="M 1578,5208 L 1578,5043 1720,5125 1720,5290 1578,5208 Z"/>
          <path fill="none" stroke="rgb(128,128,128)" stroke-width="40" stroke-linejoin="round" d="M 1578,5208 L 1578,5043 1720,5125 1720,5290 1578,5208 Z"/>
         </g>
        </g>
        <g class="com.sun.star.drawing.LineShape">
         <g id="id14">
          <rect class="BoundingBox" stroke="none" fill="none" x="1230" y="5446" width="1011" height="602"/>
          <path fill="none" stroke="rgb(128,128,128)" stroke-width="40" stroke-linejoin="round" d="M 2220,6026 L 1250,5466"/>
         </g>
        </g>
       </g>
      </g>
      <g class="Group">
       <g class="com.sun.star.drawing.ClosedBezierShape">
        <g id="id15">
         <rect class="BoundingBox" stroke="none" fill="none" x="9261" y="5372" width="2511" height="1473"/>
         <path fill="rgb(221,221,221)" stroke="none" d="M 9262,6843 C 9972,6843 11085,6379 11565,6073 12045,5767 11565,5373 11323,5373 L 9262,6843 Z"/>
         <path fill="none" stroke="rgb(221,221,221)" d="M 9262,6843 C 9972,6843 11085,6379 11565,6073 12045,5767 11565,5373 11323,5373 L 9262,6843 Z"/>
        </g>
       </g>
       <g class="Group">
        <g class="com.sun.star.drawing.PolyPolygonShape">
         <g id="id16">
          <rect class="BoundingBox" stroke="none" fill="none" x="7787" y="3183" width="1497" height="3681"/>
          <g>
           <defs>
            <linearGradient id="gradient3" x1="8534" y1="6843" x2="8534" y2="3203" gradientUnits="userSpaceOnUse">
             <stop offset="0.1" style="stop-color:rgb(179,179,179)"/>
             <stop offset="1" style="stop-color:rgb(229,229,229)"/>
            </linearGradient>
           </defs>
           <path style="fill:url(#gradient3)" d="M 7807,6003 L 7807,3203 9262,4043 9262,6843 7807,6003 Z"/>
          </g>
          <path fill="none" stroke="rgb(255,255,255)" stroke-width="40" stroke-linejoin="round" d="M 7807,6003 L 7807,3203 9262,4043 9262,6843 7807,6003 Z"/>
         </g>
        </g>
        <g class="com.sun.star.drawing.PolyPolygonShape">
         <g id="id17">
          <rect class="BoundingBox" stroke="none" fill="none" x="9242" y="2833" width="2102" height="4031"/>
          <g>
           <defs>
            <pattern id="pattern2" x="9262" y="2853" width="2062" height="3991" patternUnits="userSpaceOnUse">
             <g transform="translate(-9262,-2853)">
              <defs>
               <clipPath id="clip_path_2" clipPathUnits="userSpaceOnUse">
                <path d="M 9260,2858 L 11324,2858 11324,6853 9260,6853 9260,2858 Z"/>
               </clipPath>
              </defs>
              <g clip-path="url(#clip_path_2)">
               <path fill="rgb(179,179,179)" stroke="none" d="M 9261,2852 L 11324,2852 11324,6844 9261,6844 9261,2852 Z M 8869,2093 L 10890,2093 10890,6005 8869,6005 8869,2093 Z"/>
               <path fill="rgb(180,180,180)" stroke="none" d="M 8869,2093 L 10890,2093 10890,6005 8869,6005 8869,2093 Z M 8890,2133 L 10869,2133 10869,5965 8890,5965 8890,2133 Z"/>
               <path fill="rgb(181,181,181)" stroke="none" d="M 8890,2133 L 10869,2133 10869,5965 8890,5965 8890,2133 Z M 8910,2173 L 10849,2173 10849,5925 8910,5925 8910,2173 Z"/>
               <path fill="rgb(182,182,182)" stroke="none" d="M 8910,2173 L 10849,2173 10849,5925 8910,5925 8910,2173 Z M 8931,2213 L 10828,2213 10828,5885 8931,5885 8931,2213 Z"/>
               <path fill="rgb(183,183,183)" stroke="none" d="M 8931,2213 L 10828,2213 10828,5885 8931,5885 8931,2213 Z M 8952,2253 L 10807,2253 10807,5845 8952,5845 8952,2253 Z"/>
               <path fill="rgb(184,184,184)" stroke="none" d="M 8952,2253 L 10807,2253 10807,5845 8952,5845 8952,2253 Z M 8972,2293 L 10787,2293 10787,5805 8972,5805 8972,2293 Z"/>
               <path fill="rgb(185,185,185)" stroke="none" d="M 8972,2293 L 10787,2293 10787,5805 8972,5805 8972,2293 Z M 8993,2333 L 10766,2333 10766,5765 8993,5765 8993,2333 Z"/>
               <path fill="rgb(186,186,186)" stroke="none" d="M 8993,2333 L 10766,2333 10766,5765 8993,5765 8993,2333 Z M 9014,2373 L 10745,2373 10745,5725 9014,5725 9014,2373 Z"/>
               <path fill="rgb(187,187,187)" stroke="none" d="M 9014,2373 L 10745,2373 10745,5725 9014,5725 9014,2373 Z M 9034,2413 L 10725,2413 10725,5685 9034,5685 9034,2413 Z"/>
               <path fill="rgb(188,188,188)" stroke="none" d="M 9034,2413 L 10725,2413 10725,5685 9034,5685 9034,2413 Z M 9055,2453 L 10704,2453 10704,5645 9055,5645 9055,2453 Z"/>
               <path fill="rgb(189,189,189)" stroke="none" d="M 9055,2453 L 10704,2453 10704,5645 9055,5645 9055,2453 Z M 9076,2493 L 10683,2493 10683,5605 9076,5605 9076,2493 Z"/>
               <path fill="rgb(190,190,190)" stroke="none" d="M 9076,2493 L 10683,2493 10683,5605 9076,5605 9076,2493 Z M 9096,2533 L 10663,2533 10663,5565 9096,5565 9096,2533 Z"/>
               <path fill="rgb(191,191,191)" stroke="none" d="M 9096,2533 L 10663,2533 10663,5565 9096,5565 9096,2533 Z M 9117,2573 L 10642,2573 10642,5525 9117,5525 9117,2573 Z"/>
               <path fill="rgb(192,192,192)" stroke="none" d="M 9117,2573 L 10642,2573 10642,5525 9117,5525 9117,2573 Z M 9137,2613 L 10622,2613 10622,5485 9137,5485 9137,2613 Z"/>
               <path fill="rgb(193,193,193)" stroke="none" d="M 9137,2613 L 10622,2613 10622,5485 9137,5485 9137,2613 Z M 9158,2652 L 10601,2652 10601,5446 9158,5446 9158,2652 Z"/>
               <path fill="rgb(194,194,194)" stroke="none" d="M 9158,2652 L 10601,2652 10601,5446 9158,5446 9158,2652 Z M 9179,2692 L 10580,2692 10580,5406 9179,5406 9179,2692 Z"/>
               <path fill="rgb(195,195,195)" stroke="none" d="M 9179,2692 L 10580,2692 10580,5406 9179,5406 9179,2692 Z M 9199,2732 L 10560,2732 10560,5366 9199,5366 9199,2732 Z"/>
               <path fill="rgb(196,196,196)" stroke="none" d="M 9199,2732 L 10560,2732 10560,5366 9199,5366 9199,2732 Z M 9220,2772 L 10539,2772 10539,5326 9220,5326 9220,2772 Z"/>
               <path fill="rgb(197,197,197)" stroke="none" d="M 9220,2772 L 10539,2772 10539,5326 9220,5326 9220,2772 Z M 9241,2812 L 10518,2812 10518,5286 9241,5286 9241,2812 Z"/>
               <path fill="rgb(198,198,198)" stroke="none" d="M 9241,2812 L 10518,2812 10518,5286 9241,5286 9241,2812 Z M 9260,2851 L 10498,2851 10498,5246 9260,5246 9260,2851 Z"/>
               <path fill="rgb(199,199,199)" stroke="none" d="M 9260,2851 L 10498,2851 10498,5246 9260,5246 9260,2851 Z M 9281,2891 L 10477,2891 10477,5206 9281,5206 9281,2891 Z"/>
               <path fill="rgb(200,200,200)" stroke="none" d="M 9281,2891 L 10477,2891 10477,5206 9281,5206 9281,2891 Z M 9302,2931 L 10456,2931 10456,5166 9302,5166 9302,2931 Z"/>
               <path fill="rgb(201,201,201)" stroke="none" d="M 9302,2931 L 10456,2931 10456,5166 9302,5166 9302,2931 Z M 9322,2971 L 10436,2971 10436,5126 9322,5126 9322,2971 Z"/>
               <path fill="rgb(202,202,202)" stroke="none" d="M 9322,2971 L 10436,2971 10436,5126 9322,5126 9322,2971 Z M 9343,3011 L 10415,3011 10415,5086 9343,5086 9343,3011 Z"/>
               <path fill="rgb(203,203,203)" stroke="none" d="M 9343,3011 L 10415,3011 10415,5086 9343,5086 9343,3011 Z M 9363,3051 L 10394,3051 10394,5046 9363,5046 9363,3051 Z"/>
               <path fill="rgb(204,204,204)" stroke="none" d="M 9363,3051 L 10394,3051 10394,5046 9363,5046 9363,3051 Z M 9384,3091 L 10374,3091 10374,5006 9384,5006 9384,3091 Z"/>
               <path fill="rgb(205,205,205)" stroke="none" d="M 9384,3091 L 10374,3091 10374,5006 9384,5006 9384,3091 Z M 9405,3131 L 10353,3131 10353,4966 9405,4966 9405,3131 Z"/>
               <path fill="rgb(206,206,206)" stroke="none" d="M 9405,3131 L 10353,3131 10353,4966 9405,4966 9405,3131 Z M 9425,3171 L 10333,3171 10333,4926 9425,4926 9425,3171 Z"/>
               <path fill="rgb(207,207,207)" stroke="none" d="M 9425,3171 L 10333,3171 10333,4926 9425,4926 9425,3171 Z M 9446,3210 L 10312,3210 10312,4887 9446,4887 9446,3210 Z"/>
               <path fill="rgb(208,208,208)" stroke="none" d="M 9446,3210 L 10312,3210 10312,4887 9446,4887 9446,3210 Z M 9467,3250 L 10291,3250 10291,4847 9467,4847 9467,3250 Z"/>
               <path fill="rgb(209,209,209)" stroke="none" d="M 9467,3250 L 10291,3250 10291,4847 9467,4847 9467,3250 Z M 9487,3290 L 10271,3290 10271,4807 9487,4807 9487,3290 Z"/>
               <path fill="rgb(210,210,210)" stroke="none" d="M 9487,3290 L 10271,3290 10271,4807 9487,4807 9487,3290 Z M 9508,3330 L 10250,3330 10250,4767 9508,4767 9508,3330 Z"/>
               <path fill="rgb(211,211,211)" stroke="none" d="M 9508,3330 L 10250,3330 10250,4767 9508,4767 9508,3330 Z M 9529,3370 L 10229,3370 10229,4727 9529,4727 9529,3370 Z"/>
               <path fill="rgb(212,212,212)" stroke="none" d="M 9529,3370 L 10229,3370 10229,4727 9529,4727 9529,3370 Z M 9549,3410 L 10209,3410 10209,4687 9549,4687 9549,3410 Z"/>
               <path fill="rgb(213,213,213)" stroke="none" d="M 9549,3410 L 10209,3410 10209,4687 9549,4687 9549,3410 Z M 9570,3450 L 10188,3450 10188,4647 9570,4647 9570,3450 Z"/>
               <path fill="rgb(214,214,214)" stroke="none" d="M 9570,3450 L 10188,3450 10188,4647 9570,4647 9570,3450 Z M 9591,3490 L 10167,3490 10167,4607 9591,4607 9591,3490 Z"/>
               <path fill="rgb(215,215,215)" stroke="none" d="M 9591,3490 L 10167,3490 10167,4607 9591,4607 9591,3490 Z M 9611,3530 L 10147,3530 10147,4567 9611,4567 9611,3530 Z"/>
               <path fill="rgb(216,216,216)" stroke="none" d="M 9611,3530 L 10147,3530 10147,4567 9611,4567 9611,3530 Z M 9632,3570 L 10126,3570 10126,4527 9632,4527 9632,3570 Z"/>
               <path fill="rgb(217,217,217)" stroke="none" d="M 9632,3570 L 10126,3570 10126,4527 9632,4527 9632,3570 Z M 9652,3610 L 10106,3610 10106,4487 9652,4487 9652,3610 Z"/>
               <path fill="rgb(218,218,218)" stroke="none" d="M 9652,3610 L 10106,3610 10106,4487 9652,4487 9652,3610 Z M 9673,3650 L 10085,3650 10085,4447 9673,4447 9673,3650 Z"/>
               <path fill="rgb(219,219,219)" stroke="none" d="M 9673,3650 L 10085,3650 10085,4447 9673,4447 9673,3650 Z M 9694,3690 L 10064,3690 10064,4407 9694,4407 9694,3690 Z"/>
               <path fill="rgb(220,220,220)" stroke="none" d="M 9694,3690 L 10064,3690 10064,4407 9694,4407 9694,3690 Z M 9714,3730 L 10044,3730 10044,4367 9714,4367 9714,3730 Z"/>
               <path fill="rgb(221,221,221)" stroke="none" d="M 9714,3730 L 10044,3730 10044,4367 9714,4367 9714,3730 Z M 9735,3769 L 10023,3769 10023,4328 9735,4328 9735,3769 Z"/>
               <path fill="rgb(222,222,222)" stroke="none" d="M 9735,3769 L 10023,3769 10023,4328 9735,4328 9735,3769 Z M 9756,3809 L 10002,3809 10002,4288 9756,4288 9756,3809 Z"/>
               <path fill="rgb(223,223,223)" stroke="none" d="M 9756,3809 L 10002,3809 10002,4288 9756,4288 9756,3809 Z M 9776,3849 L 9982,3849 9982,4248 9776,4248 9776,3849 Z"/>
               <path fill="rgb(224,224,224)" stroke="none" d="M 9776,3849 L 9982,3849 9982,4248 9776,4248 9776,3849 Z M 9797,3889 L 9961,3889 9961,4208 9797,4208 9797,3889 Z"/>
               <path fill="rgb(225,225,225)" stroke="none" d="M 9797,3889 L 9961,3889 9961,4208 9797,4208 9797,3889 Z M 9818,3929 L 9940,3929 9940,4168 9818,4168 9818,3929 Z"/>
               <path fill="rgb(226,226,226)" stroke="none" d="M 9818,3929 L 9940,3929 9940,4168 9818,4168 9818,3929 Z M 9838,3969 L 9920,3969 9920,4128 9838,4128 9838,3969 Z"/>
               <path fill="rgb(227,227,227)" stroke="none" d="M 9838,3969 L 9920,3969 9920,4128 9838,4128 9838,3969 Z M 9859,4009 L 9899,4009 9899,4088 9859,4088 9859,4009 Z"/>
               <path fill="rgb(229,229,229)" stroke="none" d="M 9859,4009 L 9899,4009 9899,4088 9859,4088 9859,4009 Z"/>
              </g>
             </g>
            </pattern>
           </defs>
           <path style="fill:url(#pattern2)" d="M 9262,6843 L 9262,4043 11323,2853 11323,5653 9262,6843 Z"/>
          </g>
          <path fill="none" stroke="rgb(255,255,255)" stroke-width="40" stroke-linejoin="round" d="M 9262,6843 L 9262,4043 11323,2853 11323,5653 9262,6843 Z"/>
         </g>
        </g>
        <g class="com.sun.star.drawing.PolyPolygonShape">
         <g id="id18">
          <rect class="BoundingBox" stroke="none" fill="none" x="7787" y="1993" width="3557" height="2071"/>
          <g>
           <defs>
            <linearGradient id="gradient4" x1="9565" y1="2013" x2="9565" y2="4043" gradientUnits="userSpaceOnUse">
             <stop offset="0.1" style="stop-color:rgb(179,179,179)"/>
             <stop offset="1" style="stop-color:rgb(229,229,229)"/>
            </linearGradient>
           </defs>
           <path style="fill:url(#gradient4)" d="M 9262,4043 L 7807,3203 9868,2013 11323,2853 9262,4043 Z"/>
          </g>
          <path fill="none" stroke="rgb(255,255,255)" stroke-width="40" stroke-linejoin="round" d="M 9262,4043 L 7807,3203 9868,2013 11323,2853 9262,4043 Z"/>
         </g>
        </g>
        <g class="com.sun.star.drawing.PolyPolygonShape">
         <g id="id19">
          <rect class="BoundingBox" stroke="none" fill="none" x="7787" y="1993" width="3557" height="4871"/>
          <path fill="none" stroke="rgb(0,0,0)" stroke-width="40" stroke-linejoin="round" d="M 7807,6003 L 7807,3203 9868,2013 11323,2853 11323,5653 9262,6843 7807,6003 Z"/>
         </g>
        </g>
        <g class="com.sun.star.drawing.LineShape">
         <g id="id20">
          <rect class="BoundingBox" stroke="none" fill="none" x="8029" y="5563" width="1012" height="601"/>
          <path fill="none" stroke="rgb(128,128,128)" stroke-width="40" stroke-linejoin="round" d="M 9019,6143 L 8049,5583"/>
         </g>
        </g>
        <g class="com.sun.star.drawing.LineShape">
         <g id="id21">
          <rect class="BoundingBox" stroke="none" fill="none" x="8029" y="5843" width="1011" height="602"/>
          <path fill="none" stroke="rgb(128,128,128)" stroke-width="40" stroke-linejoin="round" d="M 9019,6423 L 8049,5863"/>
         </g>
        </g>
        <g class="com.sun.star.drawing.LineShape">
         <g id="id22">
          <rect class="BoundingBox" stroke="none" fill="none" x="8029" y="5703" width="1011" height="601"/>
          <path fill="none" stroke="rgb(128,128,128)" stroke-width="40" stroke-linejoin="round" d="M 9019,6283 L 8049,5723"/>
         </g>
        </g>
        <g class="com.sun.star.drawing.PolyLineShape">
         <g id="id23">
          <rect class="BoundingBox" stroke="none" fill="none" x="7908" y="3603" width="1253" height="882"/>
          <path fill="none" stroke="rgb(255,255,255)" stroke-width="40" stroke-linejoin="round" d="M 9140,4463 L 7928,3763 7928,3623"/>
         </g>
        </g>
        <g class="com.sun.star.drawing.PolyLineShape">
         <g id="id24">
          <rect class="BoundingBox" stroke="none" fill="none" x="7929" y="3600" width="1232" height="885"/>
          <path fill="none" stroke="rgb(128,128,128)" stroke-width="40" stroke-linejoin="round" d="M 9140,4463 L 9140,4323 7949,3620"/>
         </g>
        </g>
        <g class="com.sun.star.drawing.PolyPolygonShape">
         <g id="id25">
          <rect class="BoundingBox" stroke="none" fill="none" x="8357" y="5000" width="184" height="288"/>
          <path fill="rgb(57,181,74)" stroke="none" d="M 8377,5185 L 8377,5020 8519,5102 8519,5267 8377,5185 Z"/>
          <path fill="none" stroke="rgb(128,128,128)" stroke-width="40" stroke-linejoin="round" d="M 8377,5185 L 8377,5020 8519,5102 8519,5267 8377,5185 Z"/>
         </g>
        </g>
        <g class="com.sun.star.drawing.LineShape">
         <g id="id26">
          <rect class="BoundingBox" stroke="none" fill="none" x="8029" y="5423" width="1011" height="602"/>
          <path fill="none" stroke="rgb(128,128,128)" stroke-width="40" stroke-linejoin="round" d="M 9019,6003 L 8049,5443"/>
         </g>
        </g>
       </g>
      </g>
      <g class="TextShape">
       <g id="id27">
        <rect class="BoundingBox" stroke="none" fill="none" x="1600" y="1150" width="2861" height="963"/>
        <text class="SVGTextShape"><tspan class="TextParagraph" font-family="Liberation Sans, sans-serif" font-size="635px" font-weight="400"><tspan class="TextPosition" x="1850" y="1851"><tspan fill="rgb(0,0,0)" stroke="none" style="white-space: pre">Primário</tspan></tspan></tspan></text>
       </g>
      </g>
      <g class="TextShape">
       <g id="id28">
        <rect class="BoundingBox" stroke="none" fill="none" x="8100" y="1100" width="3602" height="963"/>
        <text class="SVGTextShape"><tspan class="TextParagraph" font-family="Liberation Sans, sans-serif" font-size="635px" font-weight="400"><tspan class="TextPosition" x="8350" y="1801"><tspan fill="rgb(0,0,0)" stroke="none" style="white-space: pre">Em-espera</tspan></tspan></tspan></text>
       </g>
      </g>
      <g class="TextShape">
       <g id="id29">
        <rect class="BoundingBox" stroke="none" fill="none" x="4600" y="3750" width="3107" height="963"/>
        <text class="SVGTextShape"><tspan class="TextParagraph" font-family="Liberation Sans, sans-serif" font-size="635px" font-weight="400"><tspan class="TextPosition" x="4850" y="4451"><tspan fill="rgb(0,0,0)" stroke="none" style="white-space: pre">Pulsação</tspan></tspan></tspan></text>
       </g>
      </g>
      <g class="Group">
       <g class="com.sun.star.drawing.ClosedBezierShape">
        <g id="id30">
         <rect class="BoundingBox" stroke="none" fill="none" x="165" y="7483" width="11856" height="866"/>
         <g>
          <defs>
           <linearGradient id="gradient5" x1="6092" y1="7503" x2="6092" y2="8328" gradientUnits="userSpaceOnUse">
            <stop offset="0" style="stop-color:rgb(0,115,188)"/>
            <stop offset="0.5" style="stop-color:rgb(127,185,221)"/>
            <stop offset="1" style="stop-color:rgb(0,115,188)"/>
           </linearGradient>
          </defs>
          <path style="fill:url(#gradient5)" d="M 12000,7915 L 11997,7873 11990,7833 11977,7793 11961,7756 11939,7720 11914,7686 11886,7654 11853,7625 11818,7598 11780,7574 11739,7553 11695,7536 11650,7522 11602,7511 11554,7505 11503,7503 684,7503 633,7505 584,7511 537,7522 491,7536 448,7553 407,7574 368,7598 333,7625 300,7654 271,7686 246,7720 225,7756 208,7793 195,7833 188,7873 185,7915 188,7957 195,7998 208,8037 225,8075 246,8111 271,8145 300,8177 333,8206 368,8233 407,8257 448,8278 491,8295 537,8309 584,8320 633,8326 684,8328 11503,8328 11554,8326 11602,8319 11650,8309 11695,8295 11739,8278 11780,8257 11818,8233 11853,8206 11886,8176 11914,8145 11939,8110 11961,8074 11977,8037 11990,7997 11997,7957 12000,7915 Z"/>
         </g>
         <path fill="none" stroke="rgb(0,0,0)" stroke-width="40" stroke-linejoin="round" d="M 12000,7915 C 12000,7690 11774,7503 11503,7503 L 684,7503 C 413,7503 185,7690 185,7915 185,8141 413,8328 684,8328 L 11503,8328 C 11774,8328 12000,8140 12000,7915 Z"/>
         <text class="SVGTextShape"><tspan class="TextParagraph" font-family="Arial Narrow, sans-serif" font-size="353px" font-style="italic" font-weight="700"><tspan class="TextPosition" x="5736" y="7994"><tspan fill="rgb(255,255,255)" stroke="none" style="white-space: pre">Rede</tspan></tspan></tspan></text>
        </g>
       </g>
       <g class="com.sun.star.drawing.ClosedBezierShape">
        <g id="id31">
         <rect class="BoundingBox" stroke="none" fill="none" x="165" y="7483" width="11856" height="866"/>
         <g>
          <defs>
           <linearGradient id="gradient6" x1="11503" y1="7503" x2="11503" y2="8328" gradientUnits="userSpaceOnUse">
            <stop offset="0" style="stop-color:rgb(0,115,188)"/>
            <stop offset="0.5" style="stop-color:rgb(127,185,221)"/>
            <stop offset="1" style="stop-color:rgb(0,115,188)"/>
           </linearGradient>
          </defs>
          <path style="fill:url(#gradient6)" d="M 12000,7915 L 11997,7873 11990,7833 11977,7793 11961,7756 11939,7720 11914,7686 11886,7654 11853,7625 11818,7598 11780,7574 11739,7553 11695,7536 11650,7522 11602,7511 11554,7505 11503,7503 11453,7505 11404,7511 11357,7522 11311,7536 11268,7553 11227,7574 11189,7598 11153,7625 11121,7654 11092,7686 11067,7720 11046,7756 11029,7793 11017,7833 11009,7873 11007,7915 11009,7957 11017,7998 11029,8037 11046,8075 11067,8111 11092,8145 11121,8177 11153,8206 11189,8233 11227,8257 11268,8278 11311,8295 11357,8309 11404,8320 11453,8326 11503,8328 11554,8326 11602,8319 11650,8309 11695,8295 11739,8278 11780,8257 11818,8233 11853,8206 11886,8176 11914,8145 11939,8110 11961,8074 11977,8037 11990,7997 11997,7957 12000,7915 Z"/>
         </g>
         <path fill="none" stroke="rgb(0,0,0)" stroke-width="40" stroke-linejoin="round" d="M 12000,7915 C 12000,7690 11774,7503 11503,7503 11232,7503 11007,7690 11007,7915 11007,8141 11232,8328 11503,8328 11774,8328 12000,8140 12000,7915 Z"/>
        </g>
       </g>
      </g>
      <g class="com.sun.star.drawing.LineShape">
       <g id="id32">
        <rect class="BoundingBox" stroke="none" fill="none" x="1799" y="6499" width="3" height="1003"/>
        <path fill="none" stroke="rgb(52,101,164)" d="M 1800,6500 L 1800,7500"/>
       </g>
      </g>
      <g class="com.sun.star.drawing.LineShape">
       <g id="id33">
        <rect class="BoundingBox" stroke="none" fill="none" x="8699" y="6499" width="3" height="1003"/>
        <path fill="none" stroke="rgb(52,101,164)" d="M 8700,6500 L 8700,7500"/>
       </g>
      </g>
      <g class="com.sun.star.drawing.LineShape">
       <g id="id34">
        <rect class="BoundingBox" stroke="none" fill="none" x="4500" y="4500" width="3251" height="301"/>
        <path fill="none" stroke="rgb(52,101,164)" d="M 4780,4650 L 7470,4650"/>
        <path fill="rgb(52,101,164)" stroke="none" d="M 4800,4800 L 4500,4650 4800,4500 4800,4800 Z"/>
        <path fill="rgb(52,101,164)" stroke="none" d="M 7450,4500 L 7750,4650 7450,4800 7450,4500 Z"/>
       </g>
      </g>
      <g class="Group">
       <g class="com.sun.star.drawing.ClosedBezierShape">
        <g id="id35">
         <rect class="BoundingBox" stroke="none" fill="none" x="18463" y="5405" width="2511" height="1473"/>
         <path fill="rgb(221,221,221)" stroke="none" d="M 18464,6876 C 19174,6876 20287,6412 20767,6106 21247,5800 20767,5406 20525,5406 L 18464,6876 Z"/>
         <path fill="none" stroke="rgb(221,221,221)" d="M 18464,6876 C 19174,6876 20287,6412 20767,6106 21247,5800 20767,5406 20525,5406 L 18464,6876 Z"/>
        </g>
       </g>
       <g class="Group">
        <g class="com.sun.star.drawing.PolyPolygonShape">
         <g id="id36">
          <rect class="BoundingBox" stroke="none" fill="none" x="16989" y="3216" width="1497" height="3681"/>
          <g>
           <defs>
            <linearGradient id="gradient7" x1="17736" y1="6876" x2="17736" y2="3236" gradientUnits="userSpaceOnUse">
             <stop offset="0.1" style="stop-color:rgb(179,179,179)"/>
             <stop offset="1" style="stop-color:rgb(229,229,229)"/>
            </linearGradient>
           </defs>
           <path style="fill:url(#gradient7)" d="M 17009,6036 L 17009,3236 18464,4076 18464,6876 17009,6036 Z"/>
          </g>
          <path fill="none" stroke="rgb(255,255,255)" stroke-width="40" stroke-linejoin="round" d="M 17009,6036 L 17009,3236 18464,4076 18464,6876 17009,6036 Z"/>
         </g>
        </g>
        <g class="com.sun.star.drawing.PolyPolygonShape">
         <g id="id37">
          <rect class="BoundingBox" stroke="none" fill="none" x="18444" y="2866" width="2102" height="4031"/>
          <g>
           <defs>
            <pattern id="pattern3" x="18464" y="2886" width="2062" height="3991" patternUnits="userSpaceOnUse">
             <g transform="translate(-18464,-2886)">
              <defs>
               <clipPath id="clip_path_3" clipPathUnits="userSpaceOnUse">
                <path d="M 18468,2884 L 20532,2884 20532,6879 18468,6879 18468,2884 Z"/>
               </clipPath>
              </defs>
              <g clip-path="url(#clip_path_3)">
               <path fill="rgb(179,179,179)" stroke="none" d="M 18463,2885 L 20526,2885 20526,6877 18463,6877 18463,2885 Z M 18071,2126 L 20092,2126 20092,6038 18071,6038 18071,2126 Z"/>
               <path fill="rgb(180,180,180)" stroke="none" d="M 18071,2126 L 20092,2126 20092,6038 18071,6038 18071,2126 Z M 18092,2166 L 20071,2166 20071,5998 18092,5998 18092,2166 Z"/>
               <path fill="rgb(181,181,181)" stroke="none" d="M 18092,2166 L 20071,2166 20071,5998 18092,5998 18092,2166 Z M 18112,2206 L 20051,2206 20051,5958 18112,5958 18112,2206 Z"/>
               <path fill="rgb(182,182,182)" stroke="none" d="M 18112,2206 L 20051,2206 20051,5958 18112,5958 18112,2206 Z M 18133,2246 L 20030,2246 20030,5918 18133,5918 18133,2246 Z"/>
               <path fill="rgb(183,183,183)" stroke="none" d="M 18133,2246 L 20030,2246 20030,5918 18133,5918 18133,2246 Z M 18154,2286 L 20009,2286 20009,5878 18154,5878 18154,2286 Z"/>
               <path fill="rgb(184,184,184)" stroke="none" d="M 18154,2286 L 20009,2286 20009,5878 18154,5878 18154,2286 Z M 18174,2326 L 19989,2326 19989,5838 18174,5838 18174,2326 Z"/>
               <path fill="rgb(185,185,185)" stroke="none" d="M 18174,2326 L 19989,2326 19989,5838 18174,5838 18174,2326 Z M 18195,2366 L 19968,2366 19968,5798 18195,5798 18195,2366 Z"/>
               <path fill="rgb(186,186,186)" stroke="none" d="M 18195,2366 L 19968,2366 19968,5798 18195,5798 18195,2366 Z M 18216,2406 L 19947,2406 19947,5758 18216,5758 18216,2406 Z"/>
               <path fill="rgb(187,187,187)" stroke="none" d="M 18216,2406 L 19947,2406 19947,5758 18216,5758 18216,2406 Z M 18236,2446 L 19927,2446 19927,5718 18236,5718 18236,2446 Z"/>
               <path fill="rgb(188,188,188)" stroke="none" d="M 18236,2446 L 19927,2446 19927,5718 18236,5718 18236,2446 Z M 18257,2486 L 19906,2486 19906,5678 18257,5678 18257,2486 Z"/>
               <path fill="rgb(189,189,189)" stroke="none" d="M 18257,2486 L 19906,2486 19906,5678 18257,5678 18257,2486 Z M 18278,2526 L 19885,2526 19885,5638 18278,5638 18278,2526 Z"/>
               <path fill="rgb(190,190,190)" stroke="none" d="M 18278,2526 L 19885,2526 19885,5638 18278,5638 18278,2526 Z M 18298,2566 L 19865,2566 19865,5598 18298,5598 18298,2566 Z"/>
               <path fill="rgb(191,191,191)" stroke="none" d="M 18298,2566 L 19865,2566 19865,5598 18298,5598 18298,2566 Z M 18319,2606 L 19844,2606 19844,5558 18319,5558 18319,2606 Z"/>
               <path fill="rgb(192,192,192)" stroke="none" d="M 18319,2606 L 19844,2606 19844,5558 18319,5558 18319,2606 Z M 18339,2646 L 19824,2646 19824,5518 18339,5518 18339,2646 Z"/>
               <path fill="rgb(193,193,193)" stroke="none" d="M 18339,2646 L 19824,2646 19824,5518 18339,5518 18339,2646 Z M 18360,2685 L 19803,2685 19803,5479 18360,5479 18360,2685 Z"/>
               <path fill="rgb(194,194,194)" stroke="none" d="M 18360,2685 L 19803,2685 19803,5479 18360,5479 18360,2685 Z M 18381,2725 L 19782,2725 19782,5439 18381,5439 18381,2725 Z"/>
               <path fill="rgb(195,195,195)" stroke="none" d="M 18381,2725 L 19782,2725 19782,5439 18381,5439 18381,2725 Z M 18401,2765 L 19762,2765 19762,5399 18401,5399 18401,2765 Z"/>
               <path fill="rgb(196,196,196)" stroke="none" d="M 18401,2765 L 19762,2765 19762,5399 18401,5399 18401,2765 Z M 18422,2805 L 19741,2805 19741,5359 18422,5359 18422,2805 Z"/>
               <path fill="rgb(197,197,197)" stroke="none" d="M 18422,2805 L 19741,2805 19741,5359 18422,5359 18422,2805 Z M 18443,2845 L 19720,2845 19720,5319 18443,5319 18443,2845 Z"/>
               <path fill="rgb(198,198,198)" stroke="none" d="M 18443,2845 L 19720,2845 19720,5319 18443,5319 18443,2845 Z M 18462,2884 L 19700,2884 19700,5279 18462,5279 18462,2884 Z"/>
               <path fill="rgb(199,199,199)" stroke="none" d="M 18462,2884 L 19700,2884 19700,5279 18462,5279 18462,2884 Z M 18483,2924 L 19679,2924 19679,5239 18483,5239 18483,2924 Z"/>
               <path fill="rgb(200,200,200)" stroke="none" d="M 18483,2924 L 19679,2924 19679,5239 18483,5239 18483,2924 Z M 18504,2964 L 19658,2964 19658,5199 18504,5199 18504,2964 Z"/>
               <path fill="rgb(201,201,201)" stroke="none" d="M 18504,2964 L 19658,2964 19658,5199 18504,5199 18504,2964 Z M 18524,3004 L 19638,3004 19638,5159 18524,5159 18524,3004 Z"/>
               <path fill="rgb(202,202,202)" stroke="none" d="M 18524,3004 L 19638,3004 19638,5159 18524,5159 18524,3004 Z M 18545,3044 L 19617,3044 19617,5119 18545,5119 18545,3044 Z"/>
               <path fill="rgb(203,203,203)" stroke="none" d="M 18545,3044 L 19617,3044 19617,5119 18545,5119 18545,3044 Z M 18565,3084 L 19596,3084 19596,5079 18565,5079 18565,3084 Z"/>
               <path fill="rgb(204,204,204)" stroke="none" d="M 18565,3084 L 19596,3084 19596,5079 18565,5079 18565,3084 Z M 18586,3124 L 19576,3124 19576,5039 18586,5039 18586,3124 Z"/>
               <path fill="rgb(205,205,205)" stroke="none" d="M 18586,3124 L 19576,3124 19576,5039 18586,5039 18586,3124 Z M 18607,3164 L 19555,3164 19555,4999 18607,4999 18607,3164 Z"/>
               <path fill="rgb(206,206,206)" stroke="none" d="M 18607,3164 L 19555,3164 19555,4999 18607,4999 18607,3164 Z M 18627,3204 L 19535,3204 19535,4959 18627,4959 18627,3204 Z"/>
               <path fill="rgb(207,207,207)" stroke="none" d="M 18627,3204 L 19535,3204 19535,4959 18627,4959 18627,3204 Z M 18648,3243 L 19514,3243 19514,4920 18648,4920 18648,3243 Z"/>
               <path fill="rgb(208,208,208)" stroke="none" d="M 18648,3243 L 19514,3243 19514,4920 18648,4920 18648,3243 Z M 18669,3283 L 19493,3283 19493,4880 18669,4880 18669,3283 Z"/>
               <path fill="rgb(209,209,209)" stroke="none" d="M 18669,3283 L 19493,3283 19493,4880 18669,4880 18669,3283 Z M 18689,3323 L 19473,3323 19473,4840 18689,4840 18689,3323 Z"/>
               <path fill="rgb(210,210,210)" stroke="none" d="M 18689,3323 L 19473,3323 19473,4840 18689,4840 18689,3323 Z M 18710,3363 L 19452,3363 19452,4800 18710,4800 18710,3363 Z"/>
               <path fill="rgb(211,211,211)" stroke="none" d="M 18710,3363 L 19452,3363 19452,4800 18710,4800 18710,3363 Z M 18731,3403 L 19431,3403 19431,4760 18731,4760 18731,3403 Z"/>
               <path fill="rgb(212,212,212)" stroke="none" d="M 18731,3403 L 19431,3403 19431,4760 18731,4760 18731,3403 Z M 18751,3443 L 19411,3443 19411,4720 18751,4720 18751,3443 Z"/>
               <path fill="rgb(213,213,213)" stroke="none" d="M 18751,3443 L 19411,3443 19411,4720 18751,4720 18751,3443 Z M 18772,3483 L 19390,3483 19390,4680 18772,4680 18772,3483 Z"/>
               <path fill="rgb(214,214,214)" stroke="none" d="M 18772,3483 L 19390,3483 19390,4680 18772,4680 18772,3483 Z M 18793,3523 L 19369,3523 19369,4640 18793,4640 18793,3523 Z"/>
               <path fill="rgb(215,215,215)" stroke="none" d="M 18793,3523 L 19369,3523 19369,4640 18793,4640 18793,3523 Z M 18813,3563 L 19349,3563 19349,4600 18813,4600 18813,3563 Z"/>
               <path fill="rgb(216,216,216)" stroke="none" d="M 18813,3563 L 19349,3563 19349,4600 18813,4600 18813,3563 Z M 18834,3603 L 19328,3603 19328,4560 18834,4560 18834,3603 Z"/>
               <path fill="rgb(217,217,217)" stroke="none" d="M 18834,3603 L 19328,3603 19328,4560 18834,4560 18834,3603 Z M 18854,3643 L 19308,3643 19308,4520 18854,4520 18854,3643 Z"/>
               <path fill="rgb(218,218,218)" stroke="none" d="M 18854,3643 L 19308,3643 19308,4520 18854,4520 18854,3643 Z M 18875,3683 L 19287,3683 19287,4480 18875,4480 18875,3683 Z"/>
               <path fill="rgb(219,219,219)" stroke="none" d="M 18875,3683 L 19287,3683 19287,4480 18875,4480 18875,3683 Z M 18896,3723 L 19266,3723 19266,4440 18896,4440 18896,3723 Z"/>
               <path fill="rgb(220,220,220)" stroke="none" d="M 18896,3723 L 19266,3723 19266,4440 18896,4440 18896,3723 Z M 18916,3763 L 19246,3763 19246,4400 18916,4400 18916,3763 Z"/>
               <path fill="rgb(221,221,221)" stroke="none" d="M 18916,3763 L 19246,3763 19246,4400 18916,4400 18916,3763 Z M 18937,3802 L 19225,3802 19225,4361 18937,4361 18937,3802 Z"/>
               <path fill="rgb(222,222,222)" stroke="none" d="M 18937,3802 L 19225,3802 19225,4361 18937,4361 18937,3802 Z M 18958,3842 L 19204,3842 19204,4321 18958,4321 18958,3842 Z"/>
               <path fill="rgb(223,223,223)" stroke="none" d="M 18958,3842 L 19204,3842 19204,4321 18958,4321 18958,3842 Z M 18978,3882 L 19184,3882 19184,4281 18978,4281 18978,3882 Z"/>
               <path fill="rgb(224,224,224)" stroke="none" d="M 18978,3882 L 19184,3882 19184,4281 18978,4281 18978,3882 Z M 18999,3922 L 19163,3922 19163,4241 18999,4241 18999,3922 Z"/>
               <path fill="rgb(225,225,225)" stroke="none" d="M 18999,3922 L 19163,3922 19163,4241 18999,4241 18999,3922 Z M 19020,3962 L 19142,3962 19142,4201 19020,4201 19020,3962 Z"/>
               <path fill="rgb(226,226,226)" stroke="none" d="M 19020,3962 L 19142,3962 19142,4201 19020,4201 19020,3962 Z M 19040,4002 L 19122,4002 19122,4161 19040,4161 19040,4002 Z"/>
               <path fill="rgb(227,227,227)" stroke="none" d="M 19040,4002 L 19122,4002 19122,4161 19040,4161 19040,4002 Z M 19061,4042 L 19101,4042 19101,4121 19061,4121 19061,4042 Z"/>
               <path fill="rgb(229,229,229)" stroke="none" d="M 19061,4042 L 19101,4042 19101,4121 19061,4121 19061,4042 Z"/>
              </g>
             </g>
            </pattern>
           </defs>
           <path style="fill:url(#pattern3)" d="M 18464,6876 L 18464,4076 20525,2886 20525,5686 18464,6876 Z"/>
          </g>
          <path fill="none" stroke="rgb(255,255,255)" stroke-width="40" stroke-linejoin="round" d="M 18464,6876 L 18464,4076 20525,2886 20525,5686 18464,6876 Z"/>
         </g>
        </g>
        <g class="com.sun.star.drawing.PolyPolygonShape">
         <g id="id38">
          <rect class="BoundingBox" stroke="none" fill="none" x="16989" y="2026" width="3557" height="2071"/>
          <g>
           <defs>
            <linearGradient id="gradient8" x1="18767" y1="2046" x2="18767" y2="4076" gradientUnits="userSpaceOnUse">
             <stop offset="0.1" style="stop-color:rgb(179,179,179)"/>
             <stop offset="1" style="stop-color:rgb(229,229,229)"/>
            </linearGradient>
           </defs>
           <path style="fill:url(#gradient8)" d="M 18464,4076 L 17009,3236 19070,2046 20525,2886 18464,4076 Z"/>
          </g>
          <path fill="none" stroke="rgb(255,255,255)" stroke-width="40" stroke-linejoin="round" d="M 18464,4076 L 17009,3236 19070,2046 20525,2886 18464,4076 Z"/>
         </g>
        </g>
        <g class="com.sun.star.drawing.PolyPolygonShape">
         <g id="id39">
          <rect class="BoundingBox" stroke="none" fill="none" x="16989" y="2026" width="3557" height="4871"/>
          <path fill="none" stroke="rgb(0,0,0)" stroke-width="40" stroke-linejoin="round" d="M 17009,6036 L 17009,3236 19070,2046 20525,2886 20525,5686 18464,6876 17009,6036 Z"/>
         </g>
        </g>
        <g class="com.sun.star.drawing.LineShape">
         <g id="id40">
          <rect class="BoundingBox" stroke="none" fill="none" x="17231" y="5596" width="1012" height="601"/>
          <path fill="none" stroke="rgb(128,128,128)" stroke-width="40" stroke-linejoin="round" d="M 18221,6176 L 17251,5616"/>
         </g>
        </g>
        <g class="com.sun.star.drawing.LineShape">
         <g id="id41">
          <rect class="BoundingBox" stroke="none" fill="none" x="17231" y="5876" width="1011" height="602"/>
          <path fill="none" stroke="rgb(128,128,128)" stroke-width="40" stroke-linejoin="round" d="M 18221,6456 L 17251,5896"/>
         </g>
        </g>
        <g class="com.sun.star.drawing.LineShape">
         <g id="id42">
          <rect class="BoundingBox" stroke="none" fill="none" x="17231" y="5736" width="1011" height="601"/>
          <path fill="none" stroke="rgb(128,128,128)" stroke-width="40" stroke-linejoin="round" d="M 18221,6316 L 17251,5756"/>
         </g>
        </g>
        <g class="com.sun.star.drawing.PolyLineShape">
         <g id="id43">
          <rect class="BoundingBox" stroke="none" fill="none" x="17110" y="3636" width="1253" height="882"/>
          <path fill="none" stroke="rgb(255,255,255)" stroke-width="40" stroke-linejoin="round" d="M 18342,4496 L 17130,3796 17130,3656"/>
         </g>
        </g>
        <g class="com.sun.star.drawing.PolyLineShape">
         <g id="id44">
          <rect class="BoundingBox" stroke="none" fill="none" x="17131" y="3633" width="1232" height="885"/>
          <path fill="none" stroke="rgb(128,128,128)" stroke-width="40" stroke-linejoin="round" d="M 18342,4496 L 18342,4356 17151,3653"/>
         </g>
        </g>
        <g class="com.sun.star.drawing.PolyPolygonShape">
         <g id="id45">
          <rect class="BoundingBox" stroke="none" fill="none" x="17559" y="5033" width="184" height="288"/>
          <path fill="rgb(57,181,74)" stroke="none" d="M 17579,5218 L 17579,5053 17721,5135 17721,5300 17579,5218 Z"/>
          <path fill="none" stroke="rgb(128,128,128)" stroke-width="40" stroke-linejoin="round" d="M 17579,5218 L 17579,5053 17721,5135 17721,5300 17579,5218 Z"/>
         </g>
        </g>
        <g class="com.sun.star.drawing.LineShape">
         <g id="id46">
          <rect class="BoundingBox" stroke="none" fill="none" x="17231" y="5456" width="1011" height="602"/>
          <path fill="none" stroke="rgb(128,128,128)" stroke-width="40" stroke-linejoin="round" d="M 18221,6036 L 17251,5476"/>
         </g>
        </g>
       </g>
      </g>
      <g class="Group">
       <g class="com.sun.star.drawing.ClosedBezierShape">
        <g id="id47">
         <rect class="BoundingBox" stroke="none" fill="none" x="25262" y="5382" width="2511" height="1473"/>
         <path fill="rgb(221,221,221)" stroke="none" d="M 25263,6853 C 25973,6853 27086,6389 27566,6083 28046,5777 27566,5383 27324,5383 L 25263,6853 Z"/>
         <path fill="none" stroke="rgb(221,221,221)" d="M 25263,6853 C 25973,6853 27086,6389 27566,6083 28046,5777 27566,5383 27324,5383 L 25263,6853 Z"/>
        </g>
       </g>
       <g class="Group">
        <g class="com.sun.star.drawing.PolyPolygonShape">
         <g id="id48">
          <rect class="BoundingBox" stroke="none" fill="none" x="23788" y="3193" width="1497" height="3681"/>
          <g>
           <defs>
            <linearGradient id="gradient9" x1="24535" y1="6853" x2="24535" y2="3213" gradientUnits="userSpaceOnUse">
             <stop offset="0.1" style="stop-color:rgb(179,179,179)"/>
             <stop offset="1" style="stop-color:rgb(229,229,229)"/>
            </linearGradient>
           </defs>
           <path style="fill:url(#gradient9)" d="M 23808,6013 L 23808,3213 25263,4053 25263,6853 23808,6013 Z"/>
          </g>
          <path fill="none" stroke="rgb(255,255,255)" stroke-width="40" stroke-linejoin="round" d="M 23808,6013 L 23808,3213 25263,4053 25263,6853 23808,6013 Z"/>
         </g>
        </g>
        <g class="com.sun.star.drawing.PolyPolygonShape">
         <g id="id49">
          <rect class="BoundingBox" stroke="none" fill="none" x="25243" y="2843" width="2102" height="4031"/>
          <g>
           <defs>
            <pattern id="pattern4" x="25263" y="2863" width="2062" height="3991" patternUnits="userSpaceOnUse">
             <g transform="translate(-25263,-2863)">
              <defs>
               <clipPath id="clip_path_4" clipPathUnits="userSpaceOnUse">
                <path d="M 25268,2858 L 27331,2858 27331,6853 25268,6853 25268,2858 Z"/>
               </clipPath>
              </defs>
              <g clip-path="url(#clip_path_4)">
               <path fill="rgb(179,179,179)" stroke="none" d="M 25262,2862 L 27325,2862 27325,6854 25262,6854 25262,2862 Z M 24870,2103 L 26891,2103 26891,6015 24870,6015 24870,2103 Z"/>
               <path fill="rgb(180,180,180)" stroke="none" d="M 24870,2103 L 26891,2103 26891,6015 24870,6015 24870,2103 Z M 24891,2143 L 26870,2143 26870,5975 24891,5975 24891,2143 Z"/>
               <path fill="rgb(181,181,181)" stroke="none" d="M 24891,2143 L 26870,2143 26870,5975 24891,5975 24891,2143 Z M 24911,2183 L 26850,2183 26850,5935 24911,5935 24911,2183 Z"/>
               <path fill="rgb(182,182,182)" stroke="none" d="M 24911,2183 L 26850,2183 26850,5935 24911,5935 24911,2183 Z M 24932,2223 L 26829,2223 26829,5895 24932,5895 24932,2223 Z"/>
               <path fill="rgb(183,183,183)" stroke="none" d="M 24932,2223 L 26829,2223 26829,5895 24932,5895 24932,2223 Z M 24953,2263 L 26808,2263 26808,5855 24953,5855 24953,2263 Z"/>
               <path fill="rgb(184,184,184)" stroke="none" d="M 24953,2263 L 26808,2263 26808,5855 24953,5855 24953,2263 Z M 24973,2303 L 26788,2303 26788,5815 24973,5815 24973,2303 Z"/>
               <path fill="rgb(185,185,185)" stroke="none" d="M 24973,2303 L 26788,2303 26788,5815 24973,5815 24973,2303 Z M 24994,2343 L 26767,2343 26767,5775 24994,5775 24994,2343 Z"/>
               <path fill="rgb(186,186,186)" stroke="none" d="M 24994,2343 L 26767,2343 26767,5775 24994,5775 24994,2343 Z M 25015,2383 L 26746,2383 26746,5735 25015,5735 25015,2383 Z"/>
               <path fill="rgb(187,187,187)" stroke="none" d="M 25015,2383 L 26746,2383 26746,5735 25015,5735 25015,2383 Z M 25035,2423 L 26726,2423 26726,5695 25035,5695 25035,2423 Z"/>
               <path fill="rgb(188,188,188)" stroke="none" d="M 25035,2423 L 26726,2423 26726,5695 25035,5695 25035,2423 Z M 25056,2463 L 26705,2463 26705,5655 25056,5655 25056,2463 Z"/>
               <path fill="rgb(189,189,189)" stroke="none" d="M 25056,2463 L 26705,2463 26705,5655 25056,5655 25056,2463 Z M 25077,2503 L 26684,2503 26684,5615 25077,5615 25077,2503 Z"/>
               <path fill="rgb(190,190,190)" stroke="none" d="M 25077,2503 L 26684,2503 26684,5615 25077,5615 25077,2503 Z M 25097,2543 L 26664,2543 26664,5575 25097,5575 25097,2543 Z"/>
               <path fill="rgb(191,191,191)" stroke="none" d="M 25097,2543 L 26664,2543 26664,5575 25097,5575 25097,2543 Z M 25118,2583 L 26643,2583 26643,5535 25118,5535 25118,2583 Z"/>
               <path fill="rgb(192,192,192)" stroke="none" d="M 25118,2583 L 26643,2583 26643,5535 25118,5535 25118,2583 Z M 25138,2623 L 26623,2623 26623,5495 25138,5495 25138,2623 Z"/>
               <path fill="rgb(193,193,193)" stroke="none" d="M 25138,2623 L 26623,2623 26623,5495 25138,5495 25138,2623 Z M 25159,2662 L 26602,2662 26602,5456 25159,5456 25159,2662 Z"/>
               <path fill="rgb(194,194,194)" stroke="none" d="M 25159,2662 L 26602,2662 26602,5456 25159,5456 25159,2662 Z M 25180,2702 L 26581,2702 26581,5416 25180,5416 25180,2702 Z"/>
               <path fill="rgb(195,195,195)" stroke="none" d="M 25180,2702 L 26581,2702 26581,5416 25180,5416 25180,2702 Z M 25200,2742 L 26561,2742 26561,5376 25200,5376 25200,2742 Z"/>
               <path fill="rgb(196,196,196)" stroke="none" d="M 25200,2742 L 26561,2742 26561,5376 25200,5376 25200,2742 Z M 25221,2782 L 26540,2782 26540,5336 25221,5336 25221,2782 Z"/>
               <path fill="rgb(197,197,197)" stroke="none" d="M 25221,2782 L 26540,2782 26540,5336 25221,5336 25221,2782 Z M 25242,2822 L 26519,2822 26519,5296 25242,5296 25242,2822 Z"/>
               <path fill="rgb(198,198,198)" stroke="none" d="M 25242,2822 L 26519,2822 26519,5296 25242,5296 25242,2822 Z M 25261,2861 L 26499,2861 26499,5256 25261,5256 25261,2861 Z"/>
               <path fill="rgb(199,199,199)" stroke="none" d="M 25261,2861 L 26499,2861 26499,5256 25261,5256 25261,2861 Z M 25282,2901 L 26478,2901 26478,5216 25282,5216 25282,2901 Z"/>
               <path fill="rgb(200,200,200)" stroke="none" d="M 25282,2901 L 26478,2901 26478,5216 25282,5216 25282,2901 Z M 25303,2941 L 26457,2941 26457,5176 25303,5176 25303,2941 Z"/>
               <path fill="rgb(201,201,201)" stroke="none" d="M 25303,2941 L 26457,2941 26457,5176 25303,5176 25303,2941 Z M 25323,2981 L 26437,2981 26437,5136 25323,5136 25323,2981 Z"/>
               <path fill="rgb(202,202,202)" stroke="none" d="M 25323,2981 L 26437,2981 26437,5136 25323,5136 25323,2981 Z M 25344,3021 L 26416,3021 26416,5096 25344,5096 25344,3021 Z"/>
               <path fill="rgb(203,203,203)" stroke="none" d="M 25344,3021 L 26416,3021 26416,5096 25344,5096 25344,3021 Z M 25364,3061 L 26395,3061 26395,5056 25364,5056 25364,3061 Z"/>
               <path fill="rgb(204,204,204)" stroke="none" d="M 25364,3061 L 26395,3061 26395,5056 25364,5056 25364,3061 Z M 25385,3101 L 26375,3101 26375,5016 25385,5016 25385,3101 Z"/>
               <path fill="rgb(205,205,205)" stroke="none" d="M 25385,3101 L 26375,3101 26375,5016 25385,5016 25385,3101 Z M 25406,3141 L 26354,3141 26354,4976 25406,4976 25406,3141 Z"/>
               <path fill="rgb(206,206,206)" stroke="none" d="M 25406,3141 L 26354,3141 26354,4976 25406,4976 25406,3141 Z M 25426,3181 L 26334,3181 26334,4936 25426,4936 25426,3181 Z"/>
               <path fill="rgb(207,207,207)" stroke="none" d="M 25426,3181 L 26334,3181 26334,4936 25426,4936 25426,3181 Z M 25447,3220 L 26313,3220 26313,4897 25447,4897 25447,3220 Z"/>
               <path fill="rgb(208,208,208)" stroke="none" d="M 25447,3220 L 26313,3220 26313,4897 25447,4897 25447,3220 Z M 25468,3260 L 26292,3260 26292,4857 25468,4857 25468,3260 Z"/>
               <path fill="rgb(209,209,209)" stroke="none" d="M 25468,3260 L 26292,3260 26292,4857 25468,4857 25468,3260 Z M 25488,3300 L 26272,3300 26272,4817 25488,4817 25488,3300 Z"/>
               <path fill="rgb(210,210,210)" stroke="none" d="M 25488,3300 L 26272,3300 26272,4817 25488,4817 25488,3300 Z M 25509,3340 L 26251,3340 26251,4777 25509,4777 25509,3340 Z"/>
               <path fill="rgb(211,211,211)" stroke="none" d="M 25509,3340 L 26251,3340 26251,4777 25509,4777 25509,3340 Z M 25530,3380 L 26230,3380 26230,4737 25530,4737 25530,3380 Z"/>
               <path fill="rgb(212,212,212)" stroke="none" d="M 25530,3380 L 26230,3380 26230,4737 25530,4737 25530,3380 Z M 25550,3420 L 26210,3420 26210,4697 25550,4697 25550,3420 Z"/>
               <path fill="rgb(213,213,213)" stroke="none" d="M 25550,3420 L 26210,3420 26210,4697 25550,4697 25550,3420 Z M 25571,3460 L 26189,3460 26189,4657 25571,4657 25571,3460 Z"/>
               <path fill="rgb(214,214,214)" stroke="none" d="M 25571,3460 L 26189,3460 26189,4657 25571,4657 25571,3460 Z M 25592,3500 L 26168,3500 26168,4617 25592,4617 25592,3500 Z"/>
               <path fill="rgb(215,215,215)" stroke="none" d="M 25592,3500 L 26168,3500 26168,4617 25592,4617 25592,3500 Z M 25612,3540 L 26148,3540 26148,4577 25612,4577 25612,3540 Z"/>
               <path fill="rgb(216,216,216)" stroke="none" d="M 25612,3540 L 26148,3540 26148,4577 25612,4577 25612,3540 Z M 25633,3580 L 26127,3580 26127,4537 25633,4537 25633,3580 Z"/>
               <path fill="rgb(217,217,217)" stroke="none" d="M 25633,3580 L 26127,3580 26127,4537 25633,4537 25633,3580 Z M 25653,3620 L 26107,3620 26107,4497 25653,4497 25653,3620 Z"/>
               <path fill="rgb(218,218,218)" stroke="none" d="M 25653,3620 L 26107,3620 26107,4497 25653,4497 25653,3620 Z M 25674,3660 L 26086,3660 26086,4457 25674,4457 25674,3660 Z"/>
               <path fill="rgb(219,219,219)" stroke="none" d="M 25674,3660 L 26086,3660 26086,4457 25674,4457 25674,3660 Z M 25695,3700 L 26065,3700 26065,4417 25695,4417 25695,3700 Z"/>
               <path fill="rgb(220,220,220)" stroke="none" d="M 25695,3700 L 26065,3700 26065,4417 25695,4417 25695,3700 Z M 25715,3740 L 26045,3740 26045,4377 25715,4377 25715,3740 Z"/>
               <path fill="rgb(221,221,221)" stroke="none" d="M 25715,3740 L 26045,3740 26045,4377 25715,4377 25715,3740 Z M 25736,3779 L 26024,3779 26024,4338 25736,4338 25736,3779 Z"/>
               <path fill="rgb(222,222,222)" stroke="none" d="M 25736,3779 L 26024,3779 26024,4338 25736,4338 25736,3779 Z M 25757,3819 L 26003,3819 26003,4298 25757,4298 25757,3819 Z"/>
               <path fill="rgb(223,223,223)" stroke="none" d="M 25757,3819 L 26003,3819 26003,4298 25757,4298 25757,3819 Z M 25777,3859 L 25983,3859 25983,4258 25777,4258 25777,3859 Z"/>
               <path fill="rgb(224,224,224)" stroke="none" d="M 25777,3859 L 25983,3859 25983,4258 25777,4258 25777,3859 Z M 25798,3899 L 25962,3899 25962,4218 25798,4218 25798,3899 Z"/>
               <path fill="rgb(225,225,225)" stroke="none" d="M 25798,3899 L 25962,3899 25962,4218 25798,4218 25798,3899 Z M 25819,3939 L 25941,3939 25941,4178 25819,4178 25819,3939 Z"/>
               <path fill="rgb(226,226,226)" stroke="none" d="M 25819,3939 L 25941,3939 25941,4178 25819,4178 25819,3939 Z M 25839,3979 L 25921,3979 25921,4138 25839,4138 25839,3979 Z"/>
               <path fill="rgb(227,227,227)" stroke="none" d="M 25839,3979 L 25921,3979 25921,4138 25839,4138 25839,3979 Z M 25860,4019 L 25900,4019 25900,4098 25860,4098 25860,4019 Z"/>
               <path fill="rgb(229,229,229)" stroke="none" d="M 25860,4019 L 25900,4019 25900,4098 25860,4098 25860,4019 Z"/>
              </g>
             </g>
            </pattern>
           </defs>
           <path style="fill:url(#pattern4)" d="M 25263,6853 L 25263,4053 27324,2863 27324,5663 25263,6853 Z"/>
          </g>
          <path fill="none" stroke="rgb(255,255,255)" stroke-width="40" stroke-linejoin="round" d="M 25263,6853 L 25263,4053 27324,2863 27324,5663 25263,6853 Z"/>
         </g>
        </g>
        <g class="com.sun.star.drawing.PolyPolygonShape">
         <g id="id50">
          <rect class="BoundingBox" stroke="none" fill="none" x="23788" y="2003" width="3557" height="2071"/>
          <g>
           <defs>
            <linearGradient id="gradient10" x1="25566" y1="2023" x2="25566" y2="4053" gradientUnits="userSpaceOnUse">
             <stop offset="0.1" style="stop-color:rgb(179,179,179)"/>
             <stop offset="1" style="stop-color:rgb(229,229,229)"/>
            </linearGradient>
           </defs>
           <path style="fill:url(#gradient10)" d="M 25263,4053 L 23808,3213 25869,2023 27324,2863 25263,4053 Z"/>
          </g>
          <path fill="none" stroke="rgb(255,255,255)" stroke-width="40" stroke-linejoin="round" d="M 25263,4053 L 23808,3213 25869,2023 27324,2863 25263,4053 Z"/>
         </g>
        </g>
        <g class="com.sun.star.drawing.PolyPolygonShape">
         <g id="id51">
          <rect class="BoundingBox" stroke="none" fill="none" x="23788" y="2003" width="3557" height="4871"/>
          <path fill="none" stroke="rgb(0,0,0)" stroke-width="40" stroke-linejoin="round" d="M 23808,6013 L 23808,3213 25869,2023 27324,2863 27324,5663 25263,6853 23808,6013 Z"/>
         </g>
        </g>
        <g class="com.sun.star.drawing.LineShape">
         <g id="id52">
          <rect class="BoundingBox" stroke="none" fill="none" x="24030" y="5573" width="1012" height="601"/>
          <path fill="none" stroke="rgb(128,128,128)" stroke-width="40" stroke-linejoin="round" d="M 25020,6153 L 24050,5593"/>
         </g>
        </g>
        <g class="com.sun.star.drawing.LineShape">
         <g id="id53">
          <rect class="BoundingBox" stroke="none" fill="none" x="24030" y="5853" width="1011" height="602"/>
          <path fill="none" stroke="rgb(128,128,128)" stroke-width="40" stroke-linejoin="round" d="M 25020,6433 L 24050,5873"/>
         </g>
        </g>
        <g class="com.sun.star.drawing.LineShape">
         <g id="id54">
          <rect class="BoundingBox" stroke="none" fill="none" x="24030" y="5713" width="1011" height="601"/>
          <path fill="none" stroke="rgb(128,128,128)" stroke-width="40" stroke-linejoin="round" d="M 25020,6293 L 24050,5733"/>
         </g>
        </g>
        <g class="com.sun.star.drawing.PolyLineShape">
         <g id="id55">
          <rect class="BoundingBox" stroke="none" fill="none" x="23909" y="3613" width="1253" height="882"/>
          <path fill="none" stroke="rgb(255,255,255)" stroke-width="40" stroke-linejoin="round" d="M 25141,4473 L 23929,3773 23929,3633"/>
         </g>
        </g>
        <g class="com.sun.star.drawing.PolyLineShape">
         <g id="id56">
          <rect class="BoundingBox" stroke="none" fill="none" x="23930" y="3610" width="1232" height="885"/>
          <path fill="none" stroke="rgb(128,128,128)" stroke-width="40" stroke-linejoin="round" d="M 25141,4473 L 25141,4333 23950,3630"/>
         </g>
        </g>
        <g class="com.sun.star.drawing.PolyPolygonShape">
         <g id="id57">
          <rect class="BoundingBox" stroke="none" fill="none" x="24358" y="5010" width="184" height="288"/>
          <path fill="rgb(57,181,74)" stroke="none" d="M 24378,5195 L 24378,5030 24520,5112 24520,5277 24378,5195 Z"/>
          <path fill="none" stroke="rgb(128,128,128)" stroke-width="40" stroke-linejoin="round" d="M 24378,5195 L 24378,5030 24520,5112 24520,5277 24378,5195 Z"/>
         </g>
        </g>
        <g class="com.sun.star.drawing.LineShape">
         <g id="id58">
          <rect class="BoundingBox" stroke="none" fill="none" x="24030" y="5433" width="1011" height="602"/>
          <path fill="none" stroke="rgb(128,128,128)" stroke-width="40" stroke-linejoin="round" d="M 25020,6013 L 24050,5453"/>
         </g>
        </g>
       </g>
      </g>
      <g class="TextShape">
       <g id="id59">
        <rect class="BoundingBox" stroke="none" fill="none" x="24101" y="1160" width="3530" height="963"/>
        <text class="SVGTextShape"><tspan class="TextParagraph" font-family="Liberation Sans, sans-serif" font-size="635px" font-weight="400"><tspan class="TextPosition" x="24351" y="1861"><tspan fill="rgb(0,0,0)" stroke="none" style="white-space: pre">Promovido</tspan></tspan></tspan></text>
       </g>
      </g>
      <g class="Group">
       <g class="com.sun.star.drawing.ClosedBezierShape">
        <g id="id60">
         <rect class="BoundingBox" stroke="none" fill="none" x="16166" y="7493" width="11856" height="866"/>
         <g>
          <defs>
           <linearGradient id="gradient11" x1="22093" y1="7513" x2="22093" y2="8338" gradientUnits="userSpaceOnUse">
            <stop offset="0" style="stop-color:rgb(0,115,188)"/>
            <stop offset="0.5" style="stop-color:rgb(127,185,221)"/>
            <stop offset="1" style="stop-color:rgb(0,115,188)"/>
           </linearGradient>
          </defs>
          <path style="fill:url(#gradient11)" d="M 28001,7925 L 27998,7883 27991,7843 27978,7803 27962,7766 27940,7730 27915,7696 27887,7664 27854,7635 27819,7608 27781,7584 27740,7563 27696,7546 27651,7532 27603,7521 27555,7515 27504,7513 16685,7513 16634,7515 16585,7521 16538,7532 16492,7546 16449,7563 16408,7584 16369,7608 16334,7635 16301,7664 16272,7696 16247,7730 16226,7766 16209,7803 16196,7843 16189,7883 16186,7925 16189,7967 16196,8008 16209,8047 16226,8085 16247,8121 16272,8155 16301,8187 16334,8216 16369,8243 16408,8267 16449,8288 16492,8305 16538,8319 16585,8330 16634,8336 16685,8338 27504,8338 27555,8336 27603,8329 27651,8319 27696,8305 27740,8288 27781,8267 27819,8243 27854,8216 27887,8186 27915,8155 27940,8120 27962,8084 27978,8047 27991,8007 27998,7967 28001,7925 Z"/>
         </g>
         <path fill="none" stroke="rgb(0,0,0)" stroke-width="40" stroke-linejoin="round" d="M 28001,7925 C 28001,7700 27775,7513 27504,7513 L 16685,7513 C 16414,7513 16186,7700 16186,7925 16186,8151 16414,8338 16685,8338 L 27504,8338 C 27775,8338 28001,8150 28001,7925 Z"/>
         <text class="SVGTextShape"><tspan class="TextParagraph" font-family="Arial Narrow, sans-serif" font-size="353px" font-style="italic" font-weight="700"><tspan class="TextPosition" x="21737" y="8004"><tspan fill="rgb(255,255,255)" stroke="none" style="white-space: pre">Rede</tspan></tspan></tspan></text>
        </g>
       </g>
       <g class="com.sun.star.drawing.ClosedBezierShape">
        <g id="id61">
         <rect class="BoundingBox" stroke="none" fill="none" x="16166" y="7493" width="11856" height="866"/>
         <g>
          <defs>
           <linearGradient id="gradient12" x1="27504" y1="7513" x2="27504" y2="8338" gradientUnits="userSpaceOnUse">
            <stop offset="0" style="stop-color:rgb(0,115,188)"/>
            <stop offset="0.5" style="stop-color:rgb(127,185,221)"/>
            <stop offset="1" style="stop-color:rgb(0,115,188)"/>
           </linearGradient>
          </defs>
          <path style="fill:url(#gradient12)" d="M 28001,7925 L 27998,7883 27991,7843 27978,7803 27962,7766 27940,7730 27915,7696 27887,7664 27854,7635 27819,7608 27781,7584 27740,7563 27696,7546 27651,7532 27603,7521 27555,7515 27504,7513 27454,7515 27405,7521 27358,7532 27312,7546 27269,7563 27228,7584 27190,7608 27154,7635 27122,7664 27093,7696 27068,7730 27047,7766 27030,7803 27018,7843 27010,7883 27008,7925 27010,7967 27018,8008 27030,8047 27047,8085 27068,8121 27093,8155 27122,8187 27154,8216 27190,8243 27228,8267 27269,8288 27312,8305 27358,8319 27405,8330 27454,8336 27504,8338 27555,8336 27603,8329 27651,8319 27696,8305 27740,8288 27781,8267 27819,8243 27854,8216 27887,8186 27915,8155 27940,8120 27962,8084 27978,8047 27991,8007 27998,7967 28001,7925 Z"/>
         </g>
         <path fill="none" stroke="rgb(0,0,0)" stroke-width="40" stroke-linejoin="round" d="M 28001,7925 C 28001,7700 27775,7513 27504,7513 27233,7513 27008,7700 27008,7925 27008,8151 27233,8338 27504,8338 27775,8338 28001,8150 28001,7925 Z"/>
        </g>
       </g>
      </g>
      <g class="com.sun.star.drawing.LineShape">
       <g id="id62">
        <rect class="BoundingBox" stroke="none" fill="none" x="24700" y="6509" width="3" height="1003"/>
        <path fill="none" stroke="rgb(52,101,164)" d="M 24701,6510 L 24701,7510"/>
       </g>
      </g>
      <g class="com.sun.star.drawing.CustomShape">
       <g id="id63">
        <rect class="BoundingBox" stroke="none" fill="none" x="12098" y="4373" width="4085" height="629"/>
        <path fill="rgb(201,33,30)" stroke="none" d="M 12099,4530 L 15868,4530 15868,4374 16181,4687 15868,5000 15868,4843 12099,4843 12099,4530 Z"/>
        <path fill="none" stroke="rgb(52,101,164)" d="M 12099,4530 L 15868,4530 15868,4374 16181,4687 15868,5000 15868,4843 12099,4843 12099,4530 Z"/>
       </g>
      </g>
      <g class="TextShape">
       <g id="id64">
        <rect class="BoundingBox" stroke="none" fill="none" x="12150" y="3600" width="3742" height="963"/>
        <text class="SVGTextShape"><tspan class="TextParagraph" font-family="Liberation Sans, sans-serif" font-size="635px" font-weight="400"><tspan class="TextPosition" x="12400" y="4301"><tspan fill="rgb(0,0,0)" stroke="none" style="white-space: pre">Comutação</tspan></tspan></tspan></text>
       </g>
      </g>
      <g class="TextShape">
       <g id="id65">
        <rect class="BoundingBox" stroke="none" fill="none" x="12500" y="4900" width="2967" height="963"/>
        <text class="SVGTextShape"><tspan class="TextParagraph" font-family="Liberation Sans, sans-serif" font-size="635px" font-weight="400"><tspan class="TextPosition" x="12750" y="5601"><tspan fill="rgb(0,0,0)" stroke="none" style="white-space: pre">(failover)</tspan></tspan></tspan></text>
       </g>
      </g>
      <g class="com.sun.star.drawing.LineShape">
       <g id="id66">
        <rect class="BoundingBox" stroke="none" fill="none" x="17200" y="2449" width="3001" height="4452"/>
        <path fill="none" stroke="rgb(201,33,30)" stroke-width="100" stroke-linejoin="round" d="M 17250,2500 L 20150,6850"/>
       </g>
      </g>
      <g class="com.sun.star.drawing.LineShape">
       <g id="id67">
        <rect class="BoundingBox" stroke="none" fill="none" x="17200" y="2450" width="2952" height="4352"/>
        <path fill="none" stroke="rgb(201,33,30)" stroke-width="100" stroke-linejoin="round" d="M 17250,6750 L 20101,2500"/>
       </g>
      </g>
      <g class="TextShape">
       <g id="id68">
        <rect class="BoundingBox" stroke="none" fill="none" x="3850" y="250" width="4690" height="963"/>
        <text class="SVGTextShape"><tspan class="TextParagraph" font-family="Liberation Sans, sans-serif" font-size="635px" font-weight="400"><tspan class="TextPosition" x="4100" y="951"><tspan fill="rgb(0,0,0)" stroke="none" style="white-space: pre">Estado original</tspan></tspan></tspan></text>
       </g>
      </g>
      <g class="TextShape">
       <g id="id69">
        <rect class="BoundingBox" stroke="none" fill="none" x="19000" y="350" width="6028" height="963"/>
        <text class="SVGTextShape"><tspan class="TextParagraph" font-family="Liberation Sans, sans-serif" font-size="635px" font-weight="400"><tspan class="TextPosition" x="19250" y="1051"><tspan fill="rgb(0,0,0)" stroke="none" style="white-space: pre">Estado degenerado</tspan></tspan></tspan></text>
       </g>
      </g>
     </g>
    </g>
   </g>
  </g>
 </g>
</svg>