<?xml version="1.0" encoding="UTF-8"?>
<!DOCTYPE svg PUBLIC "-//W3C//DTD SVG 1.1//EN" "http://www.w3.org/Graphics/SVG/1.1/DTD/svg11.dtd">
<svg version="1.2" width="175mm" height="123mm" viewBox="0 0 17500 12300" preserveAspectRatio="xMidYMid" fill-rule="evenodd" stroke-width="28.222" stroke-linejoin="round" xmlns="http://www.w3.org/2000/svg" xmlns:ooo="http://xml.openoffice.org/svg/export" xmlns:xlink="http://www.w3.org/1999/xlink" xmlns:presentation="http://sun.com/xmlns/staroffice/presentation" xmlns:smil="http://www.w3.org/2001/SMIL20/" xmlns:anim="urn:oasis:names:tc:opendocument:xmlns:animation:1.0" xmlns:svg="urn:oasis:names:tc:opendocument:xmlns:svg-compatible:1.0" xml:space="preserve">
 <defs class="ClipPathGroup">
  <clipPath id="presentation_clip_path" clipPathUnits="userSpaceOnUse">
   <rect x="0" y="0" width="17500" height="12300"/>
  </clipPath>
  <clipPath id="presentation_clip_path_shrink" clipPathUnits="userSpaceOnUse">
   <rect x="17" y="12" width="17465" height="12276"/>
  </clipPath>
 </defs>
 <defs>
  <font id="EmbeddedFont_1" horiz-adv-x="2048">
   <font-face font-family="Liberation Sans embedded" units-per-em="2048" font-weight="normal" font-style="normal" ascent="1852" descent="423"/>
   <missing-glyph horiz-adv-x="2048" d="M 0,0 L 2047,0 2047,2047 0,2047 0,0 Z"/>
   <glyph unicode="é" horiz-adv-x="980" d="M 276,503 C 276,379 302,283 353,216 404,149 479,115 578,115 656,115 719,131 766,162 813,193 844,233 861,281 L 1019,236 C 954,65 807,-20 578,-20 418,-20 296,28 213,123 129,218 87,360 87,548 87,727 129,864 213,959 296,1054 416,1102 571,1102 889,1102 1048,910 1048,527 L 1048,503 276,503 Z M 862,641 C 852,755 823,838 775,891 727,943 658,969 568,969 481,969 412,940 361,882 310,823 282,743 278,641 L 862,641 Z M 440,1201 L 440,1221 657,1508 864,1508 864,1479 534,1201 440,1201 Z"/>
   <glyph unicode="ç" horiz-adv-x="901" d="M 275,546 C 275,402 298,295 343,226 388,157 457,122 548,122 612,122 666,139 709,174 752,209 778,262 788,334 L 970,322 C 956,218 912,135 837,73 762,11 668,-20 553,-20 402,-20 286,28 207,124 127,219 87,359 87,542 87,724 127,863 207,959 287,1054 402,1102 551,1102 662,1102 754,1073 827,1016 900,959 945,880 964,779 L 779,765 C 770,825 746,873 708,908 670,943 616,961 546,961 451,961 382,929 339,866 296,803 275,696 275,546 Z M 751,-252 C 751,-373 660,-434 477,-434 439,-434 409,-433 387,-430 L 387,-332 C 420,-336 448,-338 473,-338 571,-338 620,-311 620,-257 620,-206 576,-180 487,-180 458,-180 439,-181 430,-182 L 495,0 602,0 563,-102 C 626,-102 673,-116 704,-143 735,-170 751,-206 751,-252 Z"/>
   <glyph unicode="ã" horiz-adv-x="1060" d="M 414,-20 C 305,-20 224,9 169,66 114,123 87,202 87,302 87,414 124,500 198,560 271,620 390,652 554,656 L 797,660 797,719 C 797,807 778,870 741,908 704,946 645,965 565,965 484,965 426,951 389,924 352,897 330,853 323,793 L 135,810 C 166,1005 310,1102 569,1102 705,1102 807,1071 876,1009 945,946 979,856 979,738 L 979,272 C 979,219 986,179 1000,152 1014,125 1041,111 1080,111 1097,111 1117,113 1139,118 L 1139,6 C 1094,-5 1047,-10 1000,-10 933,-10 885,8 855,43 824,78 807,132 803,207 L 797,207 C 751,124 698,66 637,32 576,-3 501,-20 414,-20 Z M 455,115 C 521,115 580,130 631,160 682,190 723,231 753,284 782,336 797,390 797,445 L 797,534 600,530 C 515,529 451,520 408,504 364,488 330,463 307,430 284,397 272,353 272,299 272,240 288,195 320,163 351,131 396,115 455,115 Z M 737,1201 C 709,1201 681,1207 653,1220 625,1232 598,1246 572,1261 546,1276 521,1289 498,1302 474,1314 452,1320 431,1320 394,1320 367,1310 349,1289 331,1268 319,1239 313,1201 L 222,1201 C 229,1269 241,1321 257,1356 273,1391 295,1418 322,1439 349,1459 383,1469 425,1469 454,1469 483,1463 511,1451 539,1438 566,1425 592,1410 618,1395 643,1381 666,1369 689,1356 710,1350 730,1350 797,1350 836,1390 847,1469 L 939,1469 C 928,1370 905,1301 872,1261 839,1221 794,1201 737,1201 Z"/>
   <glyph unicode="z" horiz-adv-x="848" d="M 83,0 L 83,137 688,943 117,943 117,1082 901,1082 901,945 295,139 922,139 922,0 83,0 Z"/>
   <glyph unicode="u" horiz-adv-x="874" d="M 314,1082 L 314,396 C 314,325 321,269 335,230 349,191 371,162 402,145 433,128 478,119 537,119 624,119 692,149 742,208 792,267 817,350 817,455 L 817,1082 997,1082 997,231 C 997,105 999,28 1003,0 L 833,0 C 832,3 832,12 831,27 830,42 830,59 829,78 828,97 826,132 825,185 L 822,185 C 781,110 733,58 679,27 624,-4 557,-20 476,-20 357,-20 271,10 216,69 161,128 133,225 133,361 L 133,1082 314,1082 Z"/>
   <glyph unicode="t" horiz-adv-x="531" d="M 554,8 C 495,-8 434,-16 372,-16 228,-16 156,66 156,229 L 156,951 31,951 31,1082 163,1082 216,1324 336,1324 336,1082 536,1082 536,951 336,951 336,268 C 336,216 345,180 362,159 379,138 408,127 450,127 474,127 509,132 554,141 L 554,8 Z"/>
   <glyph unicode="s" horiz-adv-x="901" d="M 950,299 C 950,197 912,118 835,63 758,8 650,-20 511,-20 376,-20 273,2 200,47 127,91 79,160 57,254 L 216,285 C 231,227 263,185 311,158 359,131 426,117 511,117 602,117 669,131 712,159 754,187 775,229 775,285 775,328 760,362 731,389 702,416 654,438 589,455 L 460,489 C 357,516 283,542 240,568 196,593 162,624 137,661 112,698 100,743 100,796 100,895 135,970 206,1022 276,1073 378,1099 513,1099 632,1099 727,1078 798,1036 868,994 912,927 931,834 L 769,814 C 759,862 732,899 689,925 645,950 586,963 513,963 432,963 372,951 333,926 294,901 275,864 275,814 275,783 283,758 299,738 315,718 339,701 370,687 401,673 467,654 568,629 663,605 732,583 774,563 816,542 849,520 874,495 898,470 917,442 930,410 943,377 950,340 950,299 Z"/>
   <glyph unicode="r" horiz-adv-x="530" d="M 142,0 L 142,830 C 142,906 140,990 136,1082 L 306,1082 C 311,959 314,886 314,861 L 318,861 C 347,954 380,1017 417,1051 454,1085 507,1102 575,1102 599,1102 623,1099 648,1092 L 648,927 C 624,934 592,937 552,937 477,937 420,905 381,841 342,776 322,684 322,564 L 322,0 142,0 Z"/>
   <glyph unicode="p" horiz-adv-x="953" d="M 1053,546 C 1053,169 920,-20 655,-20 488,-20 376,43 319,168 L 314,168 C 317,163 318,106 318,-2 L 318,-425 138,-425 138,861 C 138,972 136,1046 132,1082 L 306,1082 C 307,1079 308,1070 309,1054 310,1037 312,1012 314,978 315,944 316,921 316,908 L 320,908 C 352,975 394,1024 447,1055 500,1086 569,1101 655,1101 788,1101 888,1056 954,967 1020,878 1053,737 1053,546 Z M 864,542 C 864,693 844,800 803,865 762,930 698,962 609,962 538,962 482,947 442,917 401,887 371,840 350,777 329,713 318,630 318,528 318,386 341,281 386,214 431,147 505,113 607,113 696,113 762,146 803,212 844,277 864,387 864,542 Z"/>
   <glyph unicode="o" horiz-adv-x="980" d="M 1053,542 C 1053,353 1011,212 928,119 845,26 724,-20 565,-20 407,-20 288,28 207,125 126,221 86,360 86,542 86,915 248,1102 571,1102 736,1102 858,1057 936,966 1014,875 1053,733 1053,542 Z M 864,542 C 864,691 842,800 798,868 753,935 679,969 574,969 469,969 393,935 346,866 299,797 275,689 275,542 275,399 298,292 345,221 391,149 464,113 563,113 671,113 748,148 795,217 841,286 864,395 864,542 Z"/>
   <glyph unicode="n" horiz-adv-x="874" d="M 825,0 L 825,686 C 825,757 818,813 804,852 790,891 768,920 737,937 706,954 661,963 602,963 515,963 447,933 397,874 347,815 322,732 322,627 L 322,0 142,0 142,851 C 142,977 140,1054 136,1082 L 306,1082 C 307,1079 307,1070 308,1055 309,1040 310,1024 311,1005 312,986 313,950 314,897 L 317,897 C 358,972 406,1025 461,1056 515,1087 582,1102 663,1102 782,1102 869,1073 924,1014 979,955 1006,857 1006,721 L 1006,0 825,0 Z"/>
   <glyph unicode="m" horiz-adv-x="1457" d="M 768,0 L 768,686 C 768,791 754,863 725,903 696,943 645,963 570,963 493,963 433,934 388,875 343,816 321,734 321,627 L 321,0 142,0 142,851 C 142,977 140,1054 136,1082 L 306,1082 C 307,1079 307,1070 308,1055 309,1040 310,1024 311,1005 312,986 313,950 314,897 L 317,897 C 356,974 400,1027 450,1057 500,1087 561,1102 633,1102 715,1102 780,1086 828,1053 875,1020 908,968 927,897 L 930,897 C 967,970 1013,1022 1066,1054 1119,1086 1183,1102 1258,1102 1367,1102 1447,1072 1497,1013 1546,954 1571,856 1571,721 L 1571,0 1393,0 1393,686 C 1393,791 1379,863 1350,903 1321,943 1270,963 1195,963 1116,963 1055,934 1012,876 968,817 946,734 946,627 L 946,0 768,0 Z"/>
   <glyph unicode="l" horiz-adv-x="187" d="M 138,0 L 138,1484 318,1484 318,0 138,0 Z"/>
   <glyph unicode="i" horiz-adv-x="187" d="M 137,1312 L 137,1484 317,1484 317,1312 137,1312 Z M 137,0 L 137,1082 317,1082 317,0 137,0 Z"/>
   <glyph unicode="h" horiz-adv-x="874" d="M 317,897 C 356,968 402,1020 457,1053 511,1086 580,1102 663,1102 780,1102 867,1073 923,1015 978,956 1006,858 1006,721 L 1006,0 825,0 825,686 C 825,762 818,819 804,856 790,893 767,920 735,937 703,954 659,963 602,963 517,963 450,934 399,875 348,816 322,737 322,638 L 322,0 142,0 142,1484 322,1484 322,1098 C 322,1057 321,1015 319,972 316,929 315,904 314,897 L 317,897 Z"/>
   <glyph unicode="g" horiz-adv-x="927" d="M 548,-425 C 430,-425 336,-402 266,-356 196,-309 151,-243 131,-158 L 312,-132 C 324,-182 351,-220 392,-248 433,-274 486,-288 553,-288 732,-288 822,-183 822,27 L 822,201 820,201 C 786,132 739,80 680,45 621,10 551,-8 472,-8 339,-8 242,36 180,124 117,212 86,350 86,539 86,730 120,872 187,963 254,1054 355,1099 492,1099 569,1099 635,1082 692,1047 748,1012 791,962 822,897 L 824,897 C 824,917 825,952 828,1001 831,1050 833,1077 836,1082 L 1007,1082 C 1003,1046 1001,971 1001,858 L 1001,31 C 1001,-273 850,-425 548,-425 Z M 822,541 C 822,629 810,705 786,769 762,832 728,881 685,915 641,948 591,965 536,965 444,965 377,932 335,865 293,798 272,690 272,541 272,393 292,287 331,222 370,157 438,125 533,125 590,125 640,142 684,175 728,208 762,256 786,319 810,381 822,455 822,541 Z"/>
   <glyph unicode="f" horiz-adv-x="557" d="M 361,951 L 361,0 181,0 181,951 29,951 29,1082 181,1082 181,1204 C 181,1303 203,1374 246,1417 289,1460 356,1482 445,1482 495,1482 537,1478 572,1470 L 572,1333 C 542,1338 515,1341 492,1341 446,1341 413,1329 392,1306 371,1283 361,1240 361,1179 L 361,1082 572,1082 572,951 361,951 Z"/>
   <glyph unicode="e" horiz-adv-x="980" d="M 276,503 C 276,379 302,283 353,216 404,149 479,115 578,115 656,115 719,131 766,162 813,193 844,233 861,281 L 1019,236 C 954,65 807,-20 578,-20 418,-20 296,28 213,123 129,218 87,360 87,548 87,727 129,864 213,959 296,1054 416,1102 571,1102 889,1102 1048,910 1048,527 L 1048,503 276,503 Z M 862,641 C 852,755 823,838 775,891 727,943 658,969 568,969 481,969 412,940 361,882 310,823 282,743 278,641 L 862,641 Z"/>
   <glyph unicode="d" horiz-adv-x="927" d="M 821,174 C 788,105 744,55 689,25 634,-5 565,-20 484,-20 347,-20 247,26 183,118 118,210 86,349 86,536 86,913 219,1102 484,1102 566,1102 634,1087 689,1057 744,1027 788,979 821,914 L 823,914 821,1035 821,1484 1001,1484 1001,223 C 1001,110 1003,36 1007,0 L 835,0 C 833,11 831,35 829,74 826,113 825,146 825,174 L 821,174 Z M 275,542 C 275,391 295,282 335,217 375,152 440,119 530,119 632,119 706,154 752,225 798,296 821,405 821,554 821,697 798,802 752,869 706,936 633,969 532,969 441,969 376,936 336,869 295,802 275,693 275,542 Z"/>
   <glyph unicode="c" horiz-adv-x="901" d="M 275,546 C 275,402 298,295 343,226 388,157 457,122 548,122 612,122 666,139 709,174 752,209 778,262 788,334 L 970,322 C 956,218 912,135 837,73 762,11 668,-20 553,-20 402,-20 286,28 207,124 127,219 87,359 87,542 87,724 127,863 207,959 287,1054 402,1102 551,1102 662,1102 754,1073 827,1016 900,959 945,880 964,779 L 779,765 C 770,825 746,873 708,908 670,943 616,961 546,961 451,961 382,929 339,866 296,803 275,696 275,546 Z"/>
   <glyph unicode="a" horiz-adv-x="1060" d="M 414,-20 C 305,-20 224,9 169,66 114,123 87,202 87,302 87,414 124,500 198,560 271,620 390,652 554,656 L 797,660 797,719 C 797,807 778,870 741,908 704,946 645,965 565,965 484,965 426,951 389,924 352,897 330,853 323,793 L 135,810 C 166,1005 310,1102 569,1102 705,1102 807,1071 876,1009 945,946 979,856 979,738 L 979,272 C 979,219 986,179 1000,152 1014,125 1041,111 1080,111 1097,111 1117,113 1139,118 L 1139,6 C 1094,-5 1047,-10 1000,-10 933,-10 885,8 855,43 824,78 807,132 803,207 L 797,207 C 751,124 698,66 637,32 576,-3 501,-20 414,-20 Z M 455,115 C 521,115 580,130 631,160 682,190 723,231 753,284 782,336 797,390 797,445 L 797,534 600,530 C 515,529 451,520 408,504 364,488 330,463 307,430 284,397 272,353 272,299 272,240 288,195 320,163 351,131 396,115 455,115 Z"/>
   <glyph unicode="T" horiz-adv-x="1192" d="M 720,1253 L 720,0 530,0 530,1253 46,1253 46,1409 1204,1409 1204,1253 720,1253 Z"/>
   <glyph unicode="S" horiz-adv-x="1192" d="M 1272,389 C 1272,259 1221,158 1120,87 1018,16 875,-20 690,-20 347,-20 148,99 93,338 L 278,375 C 299,290 345,228 414,189 483,149 578,129 697,129 820,129 916,150 983,193 1050,235 1083,297 1083,379 1083,425 1073,462 1052,491 1031,520 1001,543 963,562 925,581 880,596 827,609 774,622 716,635 652,650 541,675 456,699 399,724 341,749 295,776 262,807 229,837 203,872 186,913 168,954 159,1000 159,1053 159,1174 205,1267 298,1332 390,1397 522,1430 694,1430 854,1430 976,1406 1061,1357 1146,1308 1205,1224 1239,1106 L 1051,1073 C 1030,1148 991,1202 933,1236 875,1269 795,1286 692,1286 579,1286 493,1267 434,1230 375,1193 345,1137 345,1063 345,1020 357,984 380,956 403,927 436,903 479,884 522,864 609,840 738,811 781,801 825,791 868,781 911,770 952,758 991,744 1030,729 1067,712 1102,693 1136,674 1166,650 1191,622 1216,594 1236,561 1251,523 1265,485 1272,440 1272,389 Z"/>
   <glyph unicode="R" horiz-adv-x="1244" d="M 1164,0 L 798,585 359,585 359,0 168,0 168,1409 831,1409 C 990,1409 1112,1374 1199,1303 1285,1232 1328,1133 1328,1006 1328,901 1298,813 1237,742 1176,671 1091,626 984,607 L 1384,0 1164,0 Z M 1136,1004 C 1136,1086 1108,1149 1053,1192 997,1235 917,1256 812,1256 L 359,1256 359,736 820,736 C 921,736 999,760 1054,807 1109,854 1136,919 1136,1004 Z"/>
   <glyph unicode="N" horiz-adv-x="1165" d="M 1082,0 L 328,1200 333,1103 338,936 338,0 168,0 168,1409 390,1409 1152,201 C 1144,332 1140,426 1140,485 L 1140,1409 1312,1409 1312,0 1082,0 Z"/>
   <glyph unicode="G" horiz-adv-x="1377" d="M 103,711 C 103,940 164,1117 287,1242 410,1367 582,1430 804,1430 960,1430 1087,1404 1184,1351 1281,1298 1356,1214 1409,1098 L 1227,1044 C 1187,1124 1132,1182 1062,1219 991,1256 904,1274 799,1274 636,1274 512,1225 426,1127 340,1028 297,890 297,711 297,533 343,393 434,290 525,187 652,135 813,135 905,135 991,149 1071,177 1150,205 1215,243 1264,291 L 1264,545 843,545 843,705 1440,705 1440,219 C 1365,143 1274,84 1166,43 1057,1 940,-20 813,-20 666,-20 539,9 432,68 325,127 244,211 188,322 131,432 103,562 103,711 Z"/>
   <glyph unicode="E" horiz-adv-x="1138" d="M 168,0 L 168,1409 1237,1409 1237,1253 359,1253 359,801 1177,801 1177,647 359,647 359,156 1278,156 1278,0 168,0 Z"/>
   <glyph unicode="2" horiz-adv-x="954" d="M 103,0 L 103,127 C 137,205 179,274 228,334 277,393 328,447 382,496 436,544 490,589 543,630 596,671 643,713 686,754 729,795 763,839 790,884 816,929 829,981 829,1038 829,1115 806,1175 761,1218 716,1261 653,1282 572,1282 495,1282 432,1261 383,1220 333,1178 304,1119 295,1044 L 111,1061 C 124,1174 172,1263 255,1330 337,1397 443,1430 572,1430 714,1430 823,1397 900,1330 976,1263 1014,1167 1014,1044 1014,989 1002,935 977,881 952,827 914,773 865,719 816,665 721,581 582,468 505,405 444,349 399,299 354,248 321,200 301,153 L 1036,153 1036,0 103,0 Z"/>
   <glyph unicode="1" horiz-adv-x="927" d="M 156,0 L 156,153 515,153 515,1237 197,1010 197,1180 530,1409 696,1409 696,153 1039,153 1039,0 156,0 Z"/>
   <glyph unicode="-" horiz-adv-x="531" d="M 91,464 L 91,624 591,624 591,464 91,464 Z"/>
   <glyph unicode=")" horiz-adv-x="557" d="M 555,528 C 555,335 525,162 465,9 404,-144 311,-289 186,-424 L 12,-424 C 137,-284 229,-136 287,19 345,174 374,344 374,530 374,716 345,887 287,1042 228,1197 137,1345 12,1484 L 186,1484 C 312,1348 405,1203 465,1050 525,896 555,723 555,532 L 555,528 Z"/>
   <glyph unicode="(" horiz-adv-x="583" d="M 127,532 C 127,725 157,898 218,1051 278,1204 371,1349 496,1484 L 670,1484 C 545,1345 454,1198 396,1042 337,886 308,715 308,530 308,345 337,175 395,20 452,-135 544,-283 670,-424 L 496,-424 C 370,-288 277,-143 217,11 157,164 127,337 127,528 L 127,532 Z"/>
   <glyph unicode="&amp;" horiz-adv-x="1297" d="M 1193,-12 C 1075,-12 976,30 895,115 845,72 788,38 724,15 660,-8 593,-20 523,-20 380,-20 269,15 190,84 111,153 72,248 72,371 72,556 186,699 415,800 393,841 374,890 358,947 342,1004 334,1055 334,1102 334,1202 365,1280 426,1335 487,1390 573,1417 685,1417 786,1417 867,1392 929,1341 990,1290 1021,1221 1021,1133 1021,1054 991,984 930,923 869,862 763,801 612,741 686,604 784,467 905,329 980,440 1037,576 1076,739 L 1221,696 C 1179,530 1108,374 1009,227 1073,162 1142,129 1217,129 1264,129 1303,134 1334,145 L 1334,10 C 1297,-5 1250,-12 1193,-12 Z M 869,1133 C 869,1181 852,1220 819,1251 786,1281 740,1296 683,1296 619,1296 570,1279 537,1245 504,1210 487,1163 487,1102 487,1026 509,945 552,858 639,893 704,924 745,950 786,976 817,1004 838,1034 859,1064 869,1097 869,1133 Z M 795,217 C 663,373 557,525 476,674 319,607 240,507 240,373 240,292 266,229 318,182 369,135 440,111 529,111 576,111 624,120 671,139 718,157 760,183 795,217 Z"/>
   <glyph unicode=" " horiz-adv-x="556"/>
  </font>
 </defs>
 <defs class="TextShapeIndex">
  <g ooo:slide="id1" ooo:id-list="id3 id4 id5 id6 id7 id8 id9 id10 id11 id12 id13 id14 id15"/>
 </defs>
 <defs class="EmbeddedBulletChars">
  <g id="bullet-char-template-57356" transform="scale(0.00048828125,-0.00048828125)">
   <path d="M 580,1141 L 1163,571 580,0 -4,571 580,1141 Z"/>
  </g>
  <g id="bullet-char-template-57354" transform="scale(0.00048828125,-0.00048828125)">
   <path d="M 8,1128 L 1137,1128 1137,0 8,0 8,1128 Z"/>
  </g>
  <g id="bullet-char-template-10146" transform="scale(0.00048828125,-0.00048828125)">
   <path d="M 174,0 L 602,739 174,1481 1456,739 174,0 Z M 1358,739 L 309,1346 659,739 1358,739 Z"/>
  </g>
  <g id="bullet-char-template-10132" transform="scale(0.00048828125,-0.00048828125)">
   <path d="M 2015,739 L 1276,0 717,0 1260,543 174,543 174,936 1260,936 717,1481 1274,1481 2015,739 Z"/>
  </g>
  <g id="bullet-char-template-10007" transform="scale(0.00048828125,-0.00048828125)">
   <path d="M 0,-2 C -7,14 -16,27 -25,37 L 356,567 C 262,823 215,952 215,954 215,979 228,992 255,992 264,992 276,990 289,987 310,991 331,999 354,1012 L 381,999 492,748 772,1049 836,1024 860,1049 C 881,1039 901,1025 922,1006 886,937 835,863 770,784 769,783 710,716 594,584 L 774,223 C 774,196 753,168 711,139 L 727,119 C 717,90 699,76 672,76 641,76 570,178 457,381 L 164,-76 C 142,-110 111,-127 72,-127 30,-127 9,-110 8,-76 1,-67 -2,-52 -2,-32 -2,-23 -1,-13 0,-2 Z"/>
  </g>
  <g id="bullet-char-template-10004" transform="scale(0.00048828125,-0.00048828125)">
   <path d="M 285,-33 C 182,-33 111,30 74,156 52,228 41,333 41,471 41,549 55,616 82,672 116,743 169,778 240,778 293,778 328,747 346,684 L 369,508 C 377,444 397,411 428,410 L 1163,1116 C 1174,1127 1196,1133 1229,1133 1271,1133 1292,1118 1292,1087 L 1292,965 C 1292,929 1282,901 1262,881 L 442,47 C 390,-6 338,-33 285,-33 Z"/>
  </g>
  <g id="bullet-char-template-9679" transform="scale(0.00048828125,-0.00048828125)">
   <path d="M 813,0 C 632,0 489,54 383,161 276,268 223,411 223,592 223,773 276,916 383,1023 489,1130 632,1184 813,1184 992,1184 1136,1130 1245,1023 1353,916 1407,772 1407,592 1407,412 1353,268 1245,161 1136,54 992,0 813,0 Z"/>
  </g>
  <g id="bullet-char-template-8226" transform="scale(0.00048828125,-0.00048828125)">
   <path d="M 346,457 C 273,457 209,483 155,535 101,586 74,649 74,723 74,796 101,859 155,911 209,963 273,989 346,989 419,989 480,963 531,910 582,859 608,796 608,723 608,648 583,586 532,535 482,483 420,457 346,457 Z"/>
  </g>
  <g id="bullet-char-template-8211" transform="scale(0.00048828125,-0.00048828125)">
   <path d="M -4,459 L 1135,459 1135,606 -4,606 -4,459 Z"/>
  </g>
  <g id="bullet-char-template-61548" transform="scale(0.00048828125,-0.00048828125)">
   <path d="M 173,740 C 173,903 231,1043 346,1159 462,1274 601,1332 765,1332 928,1332 1067,1274 1183,1159 1299,1043 1357,903 1357,740 1357,577 1299,437 1183,322 1067,206 928,148 765,148 601,148 462,206 346,322 231,437 173,577 173,740 Z"/>
  </g>
 </defs>
 <g>
  <g id="id2" class="Master_Slide">
   <g id="bg-id2" class="Background"/>
   <g id="bo-id2" class="BackgroundObjects"/>
  </g>
 </g>
 <g class="SlideGroup">
  <g>
   <g id="container-id1">
    <g id="id1" class="Slide" clip-path="url(#presentation_clip_path)">
     <g class="Page">
      <g class="com.sun.star.drawing.CustomShape">
       <g id="id3">
        <rect class="BoundingBox" stroke="none" fill="none" x="2099" y="1799" width="5003" height="5003"/>
        <path fill="rgb(255,128,0)" stroke="none" d="M 4600,6800 L 2100,6800 2100,1800 7100,1800 7100,6800 4600,6800 Z"/>
        <path fill="none" stroke="rgb(52,101,164)" d="M 4600,6800 L 2100,6800 2100,1800 7100,1800 7100,6800 4600,6800 Z"/>
        <text class="SVGTextShape"><tspan class="TextParagraph" font-family="Liberation Sans, sans-serif" font-size="635px" font-weight="400"><tspan class="TextPosition" x="3947" y="3809"><tspan fill="rgb(0,0,0)" stroke="none" style="white-space: pre">Sem </tspan></tspan><tspan class="TextPosition" x="3069" y="4520"><tspan fill="rgb(0,0,0)" stroke="none" style="white-space: pre">Segurança</tspan></tspan></tspan><tspan class="TextParagraph" font-family="Liberation Sans, sans-serif" font-size="635px" font-weight="400"><tspan class="TextPosition" x="3067" y="5231"><tspan fill="rgb(0,0,0)" stroke="none" style="white-space: pre">(zero-safe)</tspan></tspan></tspan></text>
       </g>
      </g>
      <g class="com.sun.star.drawing.CustomShape">
       <g id="id4">
        <rect class="BoundingBox" stroke="none" fill="none" x="7099" y="1799" width="5003" height="5003"/>
        <path fill="rgb(80,147,138)" stroke="none" d="M 9600,6800 L 7100,6800 7100,1800 12100,1800 12100,6800 9600,6800 Z"/>
        <path fill="none" stroke="rgb(52,101,164)" d="M 9600,6800 L 7100,6800 7100,1800 12100,1800 12100,6800 9600,6800 Z"/>
        <text class="SVGTextShape"><tspan class="TextParagraph" font-family="Liberation Sans, sans-serif" font-size="635px" font-weight="400"><tspan class="TextPosition" x="8666" y="4520"><tspan fill="rgb(0,0,0)" stroke="none" style="white-space: pre">1-Safe</tspan></tspan></tspan></text>
       </g>
      </g>
      <g class="com.sun.star.drawing.CustomShape">
       <g id="id5">
        <rect class="BoundingBox" stroke="none" fill="none" x="2099" y="6799" width="5003" height="5003"/>
        <path fill="rgb(255,128,0)" stroke="none" d="M 4600,11800 L 2100,11800 2100,6800 7100,6800 7100,11800 4600,11800 Z"/>
        <path fill="none" stroke="rgb(52,101,164)" d="M 4600,11800 L 2100,11800 2100,6800 7100,6800 7100,11800 4600,11800 Z"/>
        <text class="SVGTextShape"><tspan class="TextParagraph" font-family="Liberation Sans, sans-serif" font-size="635px" font-weight="400"><tspan class="TextPosition" x="2961" y="9520"><tspan fill="rgb(0,0,0)" stroke="none" style="white-space: pre">Group-Safe</tspan></tspan></tspan></text>
       </g>
      </g>
      <g class="com.sun.star.drawing.CustomShape">
       <g id="id6">
        <rect class="BoundingBox" stroke="none" fill="none" x="7099" y="6799" width="5003" height="5003"/>
        <path fill="rgb(80,147,138)" stroke="none" d="M 9600,11800 L 7100,11800 7100,6800 12100,6800 12100,11800 9600,11800 Z"/>
        <path fill="none" stroke="rgb(52,101,164)" d="M 9600,11800 L 7100,11800 7100,6800 12100,6800 12100,11800 9600,11800 Z"/>
        <text class="SVGTextShape"><tspan class="TextParagraph" font-family="Liberation Sans, sans-serif" font-size="635px" font-weight="400"><tspan class="TextPosition" x="7961" y="8809"><tspan fill="rgb(0,0,0)" stroke="none" style="white-space: pre">Group-Safe</tspan></tspan></tspan><tspan class="TextParagraph" font-family="Liberation Sans, sans-serif" font-size="635px" font-weight="400"><tspan class="TextPosition" x="8365" y="9520"><tspan fill="rgb(0,0,0)" stroke="none" style="white-space: pre">&amp; 1-Safe</tspan></tspan></tspan><tspan class="TextParagraph" font-family="Liberation Sans, sans-serif" font-size="635px" font-weight="400"><tspan class="TextPosition" x="7468" y="10231"><tspan fill="rgb(0,0,0)" stroke="none" style="white-space: pre">(Group-1-Safe)</tspan></tspan></tspan></text>
       </g>
      </g>
      <g class="com.sun.star.drawing.CustomShape">
       <g id="id7">
        <rect class="BoundingBox" stroke="none" fill="none" x="12099" y="6799" width="5003" height="5003"/>
        <path fill="rgb(141,40,30)" stroke="none" d="M 14600,11800 L 12100,11800 12100,6800 17100,6800 17100,11800 14600,11800 Z"/>
        <path fill="none" stroke="rgb(52,101,164)" d="M 14600,11800 L 12100,11800 12100,6800 17100,6800 17100,11800 14600,11800 Z"/>
        <text class="SVGTextShape"><tspan class="TextParagraph" font-family="Liberation Sans, sans-serif" font-size="635px" font-weight="400"><tspan class="TextPosition" x="13666" y="9520"><tspan fill="rgb(0,0,0)" stroke="none" style="white-space: pre">2-Safe</tspan></tspan></tspan></text>
       </g>
      </g>
      <g class="TextShape">
       <g id="id8">
        <rect class="BoundingBox" stroke="none" fill="none" x="1850" y="950" width="5532" height="963"/>
        <text class="SVGTextShape"><tspan class="TextParagraph" font-family="Liberation Sans, sans-serif" font-size="635px" font-weight="400"><tspan class="TextPosition" x="2100" y="1651"><tspan fill="rgb(0,0,0)" stroke="none" style="white-space: pre">Nenhuma Réplica</tspan></tspan></tspan></text>
       </g>
      </g>
      <g class="TextShape">
       <g id="id9">
        <rect class="BoundingBox" stroke="none" fill="none" x="8100" y="950" width="3140" height="963"/>
        <text class="SVGTextShape"><tspan class="TextParagraph" font-family="Liberation Sans, sans-serif" font-size="635px" font-weight="400"><tspan class="TextPosition" x="8350" y="1651"><tspan fill="rgb(0,0,0)" stroke="none" style="white-space: pre">1 Réplica</tspan></tspan></tspan></text>
       </g>
      </g>
      <g class="TextShape">
       <g id="id10">
        <rect class="BoundingBox" stroke="none" fill="none" x="11750" y="950" width="5642" height="963"/>
        <text class="SVGTextShape"><tspan class="TextParagraph" font-family="Liberation Sans, sans-serif" font-size="635px" font-weight="400"><tspan class="TextPosition" x="12000" y="1651"><tspan fill="rgb(0,0,0)" stroke="none" style="white-space: pre">Todas as Réplicas</tspan></tspan></tspan></text>
       </g>
      </g>
      <g class="TextShape">
       <g id="id11">
        <rect class="BoundingBox" stroke="none" fill="none" x="1090" y="2560" width="963" height="3140"/>
        <text class="SVGTextShape" transform="rotate(-90 1791 5449)"><tspan class="TextParagraph" font-family="Liberation Sans, sans-serif" font-size="635px" font-weight="400"><tspan class="TextPosition" x="1791" y="5449"><tspan fill="rgb(0,0,0)" stroke="none" style="white-space: pre">1 Réplica</tspan></tspan></tspan></text>
       </g>
      </g>
      <g class="TextShape">
       <g id="id12">
        <rect class="BoundingBox" stroke="none" fill="none" x="1090" y="6608" width="963" height="5642"/>
        <text class="SVGTextShape" transform="rotate(-90 1791 11999)"><tspan class="TextParagraph" font-family="Liberation Sans, sans-serif" font-size="635px" font-weight="400"><tspan class="TextPosition" x="1791" y="11999"><tspan fill="rgb(0,0,0)" stroke="none" style="white-space: pre">Todas as Réplicas</tspan></tspan></tspan></text>
       </g>
      </g>
      <g class="TextShape">
       <g id="id13">
        <rect class="BoundingBox" stroke="none" fill="none" x="60" y="3262" width="1251" height="7179"/>
        <text class="SVGTextShape" transform="rotate(-90 854 10190)"><tspan class="TextParagraph" font-family="Liberation Sans, sans-serif" font-size="741px" font-weight="400"><tspan class="TextPosition" x="854" y="10190"><tspan fill="rgb(0,0,0)" stroke="none" style="white-space: pre">Transação Entregue</tspan></tspan></tspan></text>
       </g>
      </g>
      <g class="com.sun.star.drawing.CustomShape">
       <g id="id14">
        <rect class="BoundingBox" stroke="none" fill="none" x="12099" y="1799" width="5003" height="5003"/>
        <g>
         <defs>
          <pattern id="pattern1" x="12100" y="1800" width="5001" height="5001" patternUnits="userSpaceOnUse">
           <g transform="translate(-12100,-1800)">
            <line fill="rgb(42,96,153)" stroke="rgb(42,96,153)" x1="12100" y1="2459" x2="12759" y2="1800"/>
            <line fill="rgb(42,96,153)" stroke="rgb(42,96,153)" x1="12100" y1="3170" x2="13470" y2="1800"/>
            <line fill="rgb(42,96,153)" stroke="rgb(42,96,153)" x1="12100" y1="3881" x2="14181" y2="1800"/>
            <line fill="rgb(42,96,153)" stroke="rgb(42,96,153)" x1="12100" y1="4592" x2="14892" y2="1800"/>
            <line fill="rgb(42,96,153)" stroke="rgb(42,96,153)" x1="12100" y1="5303" x2="15603" y2="1800"/>
            <line fill="rgb(42,96,153)" stroke="rgb(42,96,153)" x1="12100" y1="6014" x2="16314" y2="1800"/>
            <line fill="rgb(42,96,153)" stroke="rgb(42,96,153)" x1="12100" y1="6725" x2="17025" y2="1800"/>
            <line fill="rgb(42,96,153)" stroke="rgb(42,96,153)" x1="12736" y1="6800" x2="17100" y2="2436"/>
            <line fill="rgb(42,96,153)" stroke="rgb(42,96,153)" x1="13447" y1="6800" x2="17100" y2="3147"/>
            <line fill="rgb(42,96,153)" stroke="rgb(42,96,153)" x1="14158" y1="6800" x2="17100" y2="3858"/>
            <line fill="rgb(42,96,153)" stroke="rgb(42,96,153)" x1="14869" y1="6800" x2="17100" y2="4569"/>
            <line fill="rgb(42,96,153)" stroke="rgb(42,96,153)" x1="15580" y1="6800" x2="17100" y2="5280"/>
            <line fill="rgb(42,96,153)" stroke="rgb(42,96,153)" x1="16291" y1="6800" x2="17100" y2="5991"/>
            <line fill="rgb(42,96,153)" stroke="rgb(42,96,153)" x1="17002" y1="6800" x2="17100" y2="6702"/>
           </g>
          </pattern>
         </defs>
         <path style="fill:url(#pattern1)" d="M 14600,6800 L 12100,6800 12100,1800 17100,1800 17100,6800 14600,6800 Z"/>
        </g>
        <path fill="none" stroke="rgb(52,101,164)" d="M 14600,6800 L 12100,6800 12100,1800 17100,1800 17100,6800 14600,6800 Z"/>
       </g>
      </g>
      <g class="TextShape">
       <g id="id15">
        <rect class="BoundingBox" stroke="none" fill="none" x="5550" y="0" width="7446" height="1039"/>
        <text class="SVGTextShape"><tspan class="TextParagraph" font-family="Liberation Sans, sans-serif" font-size="706px" font-weight="400"><tspan class="TextPosition" x="5800" y="764"><tspan fill="rgb(0,0,0)" stroke="none" style="white-space: pre">Transação Registrada</tspan></tspan></tspan></text>
       </g>
      </g>
     </g>
    </g>
   </g>
  </g>
 </g>
</svg>