<?xml version="1.0" encoding="UTF-8"?>
<!DOCTYPE svg PUBLIC "-//W3C//DTD SVG 1.1//EN" "http://www.w3.org/Graphics/SVG/1.1/DTD/svg11.dtd">
<svg version="1.2" width="200mm" height="160mm" viewBox="0 0 20000 16000" preserveAspectRatio="xMidYMid" fill-rule="evenodd" stroke-width="28.222" stroke-linejoin="round" xmlns="http://www.w3.org/2000/svg" xmlns:ooo="http://xml.openoffice.org/svg/export" xmlns:xlink="http://www.w3.org/1999/xlink" xmlns:presentation="http://sun.com/xmlns/staroffice/presentation" xmlns:smil="http://www.w3.org/2001/SMIL20/" xmlns:anim="urn:oasis:names:tc:opendocument:xmlns:animation:1.0" xmlns:svg="urn:oasis:names:tc:opendocument:xmlns:svg-compatible:1.0" xml:space="preserve">
 <defs class="ClipPathGroup">
  <clipPath id="presentation_clip_path" clipPathUnits="userSpaceOnUse">
   <rect x="0" y="0" width="20000" height="16000"/>
  </clipPath>
  <clipPath id="presentation_clip_path_shrink" clipPathUnits="userSpaceOnUse">
   <rect x="20" y="16" width="19960" height="15968"/>
  </clipPath>
 </defs>
 <defs>
  <font id="EmbeddedFont_1" horiz-adv-x="2048">
   <font-face font-family="Liberation Sans embedded" units-per-em="2048" font-weight="normal" font-style="normal" ascent="1852" descent="423"/>
   <missing-glyph horiz-adv-x="2048" d="M 0,0 L 2047,0 2047,2047 0,2047 0,0 Z"/>
   <glyph unicode="ç" horiz-adv-x="901" d="M 275,546 C 275,402 298,295 343,226 388,157 457,122 548,122 612,122 666,139 709,174 752,209 778,262 788,334 L 970,322 C 956,218 912,135 837,73 762,11 668,-20 553,-20 402,-20 286,28 207,124 127,219 87,359 87,542 87,724 127,863 207,959 287,1054 402,1102 551,1102 662,1102 754,1073 827,1016 900,959 945,880 964,779 L 779,765 C 770,825 746,873 708,908 670,943 616,961 546,961 451,961 382,929 339,866 296,803 275,696 275,546 Z M 751,-252 C 751,-373 660,-434 477,-434 439,-434 409,-433 387,-430 L 387,-332 C 420,-336 448,-338 473,-338 571,-338 620,-311 620,-257 620,-206 576,-180 487,-180 458,-180 439,-181 430,-182 L 495,0 602,0 563,-102 C 626,-102 673,-116 704,-143 735,-170 751,-206 751,-252 Z"/>
   <glyph unicode="ã" horiz-adv-x="1060" d="M 414,-20 C 305,-20 224,9 169,66 114,123 87,202 87,302 87,414 124,500 198,560 271,620 390,652 554,656 L 797,660 797,719 C 797,807 778,870 741,908 704,946 645,965 565,965 484,965 426,951 389,924 352,897 330,853 323,793 L 135,810 C 166,1005 310,1102 569,1102 705,1102 807,1071 876,1009 945,946 979,856 979,738 L 979,272 C 979,219 986,179 1000,152 1014,125 1041,111 1080,111 1097,111 1117,113 1139,118 L 1139,6 C 1094,-5 1047,-10 1000,-10 933,-10 885,8 855,43 824,78 807,132 803,207 L 797,207 C 751,124 698,66 637,32 576,-3 501,-20 414,-20 Z M 455,115 C 521,115 580,130 631,160 682,190 723,231 753,284 782,336 797,390 797,445 L 797,534 600,530 C 515,529 451,520 408,504 364,488 330,463 307,430 284,397 272,353 272,299 272,240 288,195 320,163 351,131 396,115 455,115 Z M 737,1201 C 709,1201 681,1207 653,1220 625,1232 598,1246 572,1261 546,1276 521,1289 498,1302 474,1314 452,1320 431,1320 394,1320 367,1310 349,1289 331,1268 319,1239 313,1201 L 222,1201 C 229,1269 241,1321 257,1356 273,1391 295,1418 322,1439 349,1459 383,1469 425,1469 454,1469 483,1463 511,1451 539,1438 566,1425 592,1410 618,1395 643,1381 666,1369 689,1356 710,1350 730,1350 797,1350 836,1390 847,1469 L 939,1469 C 928,1370 905,1301 872,1261 839,1221 794,1201 737,1201 Z"/>
   <glyph unicode="v" horiz-adv-x="1033" d="M 613,0 L 400,0 7,1082 199,1082 437,378 C 446,351 469,272 506,141 L 541,258 580,376 826,1082 1017,1082 613,0 Z"/>
   <glyph unicode="t" horiz-adv-x="531" d="M 554,8 C 495,-8 434,-16 372,-16 228,-16 156,66 156,229 L 156,951 31,951 31,1082 163,1082 216,1324 336,1324 336,1082 536,1082 536,951 336,951 336,268 C 336,216 345,180 362,159 379,138 408,127 450,127 474,127 509,132 554,141 L 554,8 Z"/>
   <glyph unicode="s" horiz-adv-x="901" d="M 950,299 C 950,197 912,118 835,63 758,8 650,-20 511,-20 376,-20 273,2 200,47 127,91 79,160 57,254 L 216,285 C 231,227 263,185 311,158 359,131 426,117 511,117 602,117 669,131 712,159 754,187 775,229 775,285 775,328 760,362 731,389 702,416 654,438 589,455 L 460,489 C 357,516 283,542 240,568 196,593 162,624 137,661 112,698 100,743 100,796 100,895 135,970 206,1022 276,1073 378,1099 513,1099 632,1099 727,1078 798,1036 868,994 912,927 931,834 L 769,814 C 759,862 732,899 689,925 645,950 586,963 513,963 432,963 372,951 333,926 294,901 275,864 275,814 275,783 283,758 299,738 315,718 339,701 370,687 401,673 467,654 568,629 663,605 732,583 774,563 816,542 849,520 874,495 898,470 917,442 930,410 943,377 950,340 950,299 Z"/>
   <glyph unicode="r" horiz-adv-x="530" d="M 142,0 L 142,830 C 142,906 140,990 136,1082 L 306,1082 C 311,959 314,886 314,861 L 318,861 C 347,954 380,1017 417,1051 454,1085 507,1102 575,1102 599,1102 623,1099 648,1092 L 648,927 C 624,934 592,937 552,937 477,937 420,905 381,841 342,776 322,684 322,564 L 322,0 142,0 Z"/>
   <glyph unicode="p" horiz-adv-x="953" d="M 1053,546 C 1053,169 920,-20 655,-20 488,-20 376,43 319,168 L 314,168 C 317,163 318,106 318,-2 L 318,-425 138,-425 138,861 C 138,972 136,1046 132,1082 L 306,1082 C 307,1079 308,1070 309,1054 310,1037 312,1012 314,978 315,944 316,921 316,908 L 320,908 C 352,975 394,1024 447,1055 500,1086 569,1101 655,1101 788,1101 888,1056 954,967 1020,878 1053,737 1053,546 Z M 864,542 C 864,693 844,800 803,865 762,930 698,962 609,962 538,962 482,947 442,917 401,887 371,840 350,777 329,713 318,630 318,528 318,386 341,281 386,214 431,147 505,113 607,113 696,113 762,146 803,212 844,277 864,387 864,542 Z"/>
   <glyph unicode="o" horiz-adv-x="980" d="M 1053,542 C 1053,353 1011,212 928,119 845,26 724,-20 565,-20 407,-20 288,28 207,125 126,221 86,360 86,542 86,915 248,1102 571,1102 736,1102 858,1057 936,966 1014,875 1053,733 1053,542 Z M 864,542 C 864,691 842,800 798,868 753,935 679,969 574,969 469,969 393,935 346,866 299,797 275,689 275,542 275,399 298,292 345,221 391,149 464,113 563,113 671,113 748,148 795,217 841,286 864,395 864,542 Z"/>
   <glyph unicode="n" horiz-adv-x="874" d="M 825,0 L 825,686 C 825,757 818,813 804,852 790,891 768,920 737,937 706,954 661,963 602,963 515,963 447,933 397,874 347,815 322,732 322,627 L 322,0 142,0 142,851 C 142,977 140,1054 136,1082 L 306,1082 C 307,1079 307,1070 308,1055 309,1040 310,1024 311,1005 312,986 313,950 314,897 L 317,897 C 358,972 406,1025 461,1056 515,1087 582,1102 663,1102 782,1102 869,1073 924,1014 979,955 1006,857 1006,721 L 1006,0 825,0 Z"/>
   <glyph unicode="m" horiz-adv-x="1457" d="M 768,0 L 768,686 C 768,791 754,863 725,903 696,943 645,963 570,963 493,963 433,934 388,875 343,816 321,734 321,627 L 321,0 142,0 142,851 C 142,977 140,1054 136,1082 L 306,1082 C 307,1079 307,1070 308,1055 309,1040 310,1024 311,1005 312,986 313,950 314,897 L 317,897 C 356,974 400,1027 450,1057 500,1087 561,1102 633,1102 715,1102 780,1086 828,1053 875,1020 908,968 927,897 L 930,897 C 967,970 1013,1022 1066,1054 1119,1086 1183,1102 1258,1102 1367,1102 1447,1072 1497,1013 1546,954 1571,856 1571,721 L 1571,0 1393,0 1393,686 C 1393,791 1379,863 1350,903 1321,943 1270,963 1195,963 1116,963 1055,934 1012,876 968,817 946,734 946,627 L 946,0 768,0 Z"/>
   <glyph unicode="l" horiz-adv-x="187" d="M 138,0 L 138,1484 318,1484 318,0 138,0 Z"/>
   <glyph unicode="i" horiz-adv-x="187" d="M 137,1312 L 137,1484 317,1484 317,1312 137,1312 Z M 137,0 L 137,1082 317,1082 317,0 137,0 Z"/>
   <glyph unicode="g" horiz-adv-x="927" d="M 548,-425 C 430,-425 336,-402 266,-356 196,-309 151,-243 131,-158 L 312,-132 C 324,-182 351,-220 392,-248 433,-274 486,-288 553,-288 732,-288 822,-183 822,27 L 822,201 820,201 C 786,132 739,80 680,45 621,10 551,-8 472,-8 339,-8 242,36 180,124 117,212 86,350 86,539 86,730 120,872 187,963 254,1054 355,1099 492,1099 569,1099 635,1082 692,1047 748,1012 791,962 822,897 L 824,897 C 824,917 825,952 828,1001 831,1050 833,1077 836,1082 L 1007,1082 C 1003,1046 1001,971 1001,858 L 1001,31 C 1001,-273 850,-425 548,-425 Z M 822,541 C 822,629 810,705 786,769 762,832 728,881 685,915 641,948 591,965 536,965 444,965 377,932 335,865 293,798 272,690 272,541 272,393 292,287 331,222 370,157 438,125 533,125 590,125 640,142 684,175 728,208 762,256 786,319 810,381 822,455 822,541 Z"/>
   <glyph unicode="e" horiz-adv-x="980" d="M 276,503 C 276,379 302,283 353,216 404,149 479,115 578,115 656,115 719,131 766,162 813,193 844,233 861,281 L 1019,236 C 954,65 807,-20 578,-20 418,-20 296,28 213,123 129,218 87,360 87,548 87,727 129,864 213,959 296,1054 416,1102 571,1102 889,1102 1048,910 1048,527 L 1048,503 276,503 Z M 862,641 C 852,755 823,838 775,891 727,943 658,969 568,969 481,969 412,940 361,882 310,823 282,743 278,641 L 862,641 Z"/>
   <glyph unicode="d" horiz-adv-x="927" d="M 821,174 C 788,105 744,55 689,25 634,-5 565,-20 484,-20 347,-20 247,26 183,118 118,210 86,349 86,536 86,913 219,1102 484,1102 566,1102 634,1087 689,1057 744,1027 788,979 821,914 L 823,914 821,1035 821,1484 1001,1484 1001,223 C 1001,110 1003,36 1007,0 L 835,0 C 833,11 831,35 829,74 826,113 825,146 825,174 L 821,174 Z M 275,542 C 275,391 295,282 335,217 375,152 440,119 530,119 632,119 706,154 752,225 798,296 821,405 821,554 821,697 798,802 752,869 706,936 633,969 532,969 441,969 376,936 336,869 295,802 275,693 275,542 Z"/>
   <glyph unicode="c" horiz-adv-x="901" d="M 275,546 C 275,402 298,295 343,226 388,157 457,122 548,122 612,122 666,139 709,174 752,209 778,262 788,334 L 970,322 C 956,218 912,135 837,73 762,11 668,-20 553,-20 402,-20 286,28 207,124 127,219 87,359 87,542 87,724 127,863 207,959 287,1054 402,1102 551,1102 662,1102 754,1073 827,1016 900,959 945,880 964,779 L 779,765 C 770,825 746,873 708,908 670,943 616,961 546,961 451,961 382,929 339,866 296,803 275,696 275,546 Z"/>
   <glyph unicode="b" horiz-adv-x="953" d="M 1053,546 C 1053,169 920,-20 655,-20 573,-20 505,-5 451,25 396,54 352,102 318,168 L 316,168 C 316,147 315,116 312,74 309,31 307,7 306,0 L 132,0 C 136,36 138,110 138,223 L 138,1484 318,1484 318,1061 C 318,1018 317,967 314,908 L 318,908 C 351,977 396,1027 451,1057 506,1087 574,1102 655,1102 792,1102 892,1056 957,964 1021,872 1053,733 1053,546 Z M 864,540 C 864,691 844,800 804,865 764,930 699,963 609,963 508,963 434,928 388,859 341,790 318,680 318,529 318,387 341,282 386,215 431,147 505,113 607,113 698,113 763,147 804,214 844,281 864,389 864,540 Z"/>
   <glyph unicode="a" horiz-adv-x="1060" d="M 414,-20 C 305,-20 224,9 169,66 114,123 87,202 87,302 87,414 124,500 198,560 271,620 390,652 554,656 L 797,660 797,719 C 797,807 778,870 741,908 704,946 645,965 565,965 484,965 426,951 389,924 352,897 330,853 323,793 L 135,810 C 166,1005 310,1102 569,1102 705,1102 807,1071 876,1009 945,946 979,856 979,738 L 979,272 C 979,219 986,179 1000,152 1014,125 1041,111 1080,111 1097,111 1117,113 1139,118 L 1139,6 C 1094,-5 1047,-10 1000,-10 933,-10 885,8 855,43 824,78 807,132 803,207 L 797,207 C 751,124 698,66 637,32 576,-3 501,-20 414,-20 Z M 455,115 C 521,115 580,130 631,160 682,190 723,231 753,284 782,336 797,390 797,445 L 797,534 600,530 C 515,529 451,520 408,504 364,488 330,463 307,430 284,397 272,353 272,299 272,240 288,195 320,163 351,131 396,115 455,115 Z"/>
   <glyph unicode="T" horiz-adv-x="1192" d="M 720,1253 L 720,0 530,0 530,1253 46,1253 46,1409 1204,1409 1204,1253 720,1253 Z"/>
   <glyph unicode="S" horiz-adv-x="1192" d="M 1272,389 C 1272,259 1221,158 1120,87 1018,16 875,-20 690,-20 347,-20 148,99 93,338 L 278,375 C 299,290 345,228 414,189 483,149 578,129 697,129 820,129 916,150 983,193 1050,235 1083,297 1083,379 1083,425 1073,462 1052,491 1031,520 1001,543 963,562 925,581 880,596 827,609 774,622 716,635 652,650 541,675 456,699 399,724 341,749 295,776 262,807 229,837 203,872 186,913 168,954 159,1000 159,1053 159,1174 205,1267 298,1332 390,1397 522,1430 694,1430 854,1430 976,1406 1061,1357 1146,1308 1205,1224 1239,1106 L 1051,1073 C 1030,1148 991,1202 933,1236 875,1269 795,1286 692,1286 579,1286 493,1267 434,1230 375,1193 345,1137 345,1063 345,1020 357,984 380,956 403,927 436,903 479,884 522,864 609,840 738,811 781,801 825,791 868,781 911,770 952,758 991,744 1030,729 1067,712 1102,693 1136,674 1166,650 1191,622 1216,594 1236,561 1251,523 1265,485 1272,440 1272,389 Z"/>
   <glyph unicode="Q" horiz-adv-x="1430" d="M 1495,711 C 1495,512 1445,349 1345,221 1245,93 1106,17 928,-6 955,-90 991,-151 1036,-188 1080,-225 1136,-244 1204,-244 1241,-244 1279,-240 1319,-231 L 1319,-365 C 1257,-380 1198,-387 1141,-387 1040,-387 958,-358 893,-302 828,-244 774,-149 733,-16 601,-9 487,24 392,85 296,145 223,229 173,337 122,444 97,569 97,711 97,936 159,1113 282,1240 405,1367 577,1430 797,1430 940,1430 1065,1402 1170,1345 1275,1288 1356,1205 1412,1096 1467,987 1495,859 1495,711 Z M 1300,711 C 1300,886 1256,1024 1169,1124 1081,1224 957,1274 797,1274 636,1274 511,1225 423,1126 335,1027 291,889 291,711 291,534 336,394 425,291 514,187 637,135 795,135 958,135 1083,185 1170,286 1257,386 1300,528 1300,711 Z"/>
   <glyph unicode="P" horiz-adv-x="1112" d="M 1258,985 C 1258,852 1215,746 1128,667 1041,588 922,549 773,549 L 359,549 359,0 168,0 168,1409 761,1409 C 919,1409 1041,1372 1128,1298 1215,1224 1258,1120 1258,985 Z M 1066,983 C 1066,1165 957,1256 738,1256 L 359,1256 359,700 746,700 C 959,700 1066,794 1066,983 Z"/>
   <glyph unicode="M" horiz-adv-x="1377" d="M 1366,0 L 1366,940 C 1366,1044 1369,1144 1375,1240 1342,1121 1313,1027 1287,960 L 923,0 789,0 420,960 364,1130 331,1240 334,1129 338,940 338,0 168,0 168,1409 419,1409 794,432 C 807,393 820,351 833,306 845,261 853,228 857,208 862,235 874,275 891,330 908,384 919,418 925,432 L 1293,1409 1538,1409 1538,0 1366,0 Z"/>
   <glyph unicode="L" horiz-adv-x="927" d="M 168,0 L 168,1409 359,1409 359,156 1071,156 1071,0 168,0 Z"/>
   <glyph unicode="I" horiz-adv-x="213" d="M 189,0 L 189,1409 380,1409 380,0 189,0 Z"/>
   <glyph unicode="E" horiz-adv-x="1138" d="M 168,0 L 168,1409 1237,1409 1237,1253 359,1253 359,801 1177,801 1177,647 359,647 359,156 1278,156 1278,0 168,0 Z"/>
   <glyph unicode="D" horiz-adv-x="1218" d="M 1381,719 C 1381,574 1353,447 1296,338 1239,229 1159,145 1055,87 951,29 831,0 695,0 L 168,0 168,1409 634,1409 C 873,1409 1057,1349 1187,1230 1316,1110 1381,940 1381,719 Z M 1189,719 C 1189,894 1141,1027 1046,1119 950,1210 811,1256 630,1256 L 359,1256 359,153 673,153 C 776,153 867,176 946,221 1024,266 1084,332 1126,417 1168,502 1189,603 1189,719 Z"/>
   <glyph unicode="A" horiz-adv-x="1377" d="M 1167,0 L 1006,412 364,412 202,0 4,0 579,1409 796,1409 1362,0 1167,0 Z M 685,1265 L 676,1237 C 659,1182 635,1111 602,1024 L 422,561 949,561 768,1026 C 749,1072 731,1124 712,1182 L 685,1265 Z"/>
   <glyph unicode="/" horiz-adv-x="583" d="M 0,-20 L 411,1484 569,1484 162,-20 0,-20 Z"/>
   <glyph unicode=")" horiz-adv-x="557" d="M 555,528 C 555,335 525,162 465,9 404,-144 311,-289 186,-424 L 12,-424 C 137,-284 229,-136 287,19 345,174 374,344 374,530 374,716 345,887 287,1042 228,1197 137,1345 12,1484 L 186,1484 C 312,1348 405,1203 465,1050 525,896 555,723 555,532 L 555,528 Z"/>
   <glyph unicode="(" horiz-adv-x="583" d="M 127,532 C 127,725 157,898 218,1051 278,1204 371,1349 496,1484 L 670,1484 C 545,1345 454,1198 396,1042 337,886 308,715 308,530 308,345 337,175 395,20 452,-135 544,-283 670,-424 L 496,-424 C 370,-288 277,-143 217,11 157,164 127,337 127,528 L 127,532 Z"/>
   <glyph unicode=" " horiz-adv-x="556"/>
  </font>
 </defs>
 <defs class="TextShapeIndex">
  <g ooo:slide="id1" ooo:id-list="id3 id4 id5 id6 id7 id8 id9 id10 id11 id12 id13"/>
 </defs>
 <defs class="EmbeddedBulletChars">
  <g id="bullet-char-template-57356" transform="scale(0.00048828125,-0.00048828125)">
   <path d="M 580,1141 L 1163,571 580,0 -4,571 580,1141 Z"/>
  </g>
  <g id="bullet-char-template-57354" transform="scale(0.00048828125,-0.00048828125)">
   <path d="M 8,1128 L 1137,1128 1137,0 8,0 8,1128 Z"/>
  </g>
  <g id="bullet-char-template-10146" transform="scale(0.00048828125,-0.00048828125)">
   <path d="M 174,0 L 602,739 174,1481 1456,739 174,0 Z M 1358,739 L 309,1346 659,739 1358,739 Z"/>
  </g>
  <g id="bullet-char-template-10132" transform="scale(0.00048828125,-0.00048828125)">
   <path d="M 2015,739 L 1276,0 717,0 1260,543 174,543 174,936 1260,936 717,1481 1274,1481 2015,739 Z"/>
  </g>
  <g id="bullet-char-template-10007" transform="scale(0.00048828125,-0.00048828125)">
   <path d="M 0,-2 C -7,14 -16,27 -25,37 L 356,567 C 262,823 215,952 215,954 215,979 228,992 255,992 264,992 276,990 289,987 310,991 331,999 354,1012 L 381,999 492,748 772,1049 836,1024 860,1049 C 881,1039 901,1025 922,1006 886,937 835,863 770,784 769,783 710,716 594,584 L 774,223 C 774,196 753,168 711,139 L 727,119 C 717,90 699,76 672,76 641,76 570,178 457,381 L 164,-76 C 142,-110 111,-127 72,-127 30,-127 9,-110 8,-76 1,-67 -2,-52 -2,-32 -2,-23 -1,-13 0,-2 Z"/>
  </g>
  <g id="bullet-char-template-10004" transform="scale(0.00048828125,-0.00048828125)">
   <path d="M 285,-33 C 182,-33 111,30 74,156 52,228 41,333 41,471 41,549 55,616 82,672 116,743 169,778 240,778 293,778 328,747 346,684 L 369,508 C 377,444 397,411 428,410 L 1163,1116 C 1174,1127 1196,1133 1229,1133 1271,1133 1292,1118 1292,1087 L 1292,965 C 1292,929 1282,901 1262,881 L 442,47 C 390,-6 338,-33 285,-33 Z"/>
  </g>
  <g id="bullet-char-template-9679" transform="scale(0.00048828125,-0.00048828125)">
   <path d="M 813,0 C 632,0 489,54 383,161 276,268 223,411 223,592 223,773 276,916 383,1023 489,1130 632,1184 813,1184 992,1184 1136,1130 1245,1023 1353,916 1407,772 1407,592 1407,412 1353,268 1245,161 1136,54 992,0 813,0 Z"/>
  </g>
  <g id="bullet-char-template-8226" transform="scale(0.00048828125,-0.00048828125)">
   <path d="M 346,457 C 273,457 209,483 155,535 101,586 74,649 74,723 74,796 101,859 155,911 209,963 273,989 346,989 419,989 480,963 531,910 582,859 608,796 608,723 608,648 583,586 532,535 482,483 420,457 346,457 Z"/>
  </g>
  <g id="bullet-char-template-8211" transform="scale(0.00048828125,-0.00048828125)">
   <path d="M -4,459 L 1135,459 1135,606 -4,606 -4,459 Z"/>
  </g>
  <g id="bullet-char-template-61548" transform="scale(0.00048828125,-0.00048828125)">
   <path d="M 173,740 C 173,903 231,1043 346,1159 462,1274 601,1332 765,1332 928,1332 1067,1274 1183,1159 1299,1043 1357,903 1357,740 1357,577 1299,437 1183,322 1067,206 928,148 765,148 601,148 462,206 346,322 231,437 173,577 173,740 Z"/>
  </g>
 </defs>
 <g>
  <g id="id2" class="Master_Slide">
   <g id="bg-id2" class="Background"/>
   <g id="bo-id2" class="BackgroundObjects"/>
  </g>
 </g>
 <g class="SlideGroup">
  <g>
   <g id="container-id1">
    <g id="id1" class="Slide" clip-path="url(#presentation_clip_path)">
     <g class="Page">
      <g class="com.sun.star.drawing.CustomShape">
       <title>PostgreSQL
       </title>
       <g id="id3">
        <rect class="BoundingBox" stroke="none" fill="none" x="1009" y="1028" width="4878" height="5302"/>
        <path fill="none" stroke="rgb(46,39,6)" stroke-width="50" stroke-linejoin="round" d="M 1035,1053 L 5861,1053 5861,6304 1035,6304 1035,1053 1035,1053 Z"/>
        <text class="SVGTextShape"><tspan class="TextParagraph" font-family="Liberation Sans, sans-serif" font-size="702px" font-weight="400"><tspan class="TextPosition" x="2141" y="3530"><tspan fill="rgb(0,0,0)" stroke="none" style="white-space: pre">Servidor</tspan></tspan><tspan class="TextPosition" x="2744" y="4313"><tspan fill="rgb(0,0,0)" stroke="none" style="white-space: pre">SQL</tspan></tspan></tspan></text>
       </g>
      </g>
      <g class="com.sun.star.drawing.CustomShape">
       <title>PostgreSQL
       </title>
       <g id="id4">
        <rect class="BoundingBox" stroke="none" fill="none" x="6906" y="1028" width="4878" height="5302"/>
        <path fill="none" stroke="rgb(46,39,6)" stroke-width="50" stroke-linejoin="round" d="M 6932,1053 L 11758,1053 11758,6304 6932,6304 6932,1053 6932,1053 Z"/>
        <text class="SVGTextShape"><tspan class="TextParagraph" font-family="Liberation Sans, sans-serif" font-size="702px" font-weight="400"><tspan class="TextPosition" x="7763" y="3530"><tspan fill="rgb(0,0,0)" stroke="none" style="white-space: pre">SQL/MED</tspan></tspan><tspan class="TextPosition" x="8776" y="4313"><tspan fill="rgb(0,0,0)" stroke="none" style="white-space: pre">API</tspan></tspan></tspan></text>
       </g>
      </g>
      <g class="com.sun.star.drawing.CustomShape">
       <title>PostgreSQL
       </title>
       <g id="id5">
        <rect class="BoundingBox" stroke="none" fill="none" x="12804" y="1028" width="4877" height="5302"/>
        <path fill="none" stroke="rgb(46,39,6)" stroke-width="50" stroke-linejoin="round" d="M 12829,1053 L 17655,1053 17655,6304 12829,6304 12829,1053 12829,1053 Z"/>
        <text class="SVGTextShape"><tspan class="TextParagraph" font-family="Liberation Sans, sans-serif" font-size="702px" font-weight="400"><tspan class="TextPosition" x="13156" y="3138"><tspan fill="rgb(0,0,0)" stroke="none" style="white-space: pre">Empacotador</tspan></tspan></tspan><tspan class="TextParagraph" font-family="Liberation Sans, sans-serif" font-size="702px" font-weight="400"><tspan class="TextPosition" x="13799" y="3921"><tspan fill="rgb(0,0,0)" stroke="none" style="white-space: pre">de dados </tspan></tspan><tspan class="TextPosition" x="13312" y="4704"><tspan fill="rgb(0,0,0)" stroke="none" style="white-space: pre">estrangeiros</tspan></tspan></tspan></text>
       </g>
      </g>
      <g class="com.sun.star.drawing.CustomShape">
       <title>PostgreSQL
       </title>
       <g id="id6">
        <rect class="BoundingBox" stroke="none" fill="none" x="3692" y="9858" width="4876" height="5302"/>
        <path fill="none" stroke="rgb(46,39,6)" stroke-width="50" stroke-linejoin="round" d="M 3717,9883 L 8542,9883 8542,15134 3717,15134 3717,9883 3717,9883 Z"/>
        <text class="SVGTextShape"><tspan class="TextParagraph" font-family="Liberation Sans, sans-serif" font-size="702px" font-weight="400"><tspan class="TextPosition" x="4822" y="12360"><tspan fill="rgb(0,0,0)" stroke="none" style="white-space: pre">Servidor</tspan></tspan><tspan class="TextPosition" x="4376" y="13143"><tspan fill="rgb(0,0,0)" stroke="none" style="white-space: pre">estrangeiro</tspan></tspan></tspan></text>
       </g>
      </g>
      <g class="com.sun.star.drawing.CustomShape">
       <g id="id7">
        <rect class="BoundingBox" stroke="none" fill="none" x="10759" y="9874" width="6485" height="5197"/>
        <path fill="none" stroke="rgb(46,39,6)" stroke-width="50" stroke-linejoin="round" d="M 10784,10709 L 10784,10709 C 10784,10567 10933,10427 11215,10304 11497,10181 11903,10079 12392,10008 12882,9936 13436,9899 14001,9899 L 14001,9899 C 14566,9899 15120,9936 15609,10008 16099,10079 16505,10181 16787,10304 17069,10427 17218,10567 17218,10709 L 17218,10709 17218,14234 17218,14235 C 17218,14377 17069,14517 16787,14640 16505,14763 16099,14865 15610,14936 15120,15008 14566,15045 14001,15045 L 14001,15045 C 13436,15045 12882,15008 12393,14936 11903,14865 11497,14763 11215,14640 10933,14517 10784,14377 10784,14235 L 10784,10709 Z"/>
        <path fill="none" stroke="rgb(46,39,6)" stroke-width="50" stroke-linejoin="round" d="M 10784,10709 L 10784,10709 C 10784,10851 10933,10991 11215,11114 11497,11237 11903,11339 12393,11411 12882,11482 13436,11519 14001,11519 L 14001,11519 C 14566,11519 15120,11482 15610,11411 16099,11339 16505,11237 16787,11114 17069,10991 17218,10851 17218,10709"/>
        <text class="SVGTextShape"><tspan class="TextParagraph" font-family="Liberation Sans, sans-serif" font-size="702px" font-weight="400"><tspan class="TextPosition" x="12986" y="12337"><tspan fill="rgb(0,0,0)" stroke="none" style="white-space: pre">Dados </tspan></tspan><tspan class="TextPosition" x="12032" y="13120"><tspan fill="rgb(0,0,0)" stroke="none" style="white-space: pre">Estrangeiros</tspan></tspan></tspan><tspan class="TextParagraph" font-family="Liberation Sans, sans-serif" font-size="702px" font-weight="400"><tspan class="TextPosition" x="12675" y="13903"><tspan fill="rgb(0,0,0)" stroke="none" style="white-space: pre">(Tabelas </tspan></tspan><tspan class="TextPosition" x="11956" y="14686"><tspan fill="rgb(0,0,0)" stroke="none" style="white-space: pre">estrangeiras)</tspan></tspan></tspan></text>
       </g>
      </g>
      <g class="com.sun.star.drawing.ConnectorShape">
       <g id="id8">
        <rect class="BoundingBox" stroke="none" fill="none" x="2168" y="3653" width="17286" height="8881"/>
        <path fill="none" stroke="rgb(46,39,6)" stroke-width="50" stroke-linejoin="round" d="M 17655,3678 L 19428,3678 19428,9250 2193,9250 2193,12508 3717,12508"/>
       </g>
      </g>
      <g class="com.sun.star.drawing.LineShape">
       <g id="id9">
        <rect class="BoundingBox" stroke="none" fill="none" x="499" y="499" width="18230" height="3"/>
        <path fill="none" stroke="rgb(46,39,6)" d="M 500,500 L 608,500"/>
        <path fill="none" stroke="rgb(46,39,6)" d="M 689,500 L 796,500"/>
        <path fill="none" stroke="rgb(46,39,6)" d="M 877,500 L 985,500"/>
        <path fill="none" stroke="rgb(46,39,6)" d="M 1066,500 L 1174,500"/>
        <path fill="none" stroke="rgb(46,39,6)" d="M 1255,500 L 1362,500"/>
        <path fill="none" stroke="rgb(46,39,6)" d="M 1443,500 L 1551,500"/>
        <path fill="none" stroke="rgb(46,39,6)" d="M 1632,500 L 1740,500"/>
        <path fill="none" stroke="rgb(46,39,6)" d="M 1821,500 L 1928,500"/>
        <path fill="none" stroke="rgb(46,39,6)" d="M 2009,500 L 2117,500"/>
        <path fill="none" stroke="rgb(46,39,6)" d="M 2198,500 L 2306,500"/>
        <path fill="none" stroke="rgb(46,39,6)" d="M 2386,500 L 2494,500"/>
        <path fill="none" stroke="rgb(46,39,6)" d="M 2575,500 L 2683,500"/>
        <path fill="none" stroke="rgb(46,39,6)" d="M 2764,500 L 2872,500"/>
        <path fill="none" stroke="rgb(46,39,6)" d="M 2952,500 L 3060,500"/>
        <path fill="none" stroke="rgb(46,39,6)" d="M 3141,500 L 3249,500"/>
        <path fill="none" stroke="rgb(46,39,6)" d="M 3330,500 L 3438,500"/>
        <path fill="none" stroke="rgb(46,39,6)" d="M 3518,500 L 3626,500"/>
        <path fill="none" stroke="rgb(46,39,6)" d="M 3707,500 L 3815,500"/>
        <path fill="none" stroke="rgb(46,39,6)" d="M 3896,500 L 4004,500"/>
        <path fill="none" stroke="rgb(46,39,6)" d="M 4084,500 L 4192,500"/>
        <path fill="none" stroke="rgb(46,39,6)" d="M 4273,500 L 4381,500"/>
        <path fill="none" stroke="rgb(46,39,6)" d="M 4462,500 L 4569,500"/>
        <path fill="none" stroke="rgb(46,39,6)" d="M 4650,500 L 4758,500"/>
        <path fill="none" stroke="rgb(46,39,6)" d="M 4839,500 L 4947,500"/>
        <path fill="none" stroke="rgb(46,39,6)" d="M 5028,500 L 5135,500"/>
        <path fill="none" stroke="rgb(46,39,6)" d="M 5216,500 L 5324,500"/>
        <path fill="none" stroke="rgb(46,39,6)" d="M 5405,500 L 5513,500"/>
        <path fill="none" stroke="rgb(46,39,6)" d="M 5594,500 L 5701,500"/>
        <path fill="none" stroke="rgb(46,39,6)" d="M 5782,500 L 5890,500"/>
        <path fill="none" stroke="rgb(46,39,6)" d="M 5971,500 L 6079,500"/>
        <path fill="none" stroke="rgb(46,39,6)" d="M 6160,500 L 6267,500"/>
        <path fill="none" stroke="rgb(46,39,6)" d="M 6348,500 L 6456,500"/>
        <path fill="none" stroke="rgb(46,39,6)" d="M 6537,500 L 6645,500"/>
        <path fill="none" stroke="rgb(46,39,6)" d="M 6725,500 L 6833,500"/>
        <path fill="none" stroke="rgb(46,39,6)" d="M 6914,500 L 7022,500"/>
        <path fill="none" stroke="rgb(46,39,6)" d="M 7103,500 L 7211,500"/>
        <path fill="none" stroke="rgb(46,39,6)" d="M 7291,500 L 7399,500"/>
        <path fill="none" stroke="rgb(46,39,6)" d="M 7480,500 L 7588,500"/>
        <path fill="none" stroke="rgb(46,39,6)" d="M 7669,500 L 7777,500"/>
        <path fill="none" stroke="rgb(46,39,6)" d="M 7857,500 L 7965,500"/>
        <path fill="none" stroke="rgb(46,39,6)" d="M 8046,500 L 8154,500"/>
        <path fill="none" stroke="rgb(46,39,6)" d="M 8235,500 L 8342,500"/>
        <path fill="none" stroke="rgb(46,39,6)" d="M 8423,500 L 8531,500"/>
        <path fill="none" stroke="rgb(46,39,6)" d="M 8612,500 L 8720,500"/>
        <path fill="none" stroke="rgb(46,39,6)" d="M 8801,500 L 8908,500"/>
        <path fill="none" stroke="rgb(46,39,6)" d="M 8989,500 L 9097,500"/>
        <path fill="none" stroke="rgb(46,39,6)" d="M 9178,500 L 9286,500"/>
        <path fill="none" stroke="rgb(46,39,6)" d="M 9367,500 L 9474,500"/>
        <path fill="none" stroke="rgb(46,39,6)" d="M 9555,500 L 9663,500"/>
        <path fill="none" stroke="rgb(46,39,6)" d="M 9744,500 L 9852,500"/>
        <path fill="none" stroke="rgb(46,39,6)" d="M 9933,500 L 10040,500"/>
        <path fill="none" stroke="rgb(46,39,6)" d="M 10121,500 L 10229,500"/>
        <path fill="none" stroke="rgb(46,39,6)" d="M 10310,500 L 10418,500"/>
        <path fill="none" stroke="rgb(46,39,6)" d="M 10498,500 L 10606,500"/>
        <path fill="none" stroke="rgb(46,39,6)" d="M 10687,500 L 10795,500"/>
        <path fill="none" stroke="rgb(46,39,6)" d="M 10876,500 L 10984,500"/>
        <path fill="none" stroke="rgb(46,39,6)" d="M 11064,500 L 11172,500"/>
        <path fill="none" stroke="rgb(46,39,6)" d="M 11253,500 L 11361,500"/>
        <path fill="none" stroke="rgb(46,39,6)" d="M 11442,500 L 11550,500"/>
        <path fill="none" stroke="rgb(46,39,6)" d="M 11630,500 L 11738,500"/>
        <path fill="none" stroke="rgb(46,39,6)" d="M 11819,500 L 11927,500"/>
        <path fill="none" stroke="rgb(46,39,6)" d="M 12008,500 L 12115,500"/>
        <path fill="none" stroke="rgb(46,39,6)" d="M 12196,500 L 12304,500"/>
        <path fill="none" stroke="rgb(46,39,6)" d="M 12385,500 L 12493,500"/>
        <path fill="none" stroke="rgb(46,39,6)" d="M 12574,500 L 12681,500"/>
        <path fill="none" stroke="rgb(46,39,6)" d="M 12762,500 L 12870,500"/>
        <path fill="none" stroke="rgb(46,39,6)" d="M 12951,500 L 13059,500"/>
        <path fill="none" stroke="rgb(46,39,6)" d="M 13140,500 L 13247,500"/>
        <path fill="none" stroke="rgb(46,39,6)" d="M 13328,500 L 13436,500"/>
        <path fill="none" stroke="rgb(46,39,6)" d="M 13517,500 L 13625,500"/>
        <path fill="none" stroke="rgb(46,39,6)" d="M 13706,500 L 13813,500"/>
        <path fill="none" stroke="rgb(46,39,6)" d="M 13894,500 L 14002,500"/>
        <path fill="none" stroke="rgb(46,39,6)" d="M 14083,500 L 14191,500"/>
        <path fill="none" stroke="rgb(46,39,6)" d="M 14271,500 L 14379,500"/>
        <path fill="none" stroke="rgb(46,39,6)" d="M 14460,500 L 14568,500"/>
        <path fill="none" stroke="rgb(46,39,6)" d="M 14649,500 L 14757,500"/>
        <path fill="none" stroke="rgb(46,39,6)" d="M 14837,500 L 14945,500"/>
        <path fill="none" stroke="rgb(46,39,6)" d="M 15026,500 L 15134,500"/>
        <path fill="none" stroke="rgb(46,39,6)" d="M 15215,500 L 15323,500"/>
        <path fill="none" stroke="rgb(46,39,6)" d="M 15403,500 L 15511,500"/>
        <path fill="none" stroke="rgb(46,39,6)" d="M 15592,500 L 15700,500"/>
        <path fill="none" stroke="rgb(46,39,6)" d="M 15781,500 L 15888,500"/>
        <path fill="none" stroke="rgb(46,39,6)" d="M 15969,500 L 16077,500"/>
        <path fill="none" stroke="rgb(46,39,6)" d="M 16158,500 L 16266,500"/>
        <path fill="none" stroke="rgb(46,39,6)" d="M 16347,500 L 16454,500"/>
        <path fill="none" stroke="rgb(46,39,6)" d="M 16535,500 L 16643,500"/>
        <path fill="none" stroke="rgb(46,39,6)" d="M 16724,500 L 16832,500"/>
        <path fill="none" stroke="rgb(46,39,6)" d="M 16913,500 L 17020,500"/>
        <path fill="none" stroke="rgb(46,39,6)" d="M 17101,500 L 17209,500"/>
        <path fill="none" stroke="rgb(46,39,6)" d="M 17290,500 L 17398,500"/>
        <path fill="none" stroke="rgb(46,39,6)" d="M 17478,500 L 17586,500"/>
        <path fill="none" stroke="rgb(46,39,6)" d="M 17667,500 L 17775,500"/>
        <path fill="none" stroke="rgb(46,39,6)" d="M 17856,500 L 17964,500"/>
        <path fill="none" stroke="rgb(46,39,6)" d="M 18044,500 L 18152,500"/>
        <path fill="none" stroke="rgb(46,39,6)" d="M 18233,500 L 18341,500"/>
        <path fill="none" stroke="rgb(46,39,6)" d="M 18422,500 L 18530,500"/>
        <path fill="none" stroke="rgb(46,39,6)" d="M 18610,500 L 18718,500"/>
       </g>
      </g>
      <g class="com.sun.star.drawing.LineShape">
       <g id="id10">
        <rect class="BoundingBox" stroke="none" fill="none" x="18726" y="499" width="3" height="6635"/>
        <path fill="none" stroke="rgb(46,39,6)" d="M 18727,7132 L 18727,7024"/>
        <path fill="none" stroke="rgb(46,39,6)" d="M 18727,6943 L 18727,6836"/>
        <path fill="none" stroke="rgb(46,39,6)" d="M 18727,6755 L 18727,6647"/>
        <path fill="none" stroke="rgb(46,39,6)" d="M 18727,6566 L 18727,6458"/>
        <path fill="none" stroke="rgb(46,39,6)" d="M 18727,6377 L 18727,6270"/>
        <path fill="none" stroke="rgb(46,39,6)" d="M 18727,6189 L 18727,6081"/>
        <path fill="none" stroke="rgb(46,39,6)" d="M 18727,6000 L 18727,5892"/>
        <path fill="none" stroke="rgb(46,39,6)" d="M 18727,5811 L 18727,5704"/>
        <path fill="none" stroke="rgb(46,39,6)" d="M 18727,5623 L 18727,5515"/>
        <path fill="none" stroke="rgb(46,39,6)" d="M 18727,5434 L 18727,5326"/>
        <path fill="none" stroke="rgb(46,39,6)" d="M 18727,5246 L 18727,5138"/>
        <path fill="none" stroke="rgb(46,39,6)" d="M 18727,5057 L 18727,4949"/>
        <path fill="none" stroke="rgb(46,39,6)" d="M 18727,4868 L 18727,4760"/>
        <path fill="none" stroke="rgb(46,39,6)" d="M 18727,4680 L 18727,4572"/>
        <path fill="none" stroke="rgb(46,39,6)" d="M 18727,4491 L 18727,4383"/>
        <path fill="none" stroke="rgb(46,39,6)" d="M 18727,4302 L 18727,4194"/>
        <path fill="none" stroke="rgb(46,39,6)" d="M 18727,4114 L 18727,4006"/>
        <path fill="none" stroke="rgb(46,39,6)" d="M 18727,3925 L 18727,3817"/>
        <path fill="none" stroke="rgb(46,39,6)" d="M 18727,3736 L 18727,3628"/>
        <path fill="none" stroke="rgb(46,39,6)" d="M 18727,3548 L 18727,3440"/>
        <path fill="none" stroke="rgb(46,39,6)" d="M 18727,3359 L 18727,3251"/>
        <path fill="none" stroke="rgb(46,39,6)" d="M 18727,3170 L 18727,3063"/>
        <path fill="none" stroke="rgb(46,39,6)" d="M 18727,2982 L 18727,2874"/>
        <path fill="none" stroke="rgb(46,39,6)" d="M 18727,2793 L 18727,2685"/>
        <path fill="none" stroke="rgb(46,39,6)" d="M 18727,2604 L 18727,2497"/>
        <path fill="none" stroke="rgb(46,39,6)" d="M 18727,2416 L 18727,2308"/>
        <path fill="none" stroke="rgb(46,39,6)" d="M 18727,2227 L 18727,2119"/>
        <path fill="none" stroke="rgb(46,39,6)" d="M 18727,2038 L 18727,1931"/>
        <path fill="none" stroke="rgb(46,39,6)" d="M 18727,1850 L 18727,1742"/>
        <path fill="none" stroke="rgb(46,39,6)" d="M 18727,1661 L 18727,1553"/>
        <path fill="none" stroke="rgb(46,39,6)" d="M 18727,1472 L 18727,1365"/>
        <path fill="none" stroke="rgb(46,39,6)" d="M 18727,1284 L 18727,1176"/>
        <path fill="none" stroke="rgb(46,39,6)" d="M 18727,1095 L 18727,987"/>
        <path fill="none" stroke="rgb(46,39,6)" d="M 18727,907 L 18727,799"/>
        <path fill="none" stroke="rgb(46,39,6)" d="M 18727,718 L 18727,610"/>
        <path fill="none" stroke="rgb(46,39,6)" d="M 18727,529 L 18727,500"/>
       </g>
      </g>
      <g class="com.sun.star.drawing.PolyLineShape">
       <g id="id11">
        <rect class="BoundingBox" stroke="none" fill="none" x="499" y="499" width="18230" height="6635"/>
        <path fill="none" stroke="rgb(46,39,6)" d="M 500,500 L 500,608"/>
        <path fill="none" stroke="rgb(46,39,6)" d="M 500,689 L 500,796"/>
        <path fill="none" stroke="rgb(46,39,6)" d="M 500,877 L 500,985"/>
        <path fill="none" stroke="rgb(46,39,6)" d="M 500,1066 L 500,1174"/>
        <path fill="none" stroke="rgb(46,39,6)" d="M 500,1255 L 500,1362"/>
        <path fill="none" stroke="rgb(46,39,6)" d="M 500,1443 L 500,1551"/>
        <path fill="none" stroke="rgb(46,39,6)" d="M 500,1632 L 500,1740"/>
        <path fill="none" stroke="rgb(46,39,6)" d="M 500,1821 L 500,1928"/>
        <path fill="none" stroke="rgb(46,39,6)" d="M 500,2009 L 500,2117"/>
        <path fill="none" stroke="rgb(46,39,6)" d="M 500,2198 L 500,2306"/>
        <path fill="none" stroke="rgb(46,39,6)" d="M 500,2386 L 500,2494"/>
        <path fill="none" stroke="rgb(46,39,6)" d="M 500,2575 L 500,2683"/>
        <path fill="none" stroke="rgb(46,39,6)" d="M 500,2764 L 500,2872"/>
        <path fill="none" stroke="rgb(46,39,6)" d="M 500,2952 L 500,3060"/>
        <path fill="none" stroke="rgb(46,39,6)" d="M 500,3141 L 500,3249"/>
        <path fill="none" stroke="rgb(46,39,6)" d="M 500,3330 L 500,3438"/>
        <path fill="none" stroke="rgb(46,39,6)" d="M 500,3518 L 500,3626"/>
        <path fill="none" stroke="rgb(46,39,6)" d="M 500,3707 L 500,3815"/>
        <path fill="none" stroke="rgb(46,39,6)" d="M 500,3896 L 500,4004"/>
        <path fill="none" stroke="rgb(46,39,6)" d="M 500,4084 L 500,4192"/>
        <path fill="none" stroke="rgb(46,39,6)" d="M 500,4273 L 500,4381"/>
        <path fill="none" stroke="rgb(46,39,6)" d="M 500,4462 L 500,4569"/>
        <path fill="none" stroke="rgb(46,39,6)" d="M 500,4650 L 500,4758"/>
        <path fill="none" stroke="rgb(46,39,6)" d="M 500,4839 L 500,4947"/>
        <path fill="none" stroke="rgb(46,39,6)" d="M 500,5028 L 500,5135"/>
        <path fill="none" stroke="rgb(46,39,6)" d="M 500,5216 L 500,5324"/>
        <path fill="none" stroke="rgb(46,39,6)" d="M 500,5405 L 500,5513"/>
        <path fill="none" stroke="rgb(46,39,6)" d="M 500,5594 L 500,5701"/>
        <path fill="none" stroke="rgb(46,39,6)" d="M 500,5782 L 500,5890"/>
        <path fill="none" stroke="rgb(46,39,6)" d="M 500,5971 L 500,6079"/>
        <path fill="none" stroke="rgb(46,39,6)" d="M 500,6160 L 500,6267"/>
        <path fill="none" stroke="rgb(46,39,6)" d="M 500,6348 L 500,6456"/>
        <path fill="none" stroke="rgb(46,39,6)" d="M 500,6537 L 500,6645"/>
        <path fill="none" stroke="rgb(46,39,6)" d="M 500,6725 L 500,6833"/>
        <path fill="none" stroke="rgb(46,39,6)" d="M 500,6914 L 500,7022"/>
        <path fill="none" stroke="rgb(46,39,6)" d="M 500,7103 L 500,7132 579,7132"/>
        <path fill="none" stroke="rgb(46,39,6)" d="M 659,7132 L 767,7132"/>
        <path fill="none" stroke="rgb(46,39,6)" d="M 848,7132 L 956,7132"/>
        <path fill="none" stroke="rgb(46,39,6)" d="M 1037,7132 L 1145,7132"/>
        <path fill="none" stroke="rgb(46,39,6)" d="M 1225,7132 L 1333,7132"/>
        <path fill="none" stroke="rgb(46,39,6)" d="M 1414,7132 L 1522,7132"/>
        <path fill="none" stroke="rgb(46,39,6)" d="M 1603,7132 L 1710,7132"/>
        <path fill="none" stroke="rgb(46,39,6)" d="M 1791,7132 L 1899,7132"/>
        <path fill="none" stroke="rgb(46,39,6)" d="M 1980,7132 L 2088,7132"/>
        <path fill="none" stroke="rgb(46,39,6)" d="M 2169,7132 L 2276,7132"/>
        <path fill="none" stroke="rgb(46,39,6)" d="M 2357,7132 L 2465,7132"/>
        <path fill="none" stroke="rgb(46,39,6)" d="M 2546,7132 L 2654,7132"/>
        <path fill="none" stroke="rgb(46,39,6)" d="M 2735,7132 L 2842,7132"/>
        <path fill="none" stroke="rgb(46,39,6)" d="M 2923,7132 L 3031,7132"/>
        <path fill="none" stroke="rgb(46,39,6)" d="M 3112,7132 L 3220,7132"/>
        <path fill="none" stroke="rgb(46,39,6)" d="M 3301,7132 L 3408,7132"/>
        <path fill="none" stroke="rgb(46,39,6)" d="M 3489,7132 L 3597,7132"/>
        <path fill="none" stroke="rgb(46,39,6)" d="M 3678,7132 L 3786,7132"/>
        <path fill="none" stroke="rgb(46,39,6)" d="M 3866,7132 L 3974,7132"/>
        <path fill="none" stroke="rgb(46,39,6)" d="M 4055,7132 L 4163,7132"/>
        <path fill="none" stroke="rgb(46,39,6)" d="M 4244,7132 L 4352,7132"/>
        <path fill="none" stroke="rgb(46,39,6)" d="M 4432,7132 L 4540,7132"/>
        <path fill="none" stroke="rgb(46,39,6)" d="M 4621,7132 L 4729,7132"/>
        <path fill="none" stroke="rgb(46,39,6)" d="M 4810,7132 L 4918,7132"/>
        <path fill="none" stroke="rgb(46,39,6)" d="M 4998,7132 L 5106,7132"/>
        <path fill="none" stroke="rgb(46,39,6)" d="M 5187,7132 L 5295,7132"/>
        <path fill="none" stroke="rgb(46,39,6)" d="M 5376,7132 L 5483,7132"/>
        <path fill="none" stroke="rgb(46,39,6)" d="M 5564,7132 L 5672,7132"/>
        <path fill="none" stroke="rgb(46,39,6)" d="M 5753,7132 L 5861,7132"/>
        <path fill="none" stroke="rgb(46,39,6)" d="M 5942,7132 L 6049,7132"/>
        <path fill="none" stroke="rgb(46,39,6)" d="M 6130,7132 L 6238,7132"/>
        <path fill="none" stroke="rgb(46,39,6)" d="M 6319,7132 L 6427,7132"/>
        <path fill="none" stroke="rgb(46,39,6)" d="M 6508,7132 L 6615,7132"/>
        <path fill="none" stroke="rgb(46,39,6)" d="M 6696,7132 L 6804,7132"/>
        <path fill="none" stroke="rgb(46,39,6)" d="M 6885,7132 L 6993,7132"/>
        <path fill="none" stroke="rgb(46,39,6)" d="M 7074,7132 L 7181,7132"/>
        <path fill="none" stroke="rgb(46,39,6)" d="M 7262,7132 L 7370,7132"/>
        <path fill="none" stroke="rgb(46,39,6)" d="M 7451,7132 L 7559,7132"/>
        <path fill="none" stroke="rgb(46,39,6)" d="M 7639,7132 L 7747,7132"/>
        <path fill="none" stroke="rgb(46,39,6)" d="M 7828,7132 L 7936,7132"/>
        <path fill="none" stroke="rgb(46,39,6)" d="M 8017,7132 L 8125,7132"/>
        <path fill="none" stroke="rgb(46,39,6)" d="M 8205,7132 L 8313,7132"/>
        <path fill="none" stroke="rgb(46,39,6)" d="M 8394,7132 L 8502,7132"/>
        <path fill="none" stroke="rgb(46,39,6)" d="M 8583,7132 L 8691,7132"/>
        <path fill="none" stroke="rgb(46,39,6)" d="M 8771,7132 L 8879,7132"/>
        <path fill="none" stroke="rgb(46,39,6)" d="M 8960,7132 L 9068,7132"/>
        <path fill="none" stroke="rgb(46,39,6)" d="M 9149,7132 L 9256,7132"/>
        <path fill="none" stroke="rgb(46,39,6)" d="M 9337,7132 L 9445,7132"/>
        <path fill="none" stroke="rgb(46,39,6)" d="M 9526,7132 L 9634,7132"/>
        <path fill="none" stroke="rgb(46,39,6)" d="M 9715,7132 L 9822,7132"/>
        <path fill="none" stroke="rgb(46,39,6)" d="M 9903,7132 L 10011,7132"/>
        <path fill="none" stroke="rgb(46,39,6)" d="M 10092,7132 L 10200,7132"/>
        <path fill="none" stroke="rgb(46,39,6)" d="M 10281,7132 L 10388,7132"/>
        <path fill="none" stroke="rgb(46,39,6)" d="M 10469,7132 L 10577,7132"/>
        <path fill="none" stroke="rgb(46,39,6)" d="M 10658,7132 L 10766,7132"/>
        <path fill="none" stroke="rgb(46,39,6)" d="M 10847,7132 L 10954,7132"/>
        <path fill="none" stroke="rgb(46,39,6)" d="M 11035,7132 L 11143,7132"/>
        <path fill="none" stroke="rgb(46,39,6)" d="M 11224,7132 L 11332,7132"/>
        <path fill="none" stroke="rgb(46,39,6)" d="M 11412,7132 L 11520,7132"/>
        <path fill="none" stroke="rgb(46,39,6)" d="M 11601,7132 L 11709,7132"/>
        <path fill="none" stroke="rgb(46,39,6)" d="M 11790,7132 L 11898,7132"/>
        <path fill="none" stroke="rgb(46,39,6)" d="M 11978,7132 L 12086,7132"/>
        <path fill="none" stroke="rgb(46,39,6)" d="M 12167,7132 L 12275,7132"/>
        <path fill="none" stroke="rgb(46,39,6)" d="M 12356,7132 L 12464,7132"/>
        <path fill="none" stroke="rgb(46,39,6)" d="M 12544,7132 L 12652,7132"/>
        <path fill="none" stroke="rgb(46,39,6)" d="M 12733,7132 L 12841,7132"/>
        <path fill="none" stroke="rgb(46,39,6)" d="M 12922,7132 L 13029,7132"/>
        <path fill="none" stroke="rgb(46,39,6)" d="M 13110,7132 L 13218,7132"/>
        <path fill="none" stroke="rgb(46,39,6)" d="M 13299,7132 L 13407,7132"/>
        <path fill="none" stroke="rgb(46,39,6)" d="M 13488,7132 L 13595,7132"/>
        <path fill="none" stroke="rgb(46,39,6)" d="M 13676,7132 L 13784,7132"/>
        <path fill="none" stroke="rgb(46,39,6)" d="M 13865,7132 L 13973,7132"/>
        <path fill="none" stroke="rgb(46,39,6)" d="M 14054,7132 L 14161,7132"/>
        <path fill="none" stroke="rgb(46,39,6)" d="M 14242,7132 L 14350,7132"/>
        <path fill="none" stroke="rgb(46,39,6)" d="M 14431,7132 L 14539,7132"/>
        <path fill="none" stroke="rgb(46,39,6)" d="M 14620,7132 L 14727,7132"/>
        <path fill="none" stroke="rgb(46,39,6)" d="M 14808,7132 L 14916,7132"/>
        <path fill="none" stroke="rgb(46,39,6)" d="M 14997,7132 L 15105,7132"/>
        <path fill="none" stroke="rgb(46,39,6)" d="M 15185,7132 L 15293,7132"/>
        <path fill="none" stroke="rgb(46,39,6)" d="M 15374,7132 L 15482,7132"/>
        <path fill="none" stroke="rgb(46,39,6)" d="M 15563,7132 L 15671,7132"/>
        <path fill="none" stroke="rgb(46,39,6)" d="M 15751,7132 L 15859,7132"/>
        <path fill="none" stroke="rgb(46,39,6)" d="M 15940,7132 L 16048,7132"/>
        <path fill="none" stroke="rgb(46,39,6)" d="M 16129,7132 L 16237,7132"/>
        <path fill="none" stroke="rgb(46,39,6)" d="M 16317,7132 L 16425,7132"/>
        <path fill="none" stroke="rgb(46,39,6)" d="M 16506,7132 L 16614,7132"/>
        <path fill="none" stroke="rgb(46,39,6)" d="M 16695,7132 L 16802,7132"/>
        <path fill="none" stroke="rgb(46,39,6)" d="M 16883,7132 L 16991,7132"/>
        <path fill="none" stroke="rgb(46,39,6)" d="M 17072,7132 L 17180,7132"/>
        <path fill="none" stroke="rgb(46,39,6)" d="M 17261,7132 L 17368,7132"/>
        <path fill="none" stroke="rgb(46,39,6)" d="M 17449,7132 L 17557,7132"/>
        <path fill="none" stroke="rgb(46,39,6)" d="M 17638,7132 L 17746,7132"/>
        <path fill="none" stroke="rgb(46,39,6)" d="M 17827,7132 L 17934,7132"/>
        <path fill="none" stroke="rgb(46,39,6)" d="M 18015,7132 L 18123,7132"/>
        <path fill="none" stroke="rgb(46,39,6)" d="M 18204,7132 L 18312,7132"/>
        <path fill="none" stroke="rgb(46,39,6)" d="M 18392,7132 L 18500,7132"/>
        <path fill="none" stroke="rgb(46,39,6)" d="M 18581,7132 L 18689,7132"/>
       </g>
      </g>
      <g class="TextShape">
       <g id="id12">
        <rect class="BoundingBox" stroke="none" fill="none" x="4080" y="7934" width="10930" height="659"/>
        <text class="SVGTextShape"><tspan class="TextParagraph" font-family="Liberation Sans, sans-serif" font-size="702px" font-weight="400"><tspan class="TextPosition" x="4079" y="8443"><tspan fill="rgb(0,0,0)" stroke="none" style="white-space: pre">API dependente da implementação</tspan></tspan></tspan></text>
       </g>
      </g>
      <g class="com.sun.star.drawing.LineShape">
       <g id="id13">
        <rect class="BoundingBox" stroke="none" fill="none" x="8475" y="12475" width="2301" height="51"/>
        <path fill="none" stroke="rgb(46,39,6)" stroke-width="50" stroke-linejoin="miter" d="M 8500,12500 L 10750,12500"/>
       </g>
      </g>
     </g>
    </g>
   </g>
  </g>
 </g>
</svg>