<?xml version="1.0" encoding="UTF-8"?>
<!DOCTYPE svg PUBLIC "-//W3C//DTD SVG 1.1//EN" "http://www.w3.org/Graphics/SVG/1.1/DTD/svg11.dtd">
<svg version="1.2" width="223mm" height="64mm" viewBox="0 0 22300 6400" preserveAspectRatio="xMidYMid" fill-rule="evenodd" stroke-width="28.222" stroke-linejoin="round" xmlns="http://www.w3.org/2000/svg" xmlns:ooo="http://xml.openoffice.org/svg/export" xmlns:xlink="http://www.w3.org/1999/xlink" xmlns:presentation="http://sun.com/xmlns/staroffice/presentation" xmlns:smil="http://www.w3.org/2001/SMIL20/" xmlns:anim="urn:oasis:names:tc:opendocument:xmlns:animation:1.0" xmlns:svg="urn:oasis:names:tc:opendocument:xmlns:svg-compatible:1.0" xml:space="preserve">
 <defs class="ClipPathGroup">
  <clipPath id="presentation_clip_path" clipPathUnits="userSpaceOnUse">
   <rect x="0" y="0" width="22300" height="6400"/>
  </clipPath>
  <clipPath id="presentation_clip_path_shrink" clipPathUnits="userSpaceOnUse">
   <rect x="22" y="6" width="22256" height="6388"/>
  </clipPath>
 </defs>
 <defs>
  <font id="EmbeddedFont_1" horiz-adv-x="2048">
   <font-face font-family="Sans embedded" units-per-em="2048" font-weight="normal" font-style="normal" ascent="2170" descent="609"/>
   <missing-glyph horiz-adv-x="2048" d="M 0,0 L 2047,0 2047,2047 0,2047 0,0 Z"/>
   <glyph unicode="9" horiz-adv-x="1007" d="M 1065,838 C 1065,733 1056,629 1037,528 1019,426 985,334 937,251 888,169 820,103 732,54 644,5 531,-20 393,-20 366,-20 334,-18 298,-15 262,-11 232,-6 209,0 L 209,154 C 262,136 322,127 389,127 485,127 564,143 626,175 688,206 737,249 774,302 811,356 838,419 854,491 870,562 880,638 883,717 L 870,717 C 840,671 797,631 740,597 684,564 611,547 522,547 397,547 295,586 218,663 141,740 102,849 102,989 102,1092 122,1180 161,1254 200,1327 254,1384 324,1424 393,1463 475,1483 569,1483 662,1483 746,1459 821,1412 896,1365 956,1294 999,1199 1043,1105 1065,984 1065,838 Z M 569,1331 C 485,1331 415,1303 361,1247 308,1192 281,1106 281,991 281,897 303,823 349,769 395,715 466,688 561,688 627,688 683,702 731,728 779,755 816,789 843,830 869,871 883,913 883,957 883,1015 871,1073 848,1131 825,1188 790,1236 743,1274 697,1312 639,1331 569,1331 Z"/>
   <glyph unicode="8" horiz-adv-x="1007" d="M 584,1483 C 712,1483 817,1453 899,1393 981,1333 1022,1246 1022,1133 1022,1074 1009,1023 984,979 959,936 925,897 883,864 840,830 794,800 743,775 804,746 858,713 907,677 956,641 996,599 1025,551 1054,504 1069,446 1069,379 1069,256 1026,159 939,88 852,16 736,-20 590,-20 433,-20 312,14 227,83 143,152 100,249 100,373 100,440 114,498 142,547 170,596 208,639 254,674 300,710 350,740 403,764 332,805 272,855 222,913 172,971 147,1045 147,1135 147,1210 167,1273 205,1324 243,1376 295,1415 360,1442 426,1469 500,1483 584,1483 Z M 582,1338 C 507,1338 445,1320 396,1283 348,1247 324,1195 324,1127 324,1076 336,1034 359,1000 383,966 416,937 457,913 498,889 543,866 592,844 663,874 723,910 771,953 820,995 844,1053 844,1127 844,1195 820,1247 772,1283 724,1320 661,1338 582,1338 Z M 276,371 C 276,300 302,241 352,194 403,147 481,123 586,123 685,123 762,147 814,194 867,241 893,302 893,377 893,448 865,507 809,554 753,601 679,643 586,678 L 553,691 C 463,652 394,608 347,558 300,509 276,446 276,371 Z"/>
   <glyph unicode="7" horiz-adv-x="1007" d="M 279,0 L 879,1298 90,1298 90,1462 1071,1462 1071,1323 477,0 279,0 Z"/>
   <glyph unicode="6" horiz-adv-x="980" d="M 113,625 C 113,730 122,834 140,935 159,1037 192,1129 241,1212 289,1294 357,1360 444,1409 532,1458 644,1483 782,1483 811,1483 843,1482 878,1479 912,1476 941,1471 963,1465 L 963,1311 C 938,1319 910,1325 880,1329 849,1334 818,1336 786,1336 692,1336 614,1320 551,1288 488,1257 439,1214 402,1160 366,1105 340,1042 324,971 307,900 297,825 293,744 L 305,744 C 337,792 380,832 436,866 492,899 564,916 651,916 778,916 881,877 958,800 1036,723 1075,614 1075,472 1075,319 1033,198 949,111 865,24 752,-20 610,-20 517,-20 434,3 358,50 283,96 224,167 179,263 135,358 113,479 113,625 Z M 608,132 C 694,132 764,159 817,214 870,270 897,355 897,472 897,564 873,638 826,693 779,747 709,775 614,775 550,775 494,761 446,735 399,708 361,674 335,633 308,592 295,550 295,506 295,448 307,389 330,331 353,273 388,225 434,188 481,150 539,132 608,132 Z"/>
   <glyph unicode="5" horiz-adv-x="953" d="M 563,898 C 713,898 833,860 922,785 1010,710 1055,604 1055,467 1055,316 1007,197 910,110 814,23 680,-20 508,-20 433,-20 362,-13 296,0 230,14 174,34 129,60 L 129,230 C 178,200 238,176 308,159 379,142 446,134 510,134 618,134 705,159 771,210 837,262 870,341 870,449 870,545 841,618 782,669 724,720 631,746 504,746 466,746 422,743 373,736 324,729 284,722 254,715 L 164,773 219,1463 952,1463 952,1299 373,1299 338,875 C 361,879 393,884 432,889 472,895 515,898 563,898 Z"/>
   <glyph unicode="2" horiz-adv-x="1007" d="M 1065,0 L 98,0 98,149 481,537 C 555,610 617,676 668,733 718,790 756,847 782,902 808,957 821,1018 821,1083 821,1164 797,1225 750,1267 702,1308 640,1329 563,1329 492,1329 430,1317 376,1292 322,1268 267,1233 211,1190 L 115,1311 C 172,1358 238,1399 312,1432 387,1466 470,1483 563,1483 700,1483 808,1448 887,1379 966,1310 1006,1215 1006,1094 1006,1017 990,945 958,878 927,812 883,746 827,681 771,616 706,547 631,473 L 326,172 326,164 1065,164 1065,0 Z"/>
   <glyph unicode="1" horiz-adv-x="583" d="M 727,0 L 551,0 551,1022 C 551,1080 552,1128 553,1163 554,1199 556,1235 559,1274 537,1252 517,1233 500,1218 482,1203 459,1184 432,1161 L 276,1034 182,1155 578,1462 727,1462 727,0 Z"/>
  </font>
 </defs>
 <defs class="TextShapeIndex">
  <g ooo:slide="id1" ooo:id-list="id3"/>
 </defs>
 <defs class="EmbeddedBulletChars">
  <g id="bullet-char-template-57356" transform="scale(0.00048828125,-0.00048828125)">
   <path d="M 580,1141 L 1163,571 580,0 -4,571 580,1141 Z"/>
  </g>
  <g id="bullet-char-template-57354" transform="scale(0.00048828125,-0.00048828125)">
   <path d="M 8,1128 L 1137,1128 1137,0 8,0 8,1128 Z"/>
  </g>
  <g id="bullet-char-template-10146" transform="scale(0.00048828125,-0.00048828125)">
   <path d="M 174,0 L 602,739 174,1481 1456,739 174,0 Z M 1358,739 L 309,1346 659,739 1358,739 Z"/>
  </g>
  <g id="bullet-char-template-10132" transform="scale(0.00048828125,-0.00048828125)">
   <path d="M 2015,739 L 1276,0 717,0 1260,543 174,543 174,936 1260,936 717,1481 1274,1481 2015,739 Z"/>
  </g>
  <g id="bullet-char-template-10007" transform="scale(0.00048828125,-0.00048828125)">
   <path d="M 0,-2 C -7,14 -16,27 -25,37 L 356,567 C 262,823 215,952 215,954 215,979 228,992 255,992 264,992 276,990 289,987 310,991 331,999 354,1012 L 381,999 492,748 772,1049 836,1024 860,1049 C 881,1039 901,1025 922,1006 886,937 835,863 770,784 769,783 710,716 594,584 L 774,223 C 774,196 753,168 711,139 L 727,119 C 717,90 699,76 672,76 641,76 570,178 457,381 L 164,-76 C 142,-110 111,-127 72,-127 30,-127 9,-110 8,-76 1,-67 -2,-52 -2,-32 -2,-23 -1,-13 0,-2 Z"/>
  </g>
  <g id="bullet-char-template-10004" transform="scale(0.00048828125,-0.00048828125)">
   <path d="M 285,-33 C 182,-33 111,30 74,156 52,228 41,333 41,471 41,549 55,616 82,672 116,743 169,778 240,778 293,778 328,747 346,684 L 369,508 C 377,444 397,411 428,410 L 1163,1116 C 1174,1127 1196,1133 1229,1133 1271,1133 1292,1118 1292,1087 L 1292,965 C 1292,929 1282,901 1262,881 L 442,47 C 390,-6 338,-33 285,-33 Z"/>
  </g>
  <g id="bullet-char-template-9679" transform="scale(0.00048828125,-0.00048828125)">
   <path d="M 813,0 C 632,0 489,54 383,161 276,268 223,411 223,592 223,773 276,916 383,1023 489,1130 632,1184 813,1184 992,1184 1136,1130 1245,1023 1353,916 1407,772 1407,592 1407,412 1353,268 1245,161 1136,54 992,0 813,0 Z"/>
  </g>
  <g id="bullet-char-template-8226" transform="scale(0.00048828125,-0.00048828125)">
   <path d="M 346,457 C 273,457 209,483 155,535 101,586 74,649 74,723 74,796 101,859 155,911 209,963 273,989 346,989 419,989 480,963 531,910 582,859 608,796 608,723 608,648 583,586 532,535 482,483 420,457 346,457 Z"/>
  </g>
  <g id="bullet-char-template-8211" transform="scale(0.00048828125,-0.00048828125)">
   <path d="M -4,459 L 1135,459 1135,606 -4,606 -4,459 Z"/>
  </g>
  <g id="bullet-char-template-61548" transform="scale(0.00048828125,-0.00048828125)">
   <path d="M 173,740 C 173,903 231,1043 346,1159 462,1274 601,1332 765,1332 928,1332 1067,1274 1183,1159 1299,1043 1357,903 1357,740 1357,577 1299,437 1183,322 1067,206 928,148 765,148 601,148 462,206 346,322 231,437 173,577 173,740 Z"/>
  </g>
 </defs>
 <g>
  <g id="id2" class="Master_Slide">
   <g id="bg-id2" class="Background"/>
   <g id="bo-id2" class="BackgroundObjects"/>
  </g>
 </g>
 <g class="SlideGroup">
  <g>
   <g id="container-id1">
    <g id="id1" class="Slide" clip-path="url(#presentation_clip_path)">
     <g class="Page">
      <g class="Graphic">
       <g id="id3">
        <rect class="BoundingBox" stroke="none" fill="none" x="148" y="176" width="21987" height="6112"/>
        <defs>
         <clipPath id="clip_path_1" clipPathUnits="userSpaceOnUse">
          <path d="M 148,176 L 22134,176 22134,6287 148,6287 148,176 Z"/>
         </clipPath>
        </defs>
        <g clip-path="url(#clip_path_1)">
         <path fill="rgb(55,113,200)" stroke="none" d="M 11141,2042 L 14427,2042 C 14584,2042 14712,1923 14712,1777 L 14712,455 C 14712,309 14584,190 14427,190 L 7856,190 C 7698,190 7570,309 7570,455 L 7570,1777 C 7570,1923 7698,2042 7856,2042 L 11141,2042 Z"/>
         <path fill="none" stroke="rgb(0,0,0)" stroke-width="27" stroke-linejoin="miter" d="M 11141,2042 L 14427,2042 C 14584,2042 14712,1923 14712,1777 L 14712,455 C 14712,309 14584,190 14427,190 L 7856,190 C 7698,190 7570,309 7570,455 L 7570,1777 C 7570,1923 7698,2042 7856,2042 L 11141,2042 Z"/>
         <path fill="rgb(55,113,200)" stroke="none" d="M 11141,6274 L 14427,6274 C 14584,6274 14712,6155 14712,6009 L 14712,4687 C 14712,4541 14584,4422 14427,4422 L 7856,4422 C 7698,4422 7570,4541 7570,4687 L 7570,6009 C 7570,6155 7698,6274 7856,6274 L 11141,6274 Z"/>
         <path fill="none" stroke="rgb(0,0,0)" stroke-width="27" stroke-linejoin="miter" d="M 11141,6274 L 14427,6274 C 14584,6274 14712,6155 14712,6009 L 14712,4687 C 14712,4541 14584,4422 14427,4422 L 7856,4422 C 7698,4422 7570,4541 7570,4687 L 7570,6009 C 7570,6155 7698,6274 7856,6274 L 11141,6274 Z"/>
         <path fill="rgb(55,113,200)" stroke="none" d="M 3733,6274 L 7019,6274 C 7176,6274 7304,6155 7304,6009 L 7304,4687 C 7304,4541 7176,4423 7019,4423 L 448,4423 C 290,4423 162,4541 162,4687 L 162,6009 C 162,6155 290,6274 448,6274 L 3733,6274 Z"/>
         <path fill="none" stroke="rgb(0,0,0)" stroke-width="27" stroke-linejoin="miter" d="M 3733,6274 L 7019,6274 C 7176,6274 7304,6155 7304,6009 L 7304,4687 C 7304,4541 7176,4423 7019,4423 L 448,4423 C 290,4423 162,4541 162,4687 L 162,6009 C 162,6155 290,6274 448,6274 L 3733,6274 Z"/>
         <path fill="rgb(55,113,200)" stroke="none" d="M 18549,6274 L 21835,6274 C 21992,6274 22120,6155 22120,6009 L 22120,4687 C 22120,4541 21992,4423 21835,4423 L 15264,4423 C 15106,4423 14978,4541 14978,4687 L 14978,6009 C 14978,6155 15106,6274 15264,6274 L 18549,6274 Z"/>
         <path fill="none" stroke="rgb(0,0,0)" stroke-width="27" stroke-linejoin="miter" d="M 18549,6274 L 21835,6274 C 21992,6274 22120,6155 22120,6009 L 22120,4687 C 22120,4541 21992,4423 21835,4423 L 15264,4423 C 15106,4423 14978,4541 14978,4687 L 14978,6009 C 14978,6155 15106,6274 15264,6274 L 18549,6274 Z"/>
         <path fill="rgb(215,227,244)" stroke="none" d="M 8759,1693 L 9118,1693 C 9285,1693 9420,1569 9420,1416 L 9420,648 C 9420,495 9285,370 9118,370 L 8401,370 C 8233,370 8098,495 8098,648 L 8098,1416 C 8098,1569 8233,1693 8401,1693 L 8759,1693 Z"/>
         <text class="SVGTextShape"><tspan class="TextParagraph" font-family="Sans, sans-serif" font-size="952px" font-weight="400"><tspan class="TextPosition" x="8440" y="1376"><tspan fill="rgb(0,0,0)" stroke="none" style="white-space: pre">7</tspan></tspan></tspan></text>
         <path fill="rgb(215,227,244)" stroke="none" d="M 8047,1764 C 8047,1837 7987,1897 7914,1897 7841,1897 7782,1837 7782,1764 7782,1691 7841,1632 7914,1632 7987,1632 8047,1691 8047,1764 L 8047,1764 Z"/>
         <path fill="rgb(215,227,244)" stroke="none" d="M 10399,1693 L 10758,1693 C 10925,1693 11061,1569 11061,1416 L 11061,648 C 11061,495 10925,370 10758,370 L 10041,370 C 9874,370 9738,495 9738,648 L 9738,1416 C 9738,1569 9874,1693 10041,1693 L 10399,1693 Z"/>
         <text class="SVGTextShape"><tspan class="TextParagraph" font-family="Sans, sans-serif" font-size="952px" font-weight="400"><tspan class="TextPosition" x="9816" y="1376"><tspan fill="rgb(0,0,0)" stroke="none" style="white-space: pre">16</tspan></tspan></tspan></text>
         <path fill="rgb(215,227,244)" stroke="none" d="M 9687,1764 C 9687,1837 9628,1897 9555,1897 9482,1897 9422,1837 9422,1764 9422,1691 9482,1632 9555,1632 9628,1632 9687,1691 9687,1764 L 9687,1764 Z"/>
         <path fill="rgb(215,227,244)" stroke="none" d="M 8759,5926 L 9118,5926 C 9285,5926 9420,5802 9420,5648 L 9420,4881 C 9420,4728 9285,4603 9118,4603 L 8401,4603 C 8233,4603 8098,4728 8098,4881 L 8098,5648 C 8098,5802 8233,5926 8401,5926 L 8759,5926 Z"/>
         <text class="SVGTextShape"><tspan class="TextParagraph" font-family="Sans, sans-serif" font-size="952px" font-weight="400"><tspan class="TextPosition" x="8440" y="5608"><tspan fill="rgb(0,0,0)" stroke="none" style="white-space: pre">9</tspan></tspan></tspan></text>
         <path fill="rgb(215,227,244)" stroke="none" d="M 8047,5997 C 8047,6070 7987,6129 7914,6129 7841,6129 7782,6070 7782,5997 7782,5924 7841,5865 7914,5865 7987,5865 8047,5924 8047,5997 L 8047,5997 Z"/>
         <path fill="rgb(215,227,244)" stroke="none" d="M 10399,5926 L 10758,5926 C 10925,5926 11061,5802 11061,5648 L 11061,4881 C 11061,4728 10925,4603 10758,4603 L 10041,4603 C 9874,4603 9738,4728 9738,4881 L 9738,5648 C 9738,5802 9874,5926 10041,5926 L 10399,5926 Z"/>
         <text class="SVGTextShape"><tspan class="TextParagraph" font-family="Sans, sans-serif" font-size="952px" font-weight="400"><tspan class="TextPosition" x="9816" y="5608"><tspan fill="rgb(0,0,0)" stroke="none" style="white-space: pre">12</tspan></tspan></tspan></text>
         <path fill="rgb(215,227,244)" stroke="none" d="M 9687,5997 C 9687,6070 9628,6129 9555,6129 9482,6129 9422,6070 9422,5997 9422,5924 9482,5865 9555,5865 9628,5865 9687,5924 9687,5997 L 9687,5997 Z"/>
         <path fill="rgb(215,227,244)" stroke="none" d="M 11327,1764 C 11327,1837 11268,1897 11195,1897 11122,1897 11063,1837 11063,1764 11063,1691 11122,1632 11195,1632 11268,1632 11327,1691 11327,1764 L 11327,1764 Z"/>
         <path fill="rgb(215,227,244)" stroke="none" d="M 11327,5997 C 11327,6070 11268,6129 11195,6129 11122,6129 11063,6070 11063,5997 11063,5924 11122,5865 11195,5865 11268,5865 11327,5924 11327,5997 L 11327,5997 Z"/>
         <path fill="rgb(215,227,244)" stroke="none" d="M 1351,5926 L 1710,5926 C 1877,5926 2012,5802 2012,5648 L 2012,4881 C 2012,4728 1877,4603 1710,4603 L 992,4603 C 825,4603 690,4728 690,4881 L 690,5648 C 690,5802 825,5926 992,5926 L 1351,5926 Z"/>
         <text class="SVGTextShape"><tspan class="TextParagraph" font-family="Sans, sans-serif" font-size="952px" font-weight="400"><tspan class="TextPosition" x="1058" y="5608"><tspan fill="rgb(0,0,0)" stroke="none" style="white-space: pre">1</tspan></tspan></tspan></text>
         <path fill="rgb(215,227,244)" stroke="none" d="M 639,5997 C 639,6070 579,6129 506,6129 433,6129 374,6070 374,5997 374,5924 433,5865 506,5865 579,5865 639,5924 639,5997 L 639,5997 Z"/>
         <path fill="rgb(215,227,244)" stroke="none" d="M 2991,5926 L 3350,5926 C 3517,5926 3653,5802 3653,5648 L 3653,4881 C 3653,4728 3517,4603 3350,4603 L 2633,4603 C 2466,4603 2330,4728 2330,4881 L 2330,5648 C 2330,5802 2466,5926 2633,5926 L 2991,5926 Z"/>
         <text class="SVGTextShape"><tspan class="TextParagraph" font-family="Sans, sans-serif" font-size="952px" font-weight="400"><tspan class="TextPosition" x="2672" y="5608"><tspan fill="rgb(0,0,0)" stroke="none" style="white-space: pre">2</tspan></tspan></tspan></text>
         <path fill="rgb(215,227,244)" stroke="none" d="M 2279,5997 C 2279,6070 2220,6129 2147,6129 2074,6129 2014,6070 2014,5997 2014,5924 2074,5865 2147,5865 2220,5865 2279,5924 2279,5997 L 2279,5997 Z"/>
         <path fill="rgb(215,227,244)" stroke="none" d="M 3919,5997 C 3919,6070 3860,6129 3787,6129 3714,6129 3655,6070 3655,5997 3655,5924 3714,5865 3787,5865 3860,5865 3919,5924 3919,5997 L 3919,5997 Z"/>
         <path fill="rgb(215,227,244)" stroke="none" d="M 16167,5926 L 16526,5926 C 16693,5926 16829,5802 16829,5648 L 16829,4881 C 16829,4728 16693,4603 16526,4603 L 15809,4603 C 15641,4603 15506,4728 15506,4881 L 15506,5648 C 15506,5802 15641,5926 15809,5926 L 16167,5926 Z"/>
         <text class="SVGTextShape"><tspan class="TextParagraph" font-family="Sans, sans-serif" font-size="952px" font-weight="400"><tspan class="TextPosition" x="15583" y="5608"><tspan fill="rgb(0,0,0)" stroke="none" style="white-space: pre">18</tspan></tspan></tspan></text>
         <path fill="rgb(215,227,244)" stroke="none" d="M 15455,5997 C 15455,6070 15395,6129 15322,6129 15249,6129 15190,6070 15190,5997 15190,5924 15249,5865 15322,5865 15395,5865 15455,5924 15455,5997 L 15455,5997 Z"/>
         <path fill="rgb(215,227,244)" stroke="none" d="M 17807,5926 L 18166,5926 C 18333,5926 18469,5802 18469,5648 L 18469,4881 C 18469,4728 18333,4603 18166,4603 L 17449,4603 C 17282,4603 17146,4728 17146,4881 L 17146,5648 C 17146,5802 17282,5926 17449,5926 L 17807,5926 Z"/>
         <text class="SVGTextShape"><tspan class="TextParagraph" font-family="Sans, sans-serif" font-size="952px" font-weight="400"><tspan class="TextPosition" x="17224" y="5608"><tspan fill="rgb(0,0,0)" stroke="none" style="white-space: pre">21</tspan></tspan></tspan></text>
         <path fill="rgb(215,227,244)" stroke="none" d="M 17095,5997 C 17095,6070 17036,6129 16963,6129 16890,6129 16830,6070 16830,5997 16830,5924 16890,5865 16963,5865 17036,5865 17095,5924 17095,5997 L 17095,5997 Z"/>
         <path fill="rgb(215,227,244)" stroke="none" d="M 18735,5997 C 18735,6070 18676,6129 18603,6129 18530,6129 18471,6070 18471,5997 18471,5924 18530,5865 18603,5865 18676,5865 18735,5924 18735,5997 L 18735,5997 Z"/>
         <path fill="rgb(215,227,244)" stroke="none" d="M 4579,5926 L 4937,5926 C 5105,5926 5240,5802 5240,5648 L 5240,4881 C 5240,4728 5105,4603 4937,4603 L 4220,4603 C 4053,4603 3917,4728 3917,4881 L 3917,5648 C 3917,5802 4053,5926 4220,5926 L 4579,5926 Z"/>
         <text class="SVGTextShape"><tspan class="TextParagraph" font-family="Sans, sans-serif" font-size="952px" font-weight="400"><tspan class="TextPosition" x="4260" y="5608"><tspan fill="rgb(0,0,0)" stroke="none" style="white-space: pre">5</tspan></tspan></tspan></text>
         <path fill="rgb(215,227,244)" stroke="none" d="M 5507,5997 C 5507,6070 5448,6129 5374,6129 5301,6129 5242,6070 5242,5997 5242,5924 5301,5865 5374,5865 5448,5865 5507,5924 5507,5997 L 5507,5997 Z"/>
         <path fill="rgb(215,227,244)" stroke="none" d="M 6219,5926 L 6578,5926 C 6745,5926 6881,5802 6881,5648 L 6881,4881 C 6881,4728 6745,4603 6578,4603 L 5861,4603 C 5693,4603 5558,4728 5558,4881 L 5558,5648 C 5558,5802 5693,5926 5861,5926 L 6219,5926 Z"/>
         <text class="SVGTextShape"><tspan class="TextParagraph" font-family="Sans, sans-serif" font-size="952px" font-weight="400"><tspan class="TextPosition" x="5900" y="5608"><tspan fill="rgb(0,0,0)" stroke="none" style="white-space: pre">6</tspan></tspan></tspan></text>
         <path fill="rgb(215,227,244)" stroke="none" d="M 7147,5997 C 7147,6070 7088,6129 7015,6129 6942,6129 6883,6070 6883,5997 6883,5924 6942,5865 7015,5865 7088,5865 7147,5924 7147,5997 L 7147,5997 Z"/>
         <path fill="none" stroke="rgb(0,0,0)" stroke-width="79" stroke-linejoin="miter" d="M 7834,1879 L 3942,4372"/>
         <path fill="rgb(0,0,0)" stroke="none" d="M 4846,4211 L 3854,4430 4468,3620 C 4451,3876 4605,4115 4846,4211 L 4846,4211 Z"/>
         <path fill="none" stroke="rgb(0,0,0)" stroke-width="79" stroke-linejoin="miter" d="M 9550,1879 L 9595,4372"/>
         <path fill="rgb(0,0,0)" stroke="none" d="M 9932,3517 L 9598,4477 9230,3530 C 9440,3678 9724,3672 9932,3517 L 9932,3517 Z"/>
         <path fill="none" stroke="rgb(0,0,0)" stroke-width="79" stroke-linejoin="miter" d="M 11168,1879 L 15695,4372"/>
         <path fill="rgb(0,0,0)" stroke="none" d="M 15121,3654 L 15788,4421 14783,4268 C 15016,4160 15152,3912 15121,3654 L 15121,3654 Z"/>
        </g>
       </g>
      </g>
     </g>
    </g>
   </g>
  </g>
 </g>
</svg>