<?xml version="1.0" encoding="UTF-8"?>
<svg xmlns="http://www.w3.org/2000/svg" xmlns:xlink="http://www.w3.org/1999/xlink" width="120px" height="120px" viewBox="0 0 120 120" version="1.1">
<g id="surface1">
<path style=" stroke:none;fill-rule:nonzero;fill:rgb(0%,0%,0%);fill-opacity:1;" d="M 117.730469 71.855469 C 117.03125 69.742188 115.207031 68.273438 112.84375 67.917969 C 111.726562 67.753906 110.449219 67.824219 108.941406 68.136719 C 106.308594 68.679688 104.355469 68.886719 102.929688 68.925781 C 108.308594 59.839844 112.683594 49.480469 115.203125 39.730469 C 119.277344 23.960938 117.097656 16.78125 114.554688 13.53125 C 107.824219 4.929688 98.007812 0.308594 86.160156 0.167969 C 79.839844 0.09375 74.292969 1.339844 71.398438 2.238281 C 68.703125 1.761719 65.808594 1.496094 62.765625 1.445312 C 57.066406 1.355469 52.03125 2.597656 47.730469 5.152344 C 45.347656 4.347656 41.527344 3.210938 37.113281 2.484375 C 26.730469 0.78125 18.359375 2.109375 12.238281 6.433594 C 4.828125 11.667969 1.390625 20.765625 2.027344 33.46875 C 2.230469 37.503906 4.484375 49.777344 8.039062 61.414062 C 10.082031 68.105469 12.257812 73.660156 14.511719 77.929688 C 17.703125 83.980469 21.121094 87.546875 24.957031 88.824219 C 27.109375 89.542969 31.015625 90.042969 35.125 86.621094 C 35.648438 87.25 36.34375 87.878906 37.265625 88.460938 C 38.433594 89.199219 39.867188 89.804688 41.296875 90.160156 C 46.453125 91.449219 51.28125 91.128906 55.402344 89.320312 C 55.425781 90.054688 55.445312 90.753906 55.460938 91.359375 C 55.488281 92.339844 55.515625 93.300781 55.554688 94.199219 C 55.796875 100.277344 56.210938 105.003906 57.4375 108.3125 C 57.503906 108.492188 57.59375 108.769531 57.691406 109.066406 C 58.300781 110.9375 59.324219 114.070312 61.925781 116.523438 C 64.617188 119.066406 67.875 119.847656 70.859375 119.847656 C 72.355469 119.847656 73.78125 119.652344 75.035156 119.382812 C 79.5 118.425781 84.566406 116.96875 88.234375 111.746094 C 91.703125 106.808594 93.386719 99.375 93.691406 87.660156 C 93.734375 87.328125 93.769531 87.011719 93.804688 86.710938 L 93.875 86.09375 L 94.695312 86.164062 L 94.902344 86.175781 C 99.449219 86.386719 105.007812 85.421875 108.421875 83.835938 C 111.121094 82.582031 119.765625 78.019531 117.730469 71.855469 "/>
<path style=" stroke:none;fill-rule:nonzero;fill:rgb(20%,40.392157%,56.862745%);fill-opacity:1;" d="M 109.957031 73.054688 C 96.4375 75.84375 95.507812 71.265625 95.507812 71.265625 C 109.78125 50.089844 115.75 23.207031 110.601562 16.625 C 96.554688 -1.320312 72.238281 7.167969 71.832031 7.386719 L 71.699219 7.410156 C 69.03125 6.855469 66.042969 6.527344 62.683594 6.46875 C 56.566406 6.371094 51.925781 8.074219 48.40625 10.742188 C 48.40625 10.742188 5.027344 -7.125 7.046875 33.21875 C 7.472656 41.800781 19.347656 98.160156 33.507812 81.136719 C 38.683594 74.914062 43.683594 69.648438 43.683594 69.648438 C 46.167969 71.300781 49.140625 72.140625 52.257812 71.839844 L 52.5 71.632812 C 52.425781 72.40625 52.460938 73.164062 52.597656 74.058594 C 48.949219 78.132812 50.023438 78.847656 42.730469 80.351562 C 35.351562 81.871094 39.683594 84.578125 42.515625 85.285156 C 45.949219 86.144531 53.886719 87.359375 59.25 79.851562 L 59.035156 80.707031 C 60.464844 81.851562 61.46875 88.15625 61.300781 93.867188 C 61.132812 99.582031 61.019531 103.503906 62.144531 106.566406 C 63.273438 109.628906 64.394531 116.523438 73.980469 114.46875 C 81.992188 112.753906 86.144531 108.304688 86.722656 100.882812 C 87.132812 95.605469 88.058594 96.386719 88.117188 91.671875 L 88.859375 89.4375 C 89.71875 82.285156 88.996094 79.980469 93.933594 81.050781 L 95.132812 81.15625 C 98.765625 81.324219 103.519531 80.574219 106.308594 79.277344 C 112.316406 76.488281 115.882812 71.832031 109.957031 73.054688 "/>
<path style=" stroke:none;fill-rule:nonzero;fill:rgb(100%,100%,100%);fill-opacity:1;" d="M 50.945312 37.058594 C 49.726562 36.886719 48.621094 37.042969 48.0625 37.46875 C 47.75 37.703125 47.652344 37.980469 47.625 38.167969 C 47.558594 38.671875 47.910156 39.226562 48.125 39.511719 C 48.738281 40.324219 49.628906 40.882812 50.515625 41.003906 C 50.644531 41.023438 50.769531 41.03125 50.898438 41.03125 C 52.371094 41.03125 53.714844 39.882812 53.832031 39.035156 C 53.980469 37.972656 52.4375 37.265625 50.945312 37.058594 M 91.300781 37.089844 C 91.183594 36.257812 89.703125 36.019531 88.296875 36.214844 C 86.894531 36.410156 85.53125 37.046875 85.644531 37.878906 C 85.738281 38.527344 86.910156 39.636719 88.296875 39.636719 C 88.414062 39.636719 88.53125 39.628906 88.648438 39.609375 C 89.574219 39.484375 90.253906 38.894531 90.578125 38.554688 C 91.066406 38.039062 91.351562 37.464844 91.300781 37.089844 "/>
<path style=" stroke:none;fill-rule:nonzero;fill:rgb(100%,100%,100%);fill-opacity:1;" d="M 114.457031 72.738281 C 113.941406 71.179688 112.28125 70.679688 109.523438 71.246094 C 101.339844 72.9375 98.410156 71.765625 97.449219 71.058594 C 103.808594 61.367188 109.042969 49.652344 111.863281 38.722656 C 113.203125 33.546875 113.941406 28.738281 114 24.820312 C 114.066406 20.515625 113.335938 17.355469 111.824219 15.425781 C 105.734375 7.640625 96.792969 3.464844 85.96875 3.351562 C 78.527344 3.269531 72.242188 5.171875 71.023438 5.707031 C 68.457031 5.070312 65.660156 4.675781 62.613281 4.628906 C 57.027344 4.535156 52.199219 5.875 48.203125 8.601562 C 46.464844 7.953125 41.980469 6.414062 36.492188 5.527344 C 27.003906 4 19.464844 5.160156 14.085938 8.96875 C 7.664062 13.519531 4.703125 21.648438 5.277344 33.132812 C 5.46875 37 7.671875 48.886719 11.144531 60.269531 C 15.71875 75.253906 20.691406 83.734375 25.921875 85.480469 C 26.535156 85.683594 27.238281 85.828125 28.019531 85.828125 C 29.925781 85.828125 32.265625 84.96875 34.699219 82.039062 C 37.667969 78.480469 40.742188 75.003906 43.910156 71.621094 C 45.964844 72.722656 48.226562 73.339844 50.535156 73.402344 C 50.539062 73.460938 50.546875 73.523438 50.550781 73.582031 C 50.152344 74.058594 49.765625 74.539062 49.382812 75.027344 C 47.78125 77.058594 47.449219 77.480469 42.296875 78.542969 C 40.832031 78.84375 36.9375 79.648438 36.878906 82.375 C 36.816406 85.359375 41.480469 86.609375 42.011719 86.742188 C 43.867188 87.207031 45.648438 87.433594 47.351562 87.433594 C 51.488281 87.433594 55.128906 86.074219 58.039062 83.445312 C 57.949219 94.074219 58.394531 104.546875 59.671875 107.738281 C 60.714844 110.351562 63.269531 116.738281 71.335938 116.738281 C 72.519531 116.738281 73.820312 116.597656 75.253906 116.292969 C 83.671875 114.488281 87.328125 110.765625 88.742188 102.5625 C 89.5 98.179688 90.800781 87.710938 91.410156 82.09375 C 92.699219 82.496094 94.359375 82.683594 96.152344 82.679688 C 99.894531 82.679688 104.210938 81.886719 106.921875 80.628906 C 109.960938 79.21875 115.449219 75.75 114.457031 72.738281 Z M 94.40625 34.792969 C 94.378906 36.449219 94.152344 37.957031 93.910156 39.527344 C 93.648438 41.214844 93.378906 42.964844 93.3125 45.082031 C 93.246094 47.148438 93.503906 49.292969 93.753906 51.367188 C 94.257812 55.558594 94.773438 59.875 92.773438 64.128906 C 92.441406 63.542969 92.144531 62.933594 91.886719 62.308594 C 91.636719 61.707031 91.097656 60.738281 90.347656 59.398438 C 87.441406 54.179688 80.628906 41.964844 84.117188 36.980469 C 85.15625 35.496094 87.789062 33.972656 94.40625 34.792969 Z M 86.386719 6.707031 C 96.085938 6.921875 103.753906 10.550781 109.1875 17.488281 C 113.351562 22.8125 108.765625 47.035156 95.488281 67.929688 C 95.351562 67.761719 95.21875 67.589844 95.082031 67.421875 L 94.914062 67.210938 C 98.347656 61.546875 97.675781 55.9375 97.078125 50.96875 C 96.832031 48.929688 96.601562 47 96.660156 45.191406 C 96.722656 43.273438 96.976562 41.628906 97.21875 40.035156 C 97.523438 38.078125 97.828125 36.046875 97.742188 33.65625 C 97.808594 33.40625 97.832031 33.109375 97.800781 32.757812 C 97.582031 30.464844 94.964844 23.601562 89.628906 17.390625 C 86.710938 13.992188 82.453125 10.1875 76.640625 7.625 C 79.140625 7.105469 82.558594 6.625 86.386719 6.707031 Z M 32.125 79.898438 C 29.441406 83.125 27.589844 82.503906 26.980469 82.300781 C 23.011719 80.980469 18.410156 72.59375 14.347656 59.292969 C 10.835938 47.785156 8.785156 36.210938 8.621094 32.964844 C 8.109375 22.703125 10.597656 15.550781 16.015625 11.707031 C 24.835938 5.453125 39.335938 9.195312 45.164062 11.09375 C 45.078125 11.179688 44.992188 11.253906 44.910156 11.339844 C 35.347656 20.996094 35.574219 37.492188 35.597656 38.503906 C 35.597656 38.890625 35.628906 39.441406 35.675781 40.199219 C 35.839844 42.976562 36.144531 48.140625 35.328125 53.988281 C 34.566406 59.421875 36.242188 64.742188 39.921875 68.582031 C 40.300781 68.976562 40.699219 69.351562 41.113281 69.707031 C 39.476562 71.460938 35.914062 75.339844 32.125 79.898438 Z M 42.34375 66.265625 C 39.375 63.171875 38.027344 58.863281 38.644531 54.453125 C 39.507812 48.273438 39.191406 42.894531 39.019531 40.003906 C 38.996094 39.597656 38.972656 39.242188 38.960938 38.964844 C 40.359375 37.726562 46.832031 34.257812 51.449219 35.316406 C 53.554688 35.796875 54.835938 37.230469 55.371094 39.699219 C 58.132812 52.472656 55.738281 57.796875 53.8125 62.074219 C 53.414062 62.957031 53.039062 63.789062 52.71875 64.652344 L 52.472656 65.316406 C 51.84375 67.003906 51.257812 68.570312 50.894531 70.054688 C 47.742188 70.046875 44.675781 68.699219 42.34375 66.265625 Z M 42.828125 83.492188 C 41.90625 83.261719 41.078125 82.863281 40.589844 82.53125 C 40.996094 82.339844 41.71875 82.082031 42.972656 81.824219 C 49.035156 80.574219 49.972656 79.695312 52.015625 77.097656 C 52.484375 76.503906 53.015625 75.828125 53.75 75.007812 L 53.753906 75.007812 C 54.847656 73.777344 55.347656 73.988281 56.257812 74.363281 C 56.996094 74.667969 57.714844 75.59375 58.003906 76.609375 C 58.140625 77.089844 58.296875 78 57.789062 78.707031 C 53.519531 84.6875 47.296875 84.613281 42.828125 83.492188 Z M 74.554688 113.015625 C 67.136719 114.605469 64.511719 110.820312 62.78125 106.496094 C 61.664062 103.703125 61.113281 91.109375 61.503906 77.203125 C 61.507812 77.015625 61.484375 76.839844 61.433594 76.671875 C 61.386719 76.339844 61.316406 76.007812 61.222656 75.6875 C 60.644531 73.664062 59.234375 71.972656 57.539062 71.269531 C 56.867188 70.992188 55.632812 70.480469 54.148438 70.859375 C 54.464844 69.554688 55.015625 68.082031 55.609375 66.488281 L 55.859375 65.816406 C 56.140625 65.0625 56.492188 64.277344 56.867188 63.449219 C 58.882812 58.972656 61.640625 52.84375 58.644531 38.992188 C 57.523438 33.800781 53.777344 31.269531 48.097656 31.859375 C 44.695312 32.210938 41.578125 33.582031 40.023438 34.371094 C 39.691406 34.539062 39.386719 34.703125 39.101562 34.863281 C 39.535156 29.636719 41.171875 19.867188 47.300781 13.6875 C 51.160156 9.796875 56.296875 7.875 62.558594 7.976562 C 74.894531 8.179688 82.804688 14.507812 87.269531 19.785156 C 91.117188 24.332031 93.199219 28.910156 94.03125 31.382812 C 87.78125 30.746094 83.527344 31.980469 81.371094 35.0625 C 76.683594 41.765625 83.9375 54.777344 87.425781 61.027344 C 88.0625 62.175781 88.617188 63.164062 88.789062 63.585938 C 89.925781 66.335938 91.394531 68.175781 92.46875 69.515625 C 92.796875 69.925781 93.117188 70.324219 93.359375 70.671875 C 91.464844 71.21875 88.0625 72.480469 88.375 78.785156 C 88.125 81.949219 86.347656 96.761719 85.441406 101.996094 C 84.25 108.90625 81.707031 111.484375 74.554688 113.015625 Z M 105.507812 77.589844 C 103.574219 78.488281 100.332031 79.164062 97.253906 79.308594 C 93.855469 79.46875 92.125 78.929688 91.714844 78.597656 C 91.527344 74.667969 92.988281 74.257812 94.535156 73.820312 C 94.777344 73.753906 95.015625 73.6875 95.246094 73.605469 C 95.386719 73.722656 95.542969 73.835938 95.714844 73.949219 C 98.445312 75.753906 103.320312 75.949219 110.203125 74.527344 L 110.277344 74.511719 C 109.347656 75.382812 107.761719 76.546875 105.507812 77.589844 Z M 105.507812 77.589844 "/>
</g>
</svg>
